<?xml version="1.0" encoding="utf-8"?>
<!-- Generator: Adobe Illustrator 24.0.1, SVG Export Plug-In . SVG Version: 6.00 Build 0)  -->
<svg version="1.1" id="Слой_1" xmlns="http://www.w3.org/2000/svg" xmlns:xlink="http://www.w3.org/1999/xlink" x="0px" y="0px"
	 viewBox="0 0 1555.93 229.1" style="enable-background:new 0 0 1555.93 229.1;" xml:space="preserve">
<style type="text/css">
	.st0{fill:#808285;}
</style>
<g>
	<g id="sd40TR_1_">
		<g>
			<path class="st0" d="M114.42,229.1C51.19,229.09-0.02,177.72,0,114.34C0.02,50.9,51.47-0.05,115.47,0
				c62.57,0.05,113.67,51.74,113.62,114.91C229.04,177.93,177.65,229.11,114.42,229.1z M142.23,96.17c0-2.25-0.05-4.44,0.01-6.62
				c0.07-2.34-0.79-3.54-3.34-3.47c-4.45,0.11-8.9,0.1-13.35,0c-2.53-0.06-3.28,1.11-3.28,3.49c0.04,27.44,0.05,54.89-0.01,82.33
				c-0.01,2.67,1.07,3.57,3.61,3.51c4.45-0.1,8.9-0.02,13.35-0.03c4.02-0.01,4.32-0.29,4.32-4.35c0.01-18.12-0.01-36.24,0.04-54.36
				c0-1.19,0.08-2.87,0.82-3.5c5.76-4.9,11.88-9.33,19.57-10.62c5.96-1,10.33,1.78,11.63,7.66c0.84,3.79,1.17,7.76,1.2,11.65
				c0.13,16.42,0.06,32.85,0.07,49.27c0,4.14,0.11,4.24,4.34,4.24c4.13,0.01,8.26,0.01,12.4,0c4.17-0.01,4.33-0.13,4.33-4.27
				c0.01-18.54,0.1-37.09-0.07-55.63c-0.04-4.62-0.49-9.35-1.56-13.83c-2.39-10.03-8.66-16.11-19.17-17.69
				c-7.1-1.06-13.78,0.08-20.03,3.26C152.16,89.74,147.54,92.94,142.23,96.17z M58.58,86.11c0-1.94-0.01-3.4,0-4.86
				c0.11-10.42,2.25-16.03,15.06-14.55c1.87,0.22,2.98-0.43,3.45-2.38c0.82-3.39,1.69-6.78,2.76-10.1c0.88-2.74-0.03-4.2-2.76-4.25
				c-6.21-0.12-12.52-0.71-18.63,0.09c-9.41,1.23-16.25,6.46-19.06,15.92c-0.87,2.92-1.56,5.99-1.64,9.02
				c-0.26,10.48-0.25,20.97-0.26,31.46c-0.03,21.51-0.01,43.02,0,64.53c0,4.28,0.13,4.39,4.52,4.39c4.03,0,8.05,0.01,12.08,0.01
				c4.33,0,4.47-0.15,4.47-4.46c0-21.4,0-42.81,0-64.21c0-1.34,0-2.68,0-4.38c4.12,0,7.8-0.08,11.48,0.03
				c2.28,0.07,3.34-0.77,3.29-3.12c-0.07-3.28-0.09-6.57,0-9.85c0.07-2.48-1.03-3.39-3.46-3.31C66.31,86.2,62.72,86.11,58.58,86.11z
				 M93.6,102.02c0,1.57,0,2.93,0,4.29c0,21.5,0,43.01,0.01,64.51c0,4.5,0.05,4.54,4.69,4.55c3.92,0.01,7.84,0,11.76,0
				c4.49,0,4.69-0.2,4.69-4.6c0-26.38,0-52.75,0-79.13c0-0.95,0.3-2.07-0.1-2.82c-0.59-1.11-1.67-2.77-2.57-2.79
				c-9.82-0.2-19.64-0.14-29.47-0.12c-2.19,0-2.89,1.32-2.87,3.33c0.04,3.28,0.08,6.57-0.01,9.85c-0.06,2.4,1,3.1,3.31,2.97
				C86.4,101.88,89.77,102.02,93.6,102.02z M86.7,69.42c2.51-2.51,5.07-5.12,7.7-7.67c2.13-2.06,4.49-3.89,6.46-6.08
				c1.08-1.19,1.76-2.86,2.26-4.42c0.19-0.59-0.51-2.02-1.02-2.15c-0.81-0.2-2.09,0.1-2.68,0.69c-3.72,3.7-7.24,7.61-10.97,11.31
				C85.74,63.79,85.13,66.54,86.7,69.42z M109.8,52.69c1.62,4.94-0.57,8.36-3.58,11.54c-1.73,1.84-3.46,3.7-4.97,5.72
				c-1.64,2.2-1.97,4.67-0.85,6.94c3.65-4.01,7.33-7.88,10.81-11.93C114.92,60.67,114.49,56.88,109.8,52.69z M102.29,77.67
				c0.22,0.29,0.45,0.58,0.67,0.86c5.32-0.41,10.16-4.99,10.59-9.88C109.84,71.63,106.06,74.65,102.29,77.67z M86.03,60.29
				c3.75-4.03,7.1-7.65,10.04-10.81C90.42,50.7,86.83,54.14,86.03,60.29z"/>
		</g>
	</g>
	<g>
		<path class="st0" d="M300.28,157.59V60.18c0-7.61,3.55-11.5,10.82-11.5h63.76c2.54,0,2.88,0.85,2.88,3.38v11.5
			c0,2.2-0.34,3.04-2.88,3.04h-53.78v26.21h27.74c38.39,0,41.77,25.54,41.77,37.55c0,21.31-17.76,36.7-39.91,36.7h-40.93
			C302.48,167.07,300.28,164.36,300.28,157.59z M348.99,110.07h-27.91v38.56h27.57c16.07,0,20.46-11.67,20.46-19.45
			C369.12,118.36,362.01,110.07,348.99,110.07z"/>
		<path class="st0" d="M471.61,163.01c-9.98,4.57-23.68,5.92-34.5,5.92c-29.94,0-37.88-12.85-37.88-28.24
			c0-15.73,9.81-30.27,36.87-30.27h18.94v-2.88c0-8.63-3.04-14.88-17.42-14.88c-7.61,0-17.93,1.52-23.51,3.38
			c-2.54,0.68-3.38,0.34-3.89-1.69l-2.37-9.64c-0.51-1.86,0-3.04,1.52-3.55c9.47-3.55,21.48-4.9,31.46-4.9
			c23.51,0,33.99,10.65,33.99,30.44v50.74C474.82,160.13,473.81,161.99,471.61,163.01z M438.63,125.46
			c-7.44,0-19.28,1.01-19.28,14.54c0,9.64,7.1,13.02,17.93,13.02c3.21,0,11.67-0.34,17.59-2.71v-24.86H438.63z"/>
		<path class="st0" d="M507.81,167.07h-12.35c-2.54,0-3.72-0.68-3.72-3.38v-82.2c0-2.54,1.18-3.21,3.72-3.21h12.35
			c2.71,0,3.72,0.51,3.72,3.21v30.1h37.21v-30.1c0-2.54,1.18-3.21,3.72-3.21h12.35c2.88,0,3.55,0.51,3.55,3.21v82.2
			c0,2.88-0.68,3.38-3.55,3.38h-12.35c-2.54,0-3.72-0.68-3.72-3.38v-36.02h-37.21v36.02C511.53,166.56,510.51,167.07,507.81,167.07z
			"/>
		<path class="st0" d="M601.67,167.07h-13.53c-2.03,0-3.04-0.17-3.04-2.71V80.98c0-2.54,1.01-2.71,3.04-2.71h13.53
			c2.2,0,3.04,0.17,3.04,2.71v30.95h10.66c6.26,0,12.01-1.69,15.22-11.67l6.26-19.79c0.51-2.03,1.69-2.2,2.88-2.2h13.87
			c2.2,0,2.2,1.69,2.03,2.88l-6.26,22.16c-1.86,6.93-5.24,12.85-11.5,15.56l-0.17,0.34c9.3,2.71,11.84,8.46,14.04,15.56l8.62,29.26
			c0.17,1.18,0.51,3.04-2.2,3.04h-14.54c-0.85,0-2.37-0.17-2.88-2.03l-8.12-27.06c-2.54-7.61-8.63-10.66-15.56-10.66h-12.35v37.04
			C604.72,166.9,603.87,167.07,601.67,167.07z"/>
		<path class="st0" d="M780.79,167.07h-14.21c-2.54,0-3.38-0.34-3.38-2.88v-6.77c-33.32-3.21-51.58-21.65-51.58-50.91
			c0-28.58,20.8-47.69,51.58-51.25v-3.72c0-2.54,0.84-2.88,3.38-2.88h14.21c2.54,0,3.21,0.34,3.21,2.88v3.72
			c33.99,3.21,52.77,21.48,52.77,51.08c0,29.09-21.48,48.03-52.77,51.25v6.6C784,166.73,783.32,167.07,780.79,167.07z
			 M731.57,106.35c0,17.93,9.64,31.8,31.63,34.5v-69C742.73,74.55,731.57,89.44,731.57,106.35z M784,71.68v69.17
			c22.83-2.2,32.81-17.08,32.81-34.67C816.81,88.93,807.51,73.88,784,71.68z"/>
		<path class="st0" d="M855.04,78.27h13.36c2.54,0,3.21,0.17,3.21,2.71v58.18h0.68l10.49-16.91c2.71-4.06,5.24-8.29,24.02-38.39
			c2.88-4.23,4.23-5.58,9.64-5.58h6.09c5.24,0,8.46,2.2,8.46,8.12v77.97c0,2.54-0.85,2.71-3.04,2.71H914.4
			c-2.2,0-3.04-0.17-3.04-2.71v-57.17h-1.01l-10.15,16.24l-24.52,38.05c-2.88,4.57-4.9,5.58-9.64,5.58h-5.75
			c-5.58,0-8.29-2.71-8.29-8.12V80.98C851.99,78.44,852.84,78.27,855.04,78.27z"/>
		<path class="st0" d="M963.96,167.07h-12.35c-2.54,0-3.72-0.68-3.72-3.38v-82.2c0-2.54,1.18-3.21,3.72-3.21h12.35
			c2.71,0,3.72,0.51,3.72,3.21v30.1h37.21v-30.1c0-2.54,1.18-3.21,3.72-3.21h12.35c2.88,0,3.55,0.51,3.55,3.21v82.2
			c0,2.88-0.68,3.38-3.55,3.38h-12.35c-2.54,0-3.72-0.68-3.72-3.38v-36.02h-37.21v36.02C967.68,166.56,966.66,167.07,963.96,167.07z
			"/>
		<path class="st0" d="M1099.94,147.28c2.54-1.18,3.21-0.68,3.89,1.18l4.23,9.81c1.18,1.86,0.85,3.21-1.01,4.23
			c-9.3,5.24-20.63,6.43-29.94,6.43c-25.2,0-39.07-15.39-39.07-45.67c0-28.58,15.9-47.02,40.93-47.02c9.3,0,18.1,1.86,25.71,5.92
			c2.03,1.18,2.54,2.03,1.35,4.23l-4.23,9.98c-0.85,1.86-1.52,2.37-4.23,1.18c-5.41-2.03-11.16-3.72-17.76-3.72
			c-15.56,0-21.65,14.04-21.65,29.43c0,15.73,4.57,28.41,21.99,28.41C1087.42,151.67,1095.2,149.48,1099.94,147.28z"/>
		<path class="st0" d="M1194.99,113.62c0,11.67-5.92,14.88-13.53,14.88h-44.99c0.51,17.59,10.66,23.51,23.68,23.51
			c7.27,0,14.54-2.03,19.79-4.57c1.86-0.85,3.04-0.51,3.72,1.01l4.57,9.64c0.85,1.86,0.34,3.04-1.18,3.89
			c-8.63,5.24-19.28,6.93-28.58,6.93c-27.23,0-42.11-14.04-42.11-45.83c0-29.77,16.91-46.85,40.42-46.85
			C1182.65,76.24,1194.99,90.45,1194.99,113.62z M1137.15,114.3h38.9c0-12.01-3.72-21.65-18.94-21.65
			C1145.27,92.65,1137.66,102.97,1137.15,114.3z"/>
		<path class="st0" d="M1224.59,201.4h-13.36c-2.2,0-3.21-0.34-3.21-2.88V86.9c0-2.03,0.51-2.88,2.71-4.06
			c11.33-4.9,24.35-6.43,35.69-6.43c29.26,0,41.1,20.3,41.1,46.17c0,25.2-13.02,46.17-39.58,46.17c-6.09,0-12.18-0.51-20.13-2.37
			v32.13C1227.8,201.06,1227.13,201.4,1224.59,201.4z M1243.53,93.32c-4.57,0-11.67,1.02-15.73,2.37v53.78
			c6.93,1.86,12.01,2.37,16.57,2.37c13.02,0,22.66-7.44,22.66-29.43C1267.04,100.94,1258.08,93.32,1243.53,93.32z"/>
		<path class="st0" d="M1379.18,140.34c0,16.07-13.36,26.72-30.44,26.72h-39.24c-6.09,0-8.46-3.04-8.46-7.78V86.39
			c0-5.24,2.37-8.12,8.29-8.12h38.22c14.54,0,27.91,6.6,27.91,22.33c0,7.44-4.06,14.21-10.15,17.42v1.01
			C1375.29,122.92,1379.18,131.55,1379.18,140.34z M1345.35,112.61c4.06,0,9.64-2.03,9.64-9.47c0-4.9-3.38-8.46-8.96-8.46h-25.54
			v17.93H1345.35z M1345.18,126.81h-24.69v24.52h24.52c11.33,0,13.87-7.27,13.87-12.35
			C1358.88,131.72,1354.48,126.81,1345.18,126.81z"/>
		<path class="st0" d="M1395.75,78.27h13.36c2.54,0,3.21,0.17,3.21,2.71v58.18h0.68l10.49-16.91c2.71-4.06,5.24-8.29,24.02-38.39
			c2.88-4.23,4.23-5.58,9.64-5.58h6.09c5.24,0,8.46,2.2,8.46,8.12v77.97c0,2.54-0.85,2.71-3.04,2.71h-13.53
			c-2.2,0-3.04-0.17-3.04-2.71v-57.17h-1.01l-10.15,16.24l-24.52,38.05c-2.88,4.57-4.9,5.58-9.64,5.58H1401
			c-5.58,0-8.29-2.71-8.29-8.12V80.98C1392.71,78.44,1393.55,78.27,1395.75,78.27z"/>
		<path class="st0" d="M1547.12,147.28c2.54-1.18,3.21-0.68,3.89,1.18l4.23,9.81c1.18,1.86,0.85,3.21-1.01,4.23
			c-9.3,5.24-20.63,6.43-29.94,6.43c-25.2,0-39.07-15.39-39.07-45.67c0-28.58,15.9-47.02,40.93-47.02c9.3,0,18.1,1.86,25.71,5.92
			c2.03,1.18,2.54,2.03,1.35,4.23l-4.23,9.98c-0.85,1.86-1.52,2.37-4.23,1.18c-5.41-2.03-11.16-3.72-17.76-3.72
			c-15.56,0-21.65,14.04-21.65,29.43c0,15.73,4.57,28.41,21.99,28.41C1534.61,151.67,1542.39,149.48,1547.12,147.28z"/>
	</g>
</g>
</svg>
