<svg xmlns="http://www.w3.org/2000/svg" width="169.56" height="123.18" viewBox="0 0 169.56 123.18">
  <metadata><?xpacket begin="﻿" id="W5M0MpCehiHzreSzNTczkc9d"?>
<x:xmpmeta xmlns:x="adobe:ns:meta/" x:xmptk="Adobe XMP Core 5.6-c140 79.160451, 2017/05/06-01:08:21        ">
   <rdf:RDF xmlns:rdf="http://www.w3.org/1999/02/22-rdf-syntax-ns#">
      <rdf:Description rdf:about=""/>
   </rdf:RDF>
</x:xmpmeta>
                                                                                                    
                                                                                                    
                                                                                                    
                                                                                                    
                                                                                                    
                                                                                                    
                                                                                                    
                                                                                                    
                                                                                                    
                                                                                                    
                                                                                                    
                                                                                                    
                                                                                                    
                                                                                                    
                                                                                                    
                                                                                                    
                                                                                                    
                                                                                                    
                                                                                                    
                                                                                                    
                           
<?xpacket end="w"?></metadata>
<defs>
    <style>
      .cls-1 {
        fill: #063a74;
        fill-rule: evenodd;
      }
    </style>
  </defs>
  <path class="cls-1" d="M1670.59,1842.96c-0.51.83-1,.43-1.5,0.1a2.348,2.348,0,0,1-.33,1.12l-0.24.27a5.8,5.8,0,0,0,2.53-.54C1670.87,1843.54,1670.74,1843.27,1670.59,1842.96Zm-13.98-12.67c0.06,0.14.12,0.26,0.17,0.38,0.13,0.06.25,0.13,0.38,0.2-0.06-.39-0.1-0.63-0.14-0.85C1656.88,1830.12,1656.75,1830.2,1656.61,1830.29Zm0.05,8.39a0.929,0.929,0,0,0-.05-0.1,0.5,0.5,0,0,1-.02.12A0.637,0.637,0,0,1,1656.66,1838.68Zm2.54-11.68c-0.08.12-.15,0.24-0.23,0.35,0.47,0.42.95,0.84,1.45,1.28C1660.51,1827.27,1659.66,1827.43,1659.2,1827Zm43.92,20.89c-0.06-.21-0.1-0.37-0.15-0.56-0.22.43-.43,0.85-0.67,1.26a4.424,4.424,0,0,0,2.02-1.4c-0.4-.07-0.65-0.12-0.93-0.17C1703.33,1847.23,1703.24,1847.5,1703.12,1847.89Zm-35.68-1.24c-0.07.26-.13,0.52-0.18,0.81,0.29-.1.57-0.2,0.85-0.3a2.874,2.874,0,0,0,.25-0.69C1668.03,1846.54,1667.75,1846.59,1667.44,1846.65Zm-2.08-3.72c-0.2,1.2-.01,1.58.76,1.31a24.79,24.79,0,0,0,2.8-1.29,1.348,1.348,0,0,0-.3-0.14c-0.05-.11-0.11-0.22-0.16-0.33,0.28-.26.55-0.52,0.83-0.78-0.04-.06-0.07-0.12-0.11-0.18-0.45.06-.89,0.12-1.38,0.19,0.07-.95-0.22-1.21-0.66-1.28a0.991,0.991,0,0,1-.34-0.36l0.03-.09c-0.07-.1-0.15-0.19-0.22-0.29a2.613,2.613,0,0,1-.75,2.25C1666.44,1842.95,1665.89,1842.97,1665.36,1842.93Zm23.97-4.08c-0.07.1-.15,0.19-0.22,0.28l1.59,1.8c0.1-.11.19-0.22,0.28-0.32C1690.86,1839.46,1689.84,1839.49,1689.33,1838.85Zm-7.16-16.06c-0.61.57-1.14,1.55-1.73,0.2-0.11.25-.18,0.42-0.27,0.63l-0.56-.47c-0.03.06-.05,0.11-0.08,0.17a1.319,1.319,0,0,0,.33.47,9.422,9.422,0,0,0,1.79.4C1681.98,1824.23,1682.06,1823.94,1682.17,1822.79Zm13.11,8.65c-0.5.39-1.41,0.24-1.31,1.49,0.54-.41,1.05-0.79,1.56-1.17C1695.45,1831.66,1695.36,1831.55,1695.28,1831.44Zm4.19,4.57a2.717,2.717,0,0,1-.69.49c-0.52.24-.83,1.19-1.61,0.8a6.312,6.312,0,0,0-.6.98,1.79,1.79,0,0,0,.78.37c0.84-.08,1.67-0.26,2.65-0.44-0.19.39-.39,0.78-0.59,1.17h0.01a0.53,0.53,0,0,0,.33.01c0.31-.92.59-0.15,0.89-0.02a1.283,1.283,0,0,0,1.51-.46c-0.27-.42-0.9.43-0.83-0.74-0.65.24-.71,0.19-0.81-0.66-0.13-.03-0.27-0.06-0.41-0.09,0.02-.04.05-0.09,0.07-0.13C1699.94,1836.87,1699.71,1836.45,1699.47,1836.01Zm-14.23,9.61c-0.18-.52-0.29-0.82-0.33-0.94a3.587,3.587,0,0,1-.6.59c-0.58.29-.85-0.3-1.06-1.14-0.1.35-.16,0.58-0.29,1.03-0.15-.4-0.26-0.69-0.4-1.04-0.1.38-.16,0.59-0.25,0.93-0.14-.44-0.24-0.74-0.32-0.97-0.31.06-.59,0.1-1.04,0.18a5.386,5.386,0,0,0,3.32,1.86c-0.22.59-.22,0.59-1.25,1.13a7.768,7.768,0,0,0,2.62.58,4.917,4.917,0,0,0-.66-0.71,2.62,2.62,0,0,1-.39-1.21,34.583,34.583,0,0,0,3.23,1.26c0.84,0.25,1.03-.1.82-1.19-0.57.03-1.16,0.02-.54-0.91a2.136,2.136,0,0,1-.81-1.99c-0.12.09-.24,0.18-0.37,0.27,0.07,0.18.15,0.4,0.19,0.51-0.22.25-.42,0.47-0.73,0.81C1686.08,1844.7,1685.48,1843.89,1685.24,1845.62Zm-8.48-33.88c-0.59.22-.82-0.48-1.17-0.92-0.09-.11-0.19-0.21-0.28-0.31-0.05.13-.09,0.26-0.14,0.38,0.6,0.61,1.19,1.21,1.8,1.82C1677.12,1811.94,1677.06,1811.63,1676.76,1811.74Zm-12.04,23.38c-0.47.7-1.42,0.67-1.53,1.93,0.09,0.11.17,0.23,0.26,0.35,0.49-.66.98-1.31,1.48-1.97C1664.86,1835.33,1664.79,1835.23,1664.72,1835.12Zm-21.19,11.47a4.362,4.362,0,0,0,1.05-.54,7.578,7.578,0,0,0,.7-0.55c-0.09-.31-0.2-0.65-0.34-1.11,0.3-.06.54-0.1,0.82-0.15-0.26-.56-0.54-0.55-0.84-0.23-0.18.2-.32,0.47-0.49,0.69-0.27.36-.58,0.31-0.83-0.09a2.14,2.14,0,0,1-.72,2.03,0.405,0.405,0,0,1,.05.09A5.27,5.27,0,0,0,1643.53,1846.59Zm3.52,3.2c-0.42-.07-0.67-0.11-0.96-0.16-0.07.21-.16,0.47-0.29,0.86-0.09-.3-0.14-0.49-0.24-0.82-0.12.31-.23,0.56-0.37,0.91l-0.27-.9a1.755,1.755,0,0,1-.49.99,6.95,6.95,0,0,0-.18.69A4.862,4.862,0,0,0,1647.05,1849.79Zm-2.26-8.12h0v0Zm-0.37-6.27c-0.51-.37-0.99-0.73-1.5-1.1q-0.975,1.14-1.92,2.25c0.19,0.38.37,0.73,0.53,1.05,0.47-.39.91-0.75,1.33-1.1,0.71,0.78.22,1.04-.31,1.19,0.17,0.3.33,0.56,0.55,0.93a0.6,0.6,0,0,0,.12-0.11c0.01-.19.03-0.43,0.07-0.87,1.06,1.32,2.09.62,3.1,0.15-0.58-.91-1.15-1.8-1.74-2.72C1644.55,1835.22,1644.44,1835.37,1644.42,1835.4Zm3.95-3.96a1,1,0,0,1-.08-0.14c-0.17.13-.34,0.27-0.51,0.41-0.09-.19-0.15-0.33-0.25-0.56-0.55,1.19-1.04.33-1.61-.17,0.1,1.01.18,1.26,0.49,1.23a10.787,10.787,0,0,0,1.65-.35A1.381,1.381,0,0,0,1648.37,1831.44Zm-13.69,7.85a0.472,0.472,0,0,1-.17.07c0.13,0.35.26,0.71,0.4,1.06a2.7,2.7,0,0,1,.31-0.2A5.7,5.7,0,0,0,1634.68,1839.29Zm8.4,1a0.227,0.227,0,0,0-.04-0.01c-0.3.22-.6,0.43-0.89,0.63v1.25c0.07,0.01.13,0.01,0.14-.03,0.32-.89.62-0.13,0.93-0.01,0.01,0,.02,0,0.02.01a7.37,7.37,0,0,0,.76-0.64,0.942,0.942,0,0,1-.08-0.55C1643.25,1841.18,1643.19,1841.13,1643.08,1840.29Zm6.5-20.01a1.328,1.328,0,0,0-1.19-1.55C1648.84,1819.32,1649.19,1819.78,1649.58,1820.28Zm6.33,12.24a2.854,2.854,0,0,1-1.15-1.47c-0.01.14-.03,0.28-0.04,0.42-0.01.1-.01,0.2-0.03,0.56-0.38-.31-0.67-0.56-0.97-0.8-0.45,1.22-.72-0.86-1.15-0.18,0.08,0.75.67,1.23,1.88,1.91A1.1,1.1,0,0,0,1655.91,1832.52Zm0.49,10.05c-0.18-.13-0.34-0.26-0.51-0.38a0.674,0.674,0,0,1-.22.34A3.539,3.539,0,0,0,1656.4,1842.57Zm1.53-8.03a0.574,0.574,0,0,1,.07-0.04c-0.03-.06-0.06-0.13-0.1-0.2Q1657.915,1834.4,1657.93,1834.54Zm-0.58-5.13a1.812,1.812,0,0,0-.31.05c0.2,0.09.29,0.14,0.5,0.24-0.13.08-.23,0.15-0.33,0.21,0.36,0.34.63,0.91,0.93,0.59C1657.87,1830.12,1657.61,1829.76,1657.35,1829.41Zm0.48,5.21c-0.36-.19-0.67-0.35-0.92-0.48v0.71c0.12,0.02.24,0.04,0.37,0.05A0.965,0.965,0,0,0,1657.83,1834.62Zm-17.55,7.8c0.08,0.1.16,0.2,0.25,0.3,0.48-.56.96-1.13,1.44-1.7l-0.2-.26C1641.31,1841.36,1640.38,1841.33,1640.28,1842.42Zm16.45,0.11a2.424,2.424,0,0,0,.45-0.1c-0.03-.12-0.05-0.22-0.07-0.33h-0.33C1656.76,1842.25,1656.75,1842.38,1656.73,1842.53Zm-4.46-22.31a3.315,3.315,0,0,0-.26.27c-0.32.38-.53,1-1.08,0.81-0.28-.1-0.34.18-0.2,0.85,0.57-.54,1.12-1.07,1.67-1.59C1652.36,1820.44,1652.31,1820.33,1652.27,1820.22Zm-0.11,15.9c1.26,1.06,2.46,2.48,4.06,1.54-0.16-.37-0.32-0.72-0.47-1.07a0.179,0.179,0,0,1-.07.05,1.407,1.407,0,0,1-.79-0.51c-0.16.48-.24,0.47-0.99-0.32-0.04.26-.07,0.48-0.09,0.64-0.55-.19-1.08-0.37-1.61-0.56A1.572,1.572,0,0,1,1652.16,1836.12Zm-15.77-2.36c-0.08.1-.15,0.2-0.22,0.3,0.46,0.36.92,0.72,1.41,1.1C1637.67,1833.99,1636.84,1834.13,1636.39,1833.76Zm98.77,3.6v1.92a0.689,0.689,0,0,1,.08-0.03c0.32-.88.62-1.78,0.9-2.68C1735.8,1836.85,1735.47,1837.11,1735.16,1837.36Zm-11.61-2.08a0.914,0.914,0,0,1-.89.6c-0.23-.08-0.28.13-0.17,0.62,0.47-.39.93-0.78,1.39-1.17-0.04-.08-0.07-0.16-0.11-0.25C1723.7,1835.15,1723.62,1835.21,1723.55,1835.28Zm-0.12,3.86c-0.11.22-.21,0.42-0.3,0.62a2.142,2.142,0,0,1-.6-1.56c-0.15,1.14.24,1.78,1.04,1.8a1.94,1.94,0,0,1,.39.12c-0.05.18-.11,0.36-0.17,0.57a1.017,1.017,0,0,0,.44.24c-0.08-.38-0.16-0.75-0.24-1.1A0.955,0.955,0,0,1,1723.43,1839.14Zm11.35-1.95c-0.45.66-1.35,0.63-1.45,1.82,0.08,0.12.16,0.23,0.24,0.34,0.47-.62.94-1.25,1.41-1.87C1734.91,1837.38,1734.85,1837.29,1734.78,1837.19Zm-5.25-7.71c-0.08.11-.15,0.22-0.22,0.33,0.45,0.4.9,0.79,1.38,1.22C1730.77,1829.73,1729.97,1829.88,1729.53,1829.48Zm-5.46,10.34c0.48,0.16.94,0.3,1.4,0.44a1.848,1.848,0,0,0,.14-0.14,1.6,1.6,0,0,1,.05.21c0.15,0.04.31,0.09,0.46,0.14a0.037,0.037,0,0,0,.03-0.01v0.02c0.35,0.11.7,0.22,1.07,0.34-0.23-.53-0.45-1.03-0.66-1.51a0.782,0.782,0,0,1-1-.03c-0.09.25-.18,0.49-0.32,0.88l-0.9-1.17c-0.06.22-.12,0.47-0.21,0.82A0.127,0.127,0,0,1,1724.07,1839.82Zm2.51,3.35a1.211,1.211,0,0,1-.72-0.38l-0.06.54c-0.01.08-.01,0.15-0.03,0.42-0.3-.23-0.55-0.41-0.8-0.59-0.37.89-.6-0.63-0.95-0.13a1.018,1.018,0,0,0,.28.58,6.834,6.834,0,0,0,2.31.65,9.188,9.188,0,0,1,.86-0.74,0.471,0.471,0,0,0-.54-0.43l0.06,0.09c-0.02.07-.04,0.13-0.06,0.19C1726.81,1843.3,1726.7,1843.24,1726.58,1843.17Zm1.03,0.95c-0.05-.21-0.09-0.41-0.14-0.58-0.11.26-.17,0.38-0.22,0.49,0.03,0.06.06,0.11,0.09,0.17A2.759,2.759,0,0,0,1727.61,1844.12Zm-21.46-31.51c0.2,0.73.4,1.46,0.64,2.34A2.564,2.564,0,0,0,1706.15,1812.61Zm0.6,4.51c-0.03-.95-0.43-1.56-1.15-1.57C1706.04,1816.15,1706.38,1816.61,1706.75,1817.12Zm-28.59-8.98c0.28-.98.5-1.8,0.73-2.62A2.881,2.881,0,0,0,1678.16,1808.14Zm-43.75,28.95c-0.1-.48-0.14-0.71-0.19-0.98,0.47,0.21.79,1,1.14,0.66-0.42-.5-0.8-0.97-1.18-1.43,0.08-.12.17-0.24,0.26-0.35,0.2-.06.4-0.11,0.62-0.17-0.07-.55-0.13-1.03-0.2-1.6,0.27,0.16.48,0.29,0.86,0.52-0.43-.87-0.77-1.57-1.23-2.47,0.93,0.48,1.66.85,2.39,1.23a5.289,5.289,0,0,0-1.08-1.94c-0.85-.85-0.93-0.88-0.86-1.77,1.38,1.13,1.64,1.18,1.75.68-0.39-.65-0.68-1.14-1.06-1.77,0.43,0.07.66,0.1,0.89,0.14,0.18,0.03.35,0.08,0.53,0.12a3.3,3.3,0,0,0,0-.77c-0.12-.46-0.3-0.9-0.5-1.46,0.39,0.3.69,0.53,1.13,0.88-0.28-1-.5-1.78-0.72-2.55,0.11,0.04.21,0.08,0.32,0.13a1.209,1.209,0,0,0,.43-0.45c0.1-.61.11-1.25,0.16-1.88,0.69,0.5-.1,2,1.1,2.07a0.554,0.554,0,0,1,.07.34c-0.13.64-.28,1.28-0.42,1.93,0.09,0.05.17,0.11,0.26,0.17,0.26-.34.53-0.67,0.96-1.23-0.04.98-.08,1.7-0.11,2.43-0.28-.04-0.46-0.07-0.63-0.09,0.79,0.64-.09,1.27.03,2.03,0.56-.72,1.03-1.34,1.57-2.05,0.32,0.78-.24,1-0.4,1.4,0.47,0.59.27,1.19-.73,2.28,0.11,0.44.22,0.87,0.37,1.42,0.44-.36.82-0.67,1.19-0.96,0.61,0.92-.19,1.28-0.46,1.85a1.038,1.038,0,0,0-.18.57,0.833,0.833,0,0,0,.45.5,16.8,16.8,0,0,0,1.56-.88,0.355,0.355,0,0,1,.1.02c-0.29-.22-0.57-0.43-0.84-0.64,0.02-.09.03-0.18,0.05-0.28,0.45,0.08.89,0.16,1.39,0.24-0.04-.3-0.08-0.55-0.15-1.07,0.48,0.44.84,0.76,1.2,1.1a1.289,1.289,0,0,0-.37-1.58c0.61-.16,1.1-0.68,1.54.16a0.833,0.833,0,0,0,.15-0.04,2.4,2.4,0,0,0-.01-0.73,2.572,2.572,0,0,0-.78-0.4c0.01,0.03-.02-0.15-0.04-0.34a0.746,0.746,0,0,0-.07.12,3.087,3.087,0,0,0-.42-0.51,2.372,2.372,0,0,0-.58-0.26c0.05-.16.1-0.36,0.15-0.55-0.13-.05-0.25-0.09-0.4-0.15,0.23-1.38.93-.19,1.34-0.71,0.01-.09.04-0.27,0.06-0.49,0.42,0.19.82,0.36,1.28,0.56-0.08-.36-0.12-0.57-0.17-0.78,0.03-.06.05-0.12,0.08-0.18a10.7,10.7,0,0,0,1.16.78,0.613,0.613,0,0,0,.64-0.01,21.112,21.112,0,0,0,1.8-1.75,2.144,2.144,0,0,0,.32-1c-0.43,1.24-1.24,1.11-1.94,1.37a0.751,0.751,0,0,0-.28.23c-0.12.16-.22,0.35-0.38,0.6-0.07-.28-0.1-0.43-0.12-0.5-0.26.04-.5,0.09-0.73,0.13a2.681,2.681,0,0,0-.07-0.27l0.9-1.14a0.488,0.488,0,0,0-.03-0.07c-0.51.35-1.01,0.71-1.54,1.09-0.12-.32-0.25-0.65-0.41-1.07,0.19-.22.4-0.45,0.61-0.68-0.01-.04-0.03-0.08-0.04-0.12-0.14.1-.29,0.19-0.43,0.31a1.947,1.947,0,0,1-.22.3c-0.26.12-.52,0.2-0.79,0.3,0.07-.33.14-0.67,0.22-1.04a1.56,1.56,0,0,1-1.74-.87c0.58-.15,1.03-0.26,1.46-0.37,0.02-.28.03-0.51,0.05-0.74a1.4,1.4,0,0,1,.57.17c0.53,0.42,1.04.9,1.55,1.36a2.288,2.288,0,0,0,.1-0.23c-0.12-.2-0.25-0.41-0.37-0.62,0.01-.07.03-0.15,0.05-0.23a1.569,1.569,0,0,1,.69.29,2.143,2.143,0,0,0,2.29.66c0.67-.16.71-0.26,0.38-1.08-0.31.19-.6,0.37-0.89,0.56-0.05-.24-0.1-0.48-0.15-0.68-0.22.05-.46,0.1-0.7,0.15-0.02-.07-0.05-0.15-0.07-0.22,0.14-.24.27-0.47,0.37-0.64-0.56-.04-1.13-0.07-1.71-0.12a0.443,0.443,0,0,1-.33-0.11,0.429,0.429,0,0,1,.03-0.7,5.351,5.351,0,0,1,.79-0.34c-0.39-.4-0.42-1.34-1.03-1.24a1.652,1.652,0,0,1-.02-0.53,1.355,1.355,0,0,1,.5-0.28,1.542,1.542,0,0,1-.55-1.63c0.62,0.55,1.21,1.06,1.76,1.54,0.23-.23.42-0.41,0.62-0.62a2.182,2.182,0,0,1-.56-1.55c0.32,0.2.58,0.37,0.93,0.59-0.02-.44-0.03-0.75-0.03-0.85-0.33-.09-0.57-0.16-0.81-0.23,0.09-.28.18-0.56,0.32-0.99-0.14-.29-0.37-0.7-0.55-1.15a4.358,4.358,0,0,1-.12-0.84,2.7,2.7,0,0,1,.54.2,2.945,2.945,0,0,1,.42.38c0.1-.33.18-0.6,0.26-0.86a0.881,0.881,0,0,0,.17-0.02c0.2,0.87.39,1.75,0.58,2.63l0.15-.06a4.447,4.447,0,0,0-.39-2.68,2.232,2.232,0,0,1-.43-1.95c0.24,0.52.48,1.04,0.73,1.56,0.06-.06.13-0.12,0.2-0.19v-3.26c0.89,0.65.35,1.92,0.7,2.77,0.35-.34.41-1.3,1.07-1.01-0.3,1.45-1.47,2.29-1.1,4.21,0.3-.72.59-1.43,0.97-2.33,0.04,0.45.06,0.65,0.07,0.83,0.41-.25.82-0.51,1.23-0.77l0.09,0.24c-0.24.33-.48,0.67-0.73,1,0.29,0.26.56,0.49,0.88,0.76-0.57.67-1.15-.01-1.69,0.21,0.42,0.44.82,0.87,1.31,1.39-0.57.26-.98,0.44-1.45,0.66-0.02-.17-0.04-0.42-0.07-0.69-0.41-.02-0.67.22-0.64,0.89,0.04,0.99.12,1.97,0.19,3.01,1.23-.55,1.48-2.31,2.04-3.73,0.22,0.28.35,0.46,0.49,0.63,0.05,0.06.09,0.13,0.14,0.19a4.522,4.522,0,0,1,.37-0.83,1.462,1.462,0,0,1,.49-0.33,6.043,6.043,0,0,1-.11.76,6.425,6.425,0,0,1-.31.68c0.32,0.09.6,0.16,0.96,0.25-0.36.57-.64,1.02-0.98,1.57a4.124,4.124,0,0,1,.68.28,1.035,1.035,0,0,1,.25.34c-0.08.11-.15,0.24-0.23,0.33-0.25.26-.5,0.52-0.83,0.85-0.2-.14-0.59-0.68-0.68.44,0.4,0.12.81,0.25,1.21,0.37l0.03,0.21c-0.26.22-.51,0.43-0.8,0.67,0.35,0.75-.37.43-0.44,1,0.22-.11.39-0.18,0.56-0.27a1.972,1.972,0,0,1,.42-0.24c0.45-.1.56,0.13,0.39,0.74,0.65,0.48,1.3.96,1.97,1.46-0.46.85-1.26,1.12-1.76,0.61-0.11.33-.22,0.66-0.39,1.18-0.36-.52-0.68-0.99-1.08-1.59-0.07.3-.15,0.65-0.26,1.12-0.38.18-.61-0.33-0.84-0.91-0.13.29-.25,0.57-0.37,0.85-0.62-.47-0.56-1.38-0.71-2.13-0.18,1.55.29,2.42,1.25,2.46a1.456,1.456,0,0,1,.47.16c-0.06.24-.13,0.49-0.21,0.77,0.85,0.84,1.5.02,2.2-.77,0.05,0.23.1,0.42,0.15,0.65,0.16-.06.32-0.12,0.49-0.19,0.14,0.35.29,0.71,0.45,1.11a6.072,6.072,0,0,1,.68-0.44c0.29-.12.61-0.58,0.86,0.16a0.141,0.141,0,0,0,.07.06c0-.01,0-0.01.01-0.01,0.2-.07.41-0.13,0.64-0.2-0.07-.64-0.14-1.2-0.21-1.85,0.27,0.18.5,0.33,0.89,0.59-0.45-1-.8-1.81-1.27-2.86,0.96,0.56,1.71.99,2.46,1.43a6.484,6.484,0,0,0-1.12-2.25c-0.87-.99-0.94-1.02-0.88-2.05,1.42,1.31,1.69,1.37,1.8.79-0.4-.76-0.7-1.32-1.09-2.06,0.44,0.08.68,0.12,0.91,0.16,0.19,0.04.37,0.09,0.55,0.14a3.765,3.765,0,0,0-.01-0.89c-0.12-.53-0.3-1.04-0.51-1.7,0.4,0.35.71,0.62,1.16,1.02-0.29-1.15-.51-2.05-0.74-2.95,0.11,0.05.22,0.1,0.34,0.15a1.41,1.41,0,0,0,.44-0.52c0.1-.71.11-1.45,0.15-2.18,0.71,0.57-.09,2.31,1.14,2.4a0.726,0.726,0,0,1,.07.39c-0.13.75-.29,1.49-0.43,2.24,0.09,0.07.18,0.13,0.26,0.2,0.28-.39.55-0.78,0.99-1.42-0.04,1.13-.08,1.97-0.11,2.81-0.29-.05-0.47-0.08-0.65-0.1,0.81,0.74-.09,1.47.03,2.35,0.57-.84,1.06-1.55,1.62-2.37,0.32,0.9-.25,1.15-0.41,1.61,0.47,0.7.27,1.39-.76,2.65,0.12,0.52.23,1.02,0.38,1.65,0.46-.42.85-0.77,1.22-1.11,0.63,1.06-.19,1.48-0.47,2.15a1.221,1.221,0,0,0-.18.66,0.874,0.874,0,0,0,.46.57,14.107,14.107,0,0,0,1.6-1.02c0.21,0.06.52,0.14,0.84,0.23-0.82,1.07-1.6,2.11-2.38,3.15,0.2,0.44.38,0.84,0.54,1.22,0.49-.46.94-0.88,1.37-1.28,0.73,0.91.23,1.2-.32,1.38,0.2,0.38.38,0.72,0.64,1.22,0.23-.11.58-0.28,0.97-0.47v1.37c-0.76.61-1.4,1.13-2.01,1.62v2.03a5.278,5.278,0,0,0,2.23-1.73,3.082,3.082,0,0,1,.76-0.49c0.06,0.09.11,0.19,0.16,0.28-0.72.66-.48,1.45-0.18,2.26-0.2-.03-0.32-0.04-0.45-0.05,0.08,0.14.15,0.27,0.24,0.43a1.875,1.875,0,0,1,1.25.43c-0.31-.55-0.49-0.88-0.76-1.37,0.36,0.19.56,0.29,0.81,0.41-0.08-.35-0.13-0.6-0.18-0.83a5.25,5.25,0,0,0,1.55,1.05,3.508,3.508,0,0,0,1.74-.33,1.826,1.826,0,0,0,1.03-1.87c-0.61.86-1.69,0.89-1.92,0.07-0.28.21-.55,0.43-0.88,0.69-0.03-.33-0.05-0.54-0.08-0.8h-1.84c0.13-.41.2-0.62,0.27-0.84-0.2-.33-0.79-0.19-0.42-0.95-0.43-.51-0.85-1-1.32-1.55,0.6-.3,1.08-0.55,1.57-0.79,0.01-.64.04-0.64,0.45-0.42a16.266,16.266,0,0,0,1.49.67c-0.08-.61-0.14-1.05-0.22-1.67,2.04,1.95,3.49.08,5-1.27-0.01-.09-0.02-0.18-0.03-0.26-0.57.21-1.15,0.42-1.74,0.64-0.03-.19-0.06-0.45-0.1-0.73-0.81.9-.9,0.91-1.07,0.36a1.508,1.508,0,0,1-.86.58,3.632,3.632,0,0,1-.73-1.19c0.04-.08.07-0.15,0.11-0.23-0.22.07-.45,0.14-0.7,0.22v-1.65c-0.31.17-.68,0.37-1.13,0.61,0.06-.49.09-0.73,0.11-0.88-0.4-.34-0.75-0.63-1.09-0.93,0.02-.1.04-0.19,0.06-0.29h1.2c-0.06-.29-0.1-0.48-0.16-0.79,0.46,0.41.84,0.75,1.15,1.03,0.14-.29.23-0.49,0.34-0.71-0.07-.18-0.15-0.39-0.32-0.84,0.9,0.69,1.42,2.09,2.49,1.45,1.31-.78,1.95-1.32,2.04-2.18-0.47-.78-0.76,1.59-1.25.21-0.32.27-.64,0.56-1.04,0.91-0.02-.41-0.02-0.53-0.03-0.64-0.03-.3-0.06-0.61-0.09-0.91-0.17.13-.34,0.26-0.51,0.38-0.29.19-.58,0.38-0.87,0.58-0.03-.1-0.06-0.19-0.09-0.28,0.23-.39.46-0.78,0.8-1.35-0.58.4-1.01,0.7-1.45,1a1.8,1.8,0,0,0-.08-0.21c0.08-.17.15-0.35,0.24-0.56-0.3-.2-0.55-0.37-1-0.67,0.23-.12.32-0.17,0.54-0.28-0.56-.16-1.08.2-1.27-0.89,0.24-.07.45-0.15,0.65-0.2a0.782,0.782,0,0,0,.53-0.14c0.27-.84.62-0.32,0.93-0.17a4.5,4.5,0,0,1,.73.5c0.18-.47.33-0.87,0.49-1.27,0.18,0.07.36,0.14,0.53,0.21,0.06-.26.11-0.48,0.16-0.74,0.76,0.9,1.46,1.84,2.38.88-0.09-.33-0.16-0.6-0.23-0.88a1.765,1.765,0,0,1,.51-0.19c1.04-.03,1.55-1.04,1.35-2.8-0.16.86-.1,1.9-0.77,2.43-0.13-.32-0.26-0.63-0.39-0.97-0.25.66-.5,1.24-0.91,1.04-0.12-.54-0.21-0.93-0.28-1.28-0.44.68-.79,1.23-1.17,1.82-0.19-.6-0.3-0.97-0.42-1.35-0.54.58-1.41,0.28-1.91-.7,0.73-.57,1.43-1.12,2.14-1.66-0.19-.69-0.07-0.97.41-0.85a1.721,1.721,0,0,1,.46.28c0.18,0.1.37,0.18,0.6,0.3-0.08-.64-0.85-0.28-0.47-1.14-0.31-.27-0.59-0.52-0.87-0.76,0.01-.08.03-0.16,0.04-0.24,0.43-.14.87-0.28,1.3-0.42-0.1-1.28-.51-0.67-0.73-0.51-0.35-.38-0.63-0.67-0.9-0.97a3.366,3.366,0,0,1-.24-0.37,1.384,1.384,0,0,1,.26-0.4,4.706,4.706,0,0,1,.73-0.31c-0.36-.62-0.67-1.14-1.05-1.79,0.39-.11.69-0.19,1.04-0.28a6.957,6.957,0,0,1-.34-0.79,7.426,7.426,0,0,1-.12-0.86,1.5,1.5,0,0,1,.53.37,5.9,5.9,0,0,1,.4.95c0.05-.07.1-0.14,0.16-0.21,0.14-.2.29-0.4,0.52-0.72,0.61,1.61.88,3.63,2.2,4.26,0.08-1.19.17-2.32,0.22-3.44,0.03-.76-0.26-1.04-0.7-1.01-0.03.31-.05,0.58-0.07,0.78-0.52-.25-0.95-0.45-1.57-0.75,0.53-.6.96-1.09,1.41-1.59-0.58-.25-1.21.53-1.82-0.23,0.34-.32.63-0.58,0.94-0.88-0.26-.38-0.52-0.75-0.78-1.13,0.03-.09.06-0.19,0.09-0.28,0.45,0.3.9,0.59,1.33,0.88,0.02-.21.04-0.43,0.08-0.95,0.41,1.03.73,1.84,1.05,2.65,0.41-2.18-.86-3.14-1.19-4.79,0.71-.34.78,0.76,1.16,1.15,0.37-.98-0.21-2.42.75-3.16v3.72c0.08,0.07.15,0.15,0.23,0.22,0.26-.6.52-1.19,0.78-1.79a2.716,2.716,0,0,1-.46,2.23,5.289,5.289,0,0,0-.43,3.06c0.06,0.02.11,0.04,0.17,0.06,0.2-1,.41-2,0.62-3l0.18,0.03c0.09,0.3.18,0.6,0.29,0.98a3.094,3.094,0,0,1,.45-0.44,3.233,3.233,0,0,1,.59-0.22,5.42,5.42,0,0,1-.14.95,13.542,13.542,0,0,1-.6,1.32c0.16,0.49.26,0.81,0.36,1.13-0.26.08-.53,0.16-0.87,0.26-0.01.11-.02,0.47-0.04,0.97,0.37-.25.66-0.45,1.01-0.68a2.654,2.654,0,0,1-.61,1.78c0.22,0.23.42,0.44,0.66,0.71,0.6-.55,1.24-1.14,1.91-1.76a1.773,1.773,0,0,1-.6,1.85,1.681,1.681,0,0,1,.54.32,1.854,1.854,0,0,1-.02.61c-0.65-.11-0.68.96-1.11,1.42a5.67,5.67,0,0,1,.85.38,0.517,0.517,0,0,1,.04.81,0.524,0.524,0,0,1-.36.12c-0.62.05-1.24,0.09-1.85,0.13,0.11,0.2.25,0.47,0.4,0.74-0.02.08-.05,0.17-0.07,0.25-0.26-.06-0.53-0.12-0.76-0.18-0.05.23-.11,0.51-0.17,0.78-0.31-.21-0.62-0.42-0.95-0.64-0.36.93-.31,1.06,0.41,1.23a2.224,2.224,0,0,0,2.47-.75,1.746,1.746,0,0,1,.75-0.33l0.06,0.27c-0.14.23-.27,0.47-0.41,0.71a2.718,2.718,0,0,0,.11.25c0.55-.52,1.11-1.06,1.68-1.55a1.409,1.409,0,0,1,.61-0.19c0.02,0.26.04,0.52,0.06,0.84,0.46,0.12.94,0.26,1.57,0.43a1.663,1.663,0,0,1-1.88.99c0.08,0.42.16,0.8,0.24,1.18a8.856,8.856,0,0,1-.85-0.34c-0.09-.05-0.15-0.26-0.25-0.34a5.067,5.067,0,0,0-.45-0.36c-0.02.05-.03,0.1-0.05,0.14q0.345,0.4.66,0.78c-0.17.48-.31,0.86-0.44,1.22-0.58-.43-1.12-0.84-1.66-1.25a0.3,0.3,0,0,0-.04.08c0.32,0.44.65,0.87,0.97,1.3-0.02.11-.05,0.21-0.07,0.31-0.26-.04-0.51-0.09-0.79-0.14-0.02.07-.06,0.25-0.14,0.57a7.186,7.186,0,0,0-.4-0.69,0.791,0.791,0,0,0-.3-0.26c-0.76-.29-1.64-0.15-2.1-1.57a2.406,2.406,0,0,0,.35,1.15,21.55,21.55,0,0,0,1.94,1.99,0.637,0.637,0,0,0,.69.02,12.74,12.74,0,0,0,1.26-.9c0.03,0.07.05,0.15,0.08,0.22-0.05.24-.1,0.48-0.18,0.88,0.5-.23.92-0.42,1.38-0.63,0.03,0.24.05,0.45,0.06,0.55,0.45,0.59,1.2-.76,1.46.81-0.17.06-.3,0.12-0.44,0.17,0.06,0.22.11,0.44,0.16,0.63a2.745,2.745,0,0,0-.62.3,3.422,3.422,0,0,0-.45.58,0.913,0.913,0,0,1-.08-0.13c-0.03.21-.05,0.42-0.05,0.38a2.581,2.581,0,0,0-.83.46,2.365,2.365,0,0,0-.02.83c0.05,0.02.11,0.03,0.16,0.05,0.48-.96,1-0.37,1.67-0.18a1.5,1.5,0,0,0-.41,1.79c0.4-.38.78-0.75,1.3-1.25-0.08.59-.11,0.88-0.16,1.22,0.54-.09,1.02-0.18,1.51-0.27a3.062,3.062,0,0,0,.05.32c-0.37.3-.74,0.59-1.13,0.91,0.02,0.14.04,0.34,0.05,0.41-0.62.48-1.19,0.92-1.8,1.4-0.02-.04-0.14-0.22-0.25-0.38-0.63,1.05-1.25,2.07-1.87,3.1,1.09,0.54,2.2,1.34,3.35-.17,0.03,0.5.05,0.78,0.07,0.99,0.44,0.64,1.01-.72,1.37.28-0.3.53-.57,1.02-0.84,1.51l0.09,0.15c-0.16.03-.32,0.07-0.47,0.09-0.12.97-.18,1.02-0.91,0.75,0.08,1.31-.63.35-0.94,0.83a1.446,1.446,0,0,0,1.7.51c0.34-.14.66-1,1,0.02a0.594,0.594,0,0,0,.38,0c0.18-.01.37-0.01,0.56-0.01a8.165,8.165,0,0,0-.71.97c-0.19.93-.52,0.98-0.83,0.76-0.23.34-.38,0.55-0.53,0.75a1.261,1.261,0,0,0-.2.2c-0.28.6-.65,0.71-0.98,0.26-0.18-.25-0.34-0.56-0.53-0.78-0.32-.37-0.63-0.39-0.9.25,0.3,0.06.55,0.11,0.88,0.17-0.15.53-.27,0.91-0.37,1.27a9.331,9.331,0,0,0,.76.63,4.842,4.842,0,0,0,1.13.62,8.32,8.32,0,0,0,1.08.23,1.31,1.31,0,0,0-.32-1.74c0.06-.09.11-0.17,0.17-0.26a3.43,3.43,0,0,1,.82.45,5.6,5.6,0,0,0,2.41,1.57v-1.84c-0.67-.46-1.36-0.93-2.18-1.49v-1.24c0.43,0.17.8,0.32,1.05,0.42,0.29-.45.47-0.76,0.69-1.11-0.59-.16-1.12-0.43-0.34-1.26,0.47,0.37.94,0.75,1.47,1.17,0.18-.34.37-0.71,0.58-1.12-0.84-.94-1.68-1.89-2.56-2.87,0.35-.08.68-0.16,0.91-0.21a16.39,16.39,0,0,0,1.72.94,0.923,0.923,0,0,0,.5-0.53,1.149,1.149,0,0,0-.2-0.6c-0.3-.61-1.19-0.99-0.51-1.96,0.4,0.31.82,0.63,1.32,1.01,0.15-.57.28-1.03,0.41-1.5-1.11-1.16-1.33-1.79-.82-2.42-0.17-.42-0.79-0.65-0.44-1.47,0.6,0.74,1.13,1.4,1.74,2.16,0.13-.8-0.84-1.47.03-2.15-0.19.03-.38,0.05-0.7,0.1-0.03-.77-0.07-1.53-0.12-2.57,0.48,0.59.77,0.94,1.07,1.3,0.09-.06.19-0.12,0.28-0.19-0.15-.67-0.32-1.35-0.46-2.03a0.561,0.561,0,0,1,.08-0.37c1.32-.07.45-1.66,1.22-2.19,0.05,0.68.06,1.34,0.16,1.99a1.371,1.371,0,0,0,.48.48c0.12-.05.24-0.09,0.36-0.14-0.24.82-.48,1.65-0.79,2.7,0.48-.36.81-0.61,1.24-0.93-0.22.6-.42,1.06-0.55,1.55a3.655,3.655,0,0,0,0,.81c0.19-.04.39-0.09,0.58-0.12,0.26-.05.51-0.08,0.99-0.15-0.42.67-.74,1.18-1.18,1.87,0.12,0.53.41,0.48,1.94-.72,0.07,0.94-.01.97-0.95,1.88a5.644,5.644,0,0,0-1.2,2.05c0.81-.4,1.62-0.8,2.64-1.31-0.5.96-.88,1.7-1.36,2.62,0.42-.24.67-0.38,0.96-0.55-0.08.6-.15,1.11-0.23,1.69,0.25,0.06.47,0.12,0.7,0.18,0.09,0.13.19,0.25,0.29,0.38-0.43.48-.85,0.98-1.31,1.51,0.39,0.36.74-.48,1.26-0.7-0.06.28-.11,0.53-0.21,1.04,1.08-.48,2.02-0.89,3-1.32a4.4,4.4,0,0,1-.68,1.96c0.28,0.05.59,0.46,0.85,0.08,0.02-.19.03-0.44,0.07-0.88,1.02,1.35,2,.63,2.97.15-0.55-.92-1.1-1.83-1.66-2.77-0.1.15-.2,0.31-0.22,0.34-0.55-.43-1.05-0.82-1.61-1.25,0.01-.06.04-0.24,0.06-0.37-0.36-.28-0.68-0.54-1.01-0.8,0.02-.1.03-0.2,0.05-0.29,0.43,0.08.86,0.16,1.33,0.24-0.04-.31-0.07-0.56-0.14-1.09,0.46,0.45.8,0.78,1.15,1.12a1.349,1.349,0,0,0-.35-1.6c0.58-.17,1.05-0.7,1.48.16,0.04-.01.09-0.03,0.14-0.04a2.522,2.522,0,0,0-.01-0.75,2.292,2.292,0,0,0-.75-0.4c0.01,0.03-.02-0.16-0.04-0.35-0.02.04-.05,0.08-0.07,0.12a2.741,2.741,0,0,0-.4-0.52,2.325,2.325,0,0,0-.55-0.26c0.04-.17.09-0.37,0.14-0.57-0.12-.05-0.24-0.09-0.39-0.15,0.23-1.4.9-.19,1.29-0.72,0.01-.09.03-0.28,0.06-0.5,0.41,0.19.78,0.37,1.22,0.57-0.07-.36-0.11-0.58-0.15-0.79a1.458,1.458,0,0,1,.07-0.19,10.457,10.457,0,0,0,1.12.8,0.544,0.544,0,0,0,.6-0.01,19.475,19.475,0,0,0,1.73-1.78,2.237,2.237,0,0,0,.32-1.03c-0.42,1.27-1.2,1.14-1.87,1.4a0.673,0.673,0,0,0-.27.24c-0.11.16-.21,0.35-0.36,0.61-0.06-.29-0.1-0.45-0.12-0.51-0.25.04-.47,0.09-0.7,0.13-0.02-.09-0.04-0.18-0.06-0.28,0.29-.38.57-0.77,0.86-1.16-0.01-.02-0.02-0.05-0.03-0.07-0.48.36-.97,0.73-1.48,1.11-0.12-.32-0.24-0.66-0.39-1.09,0.18-.22.38-0.45,0.58-0.69a0.564,0.564,0,0,0-.04-0.12c-0.13.1-.27,0.19-0.4,0.31a3.2,3.2,0,0,1-.22.31,7.923,7.923,0,0,1-.75.31c0.06-.34.13-0.68,0.21-1.06a1.464,1.464,0,0,1-1.67-.89c0.55-.15.98-0.27,1.39-0.38,0.02-.28.04-0.52,0.05-0.75a1.311,1.311,0,0,1,.55.17c0.51,0.43,1,.92,1.49,1.39,0.03-.08.07-0.16,0.1-0.23-0.12-.21-0.24-0.43-0.37-0.64,0.02-.07.04-0.15,0.06-0.23a1.456,1.456,0,0,1,.66.29,1.979,1.979,0,0,0,2.2.67c0.64-.15.68-0.26,0.36-1.1-0.29.2-.57,0.39-0.85,0.57-0.05-.24-0.1-0.48-0.14-0.69-0.21.05-.45,0.11-0.68,0.16-0.02-.08-0.04-0.15-0.06-0.23,0.13-.24.26-0.48,0.35-0.66-0.53-.03-1.09-0.06-1.64-0.11a0.42,0.42,0,0,1-.32-0.11,0.461,0.461,0,0,1,.03-0.72,6.863,6.863,0,0,1,.76-0.34c-0.38-.41-0.41-1.37-0.99-1.27a1.647,1.647,0,0,1-.01-0.54,1.385,1.385,0,0,1,.47-0.29,1.594,1.594,0,0,1-.53-1.65c0.6,0.56,1.17,1.08,1.7,1.57,0.22-.24.39-0.42,0.59-0.63a2.372,2.372,0,0,1-.54-1.59c0.31,0.21.56,0.38,0.89,0.6-0.02-.44-0.03-0.76-0.03-0.86-0.31-.09-0.54-0.16-0.77-0.23,0.09-.29.17-0.58,0.31-1.01-0.14-.3-0.36-0.71-0.53-1.18a4.245,4.245,0,0,1-.12-0.85,3.7,3.7,0,0,1,.52.2,2.519,2.519,0,0,1,.4.4c0.1-.35.18-0.61,0.25-0.88l0.17-.03c0.18,0.9.37,1.79,0.55,2.68l0.15-.06a4.816,4.816,0,0,0-.38-2.72,2.426,2.426,0,0,1-.41-1.99c0.23,0.53.46,1.06,0.7,1.59l0.19-.19v-3.32c0.86,0.65.34,1.94,0.67,2.82,0.34-.35.4-1.33,1.03-1.03-0.29,1.47-1.41,2.33-1.05,4.28,0.28-.73.57-1.45,0.93-2.37,0.03,0.46.05,0.66,0.06,0.85,0.39-.26.79-0.52,1.19-0.78,0.03,0.08.05,0.16,0.08,0.24-0.23.34-.46,0.67-0.7,1.02,0.28,0.26.54,0.49,0.84,0.77-0.54.69-1.1-.01-1.62,0.21l1.26,1.42c-0.55.27-.94,0.45-1.39,0.67-0.02-.17-0.05-0.42-0.07-0.7-0.39-.02-0.65.23-0.62,0.9,0.05,1.01.13,2.01,0.19,3.07,1.18-.56,1.42-2.36,1.96-3.79,0.2,0.28.33,0.46,0.46,0.63,0.05,0.07.1,0.13,0.14,0.19a5.439,5.439,0,0,1,.36-0.84,1.259,1.259,0,0,1,.47-0.33,6.487,6.487,0,0,1-.11.77,4.819,4.819,0,0,1-.3.69c0.31,0.09.58,0.16,0.93,0.26-0.35.58-.62,1.04-0.94,1.59a4.033,4.033,0,0,1,.65.29,1.063,1.063,0,0,1,.23.35,2.662,2.662,0,0,1-.21.33c-0.24.27-.49,0.53-0.8,0.87-0.19-.14-0.56-0.7-0.65.45,0.39,0.12.77,0.25,1.16,0.38l0.03,0.21c-0.25.22-.49,0.43-0.77,0.68,0.34,0.76-.35.44-0.42,1.01,0.21-.1.37-0.17,0.53-0.26a2.33,2.33,0,0,1,.41-0.26c0.43-.1.54,0.15,0.37,0.76,0.62,0.49,1.25.98,1.89,1.49-0.44.87-1.21,1.14-1.69,0.62-0.1.34-.21,0.67-0.37,1.21-0.34-.53-0.65-1.02-1.04-1.62-0.07.3-.14,0.65-0.25,1.14-0.36.17-.59-0.34-0.81-0.93-0.12.3-.23,0.58-0.34,0.86-0.6-.47-0.55-1.4-0.69-2.16-0.17,1.57.28,2.46,1.2,2.5a1.354,1.354,0,0,1,.45.16c-0.06.25-.12,0.5-0.2,0.78,0.82,0.86,1.44.02,2.11-.78,0.05,0.24.1,0.43,0.15,0.66,0.15-.06.3-0.12,0.47-0.19,0.13,0.36.27,0.72,0.43,1.14a4.714,4.714,0,0,1,.65-0.45c0.28-.13.59-0.59,0.83,0.15a0.649,0.649,0,0,0,.46.13c0.19,0.05.37,0.11,0.58,0.18-0.16.97-.62,0.65-1.12,0.8,0.19,0.09.27,0.14,0.48,0.24-0.4.27-.63,0.42-0.9,0.6,0.09,0.19.15,0.35,0.22,0.5a1.458,1.458,0,0,0-.07.19c-0.39-.27-0.78-0.54-1.29-0.89,0.3,0.5.5,0.85,0.71,1.19-0.03.09-.05,0.17-0.08,0.26-0.25-.18-0.51-0.35-0.77-0.52l-0.45-.33c-0.03.26-.06,0.53-0.08,0.8-0.01.1-.01,0.21-0.03,0.58-0.36-.32-0.64-0.57-0.93-0.82-0.43,1.24-.69-0.88-1.1-0.18,0.07,0.76.65,1.24,1.81,1.94,0.95,0.58,1.41-.68,2.21-1.29-0.15.4-.22,0.58-0.28,0.74,0.09,0.2.17,0.38,0.3,0.64,0.27-.25.61-0.55,1.02-0.92-0.06.28-.09,0.45-0.14,0.71h1.06c0.02,0.08.04,0.17,0.06,0.25-0.31.27-.62,0.53-0.97,0.84,0.02,0.13.04,0.34,0.09,0.78-0.39-.21-0.72-0.39-1-0.54v1.47c-0.22-.07-0.42-0.13-0.62-0.2a2,2,0,0,0,.1.21,3.332,3.332,0,0,1-.65,1.06,1.275,1.275,0,0,1-.76-0.52c-0.16.49-.23,0.48-0.96-0.32-0.03.25-.06,0.48-0.08,0.65-0.53-.2-1.04-0.38-1.55-0.57-0.01.08-.02,0.15-0.03,0.23,1.34,1.21,2.63,2.88,4.44,1.14-0.07.55-.12,0.94-0.19,1.49a14.122,14.122,0,0,0,1.32-.6c0.36-.2.39-0.2,0.4,0.37,0.44,0.22.87,0.44,1.4,0.71-0.42.49-.79,0.93-1.17,1.38,0.32,0.68-.2.56-0.38,0.85,0.06,0.19.13,0.39,0.24,0.75h-1.63c-0.03.23-.05,0.42-0.08,0.71-0.29-.23-0.53-0.42-0.77-0.62-0.21.74-1.17,0.72-1.71-.06a1.608,1.608,0,0,0,.92,1.67,3.144,3.144,0,0,0,1.54.3,4.838,4.838,0,0,0,1.38-.94c-0.04.21-.09,0.43-0.16,0.74l0.72-.36c-0.24.44-.4,0.73-0.68,1.22,1.01-.75,1.79-0.33,2.61.6-0.18.24-.34,0.45-0.5,0.66,0.45-.14.82-0.41,1.16,0.16l0.12-.03a1.521,1.521,0,0,0-.01-0.54,2.257,2.257,0,0,0-.64-0.29c0,0.02-.02-0.12-0.04-0.25a0.555,0.555,0,0,1-.06.08,3.046,3.046,0,0,0-.34-0.37,2.667,2.667,0,0,0-.48-0.19c0.03-.12.08-0.26,0.12-0.41a2.551,2.551,0,0,1-.33-0.11c0.19-1,.77-0.13,1.11-0.52,0.01-.06.03-0.19,0.05-0.35,0.35,0.13.68,0.26,1.06,0.41-0.07-.26-0.1-0.42-0.14-0.57,0.02-.05.04-0.09,0.06-0.14a10.8,10.8,0,0,0,.97.58,0.582,0.582,0,0,0,.53-0.01,16.173,16.173,0,0,0,1.49-1.29,1.4,1.4,0,0,0,.27-0.73c-0.36.91-1.03,0.82-1.61,1a0.66,0.66,0,0,0-.24.17c-0.09.12-.18,0.26-0.31,0.44-0.05-.2-0.09-0.31-0.1-0.36l-0.61.09a1.945,1.945,0,0,0-.05-0.2l0.74-.83a0.076,0.076,0,0,0-.02-0.05c-0.42.26-.84,0.52-1.28,0.8-0.1-.24-0.21-0.48-0.34-0.79,0.16-.16.33-0.33,0.51-0.5-0.01-.03-0.03-0.06-0.04-0.09-0.12.08-.24,0.14-0.35,0.23a1.04,1.04,0,0,1-.19.22c-0.21.09-.43,0.15-0.65,0.22,0.06-.24.12-0.49,0.18-0.76a1.336,1.336,0,0,1-1.44-.64c0.48-.11.86-0.19,1.21-0.27,0.01-.2.03-0.37,0.04-0.54a1.413,1.413,0,0,1,.47.12c0.44,0.31.86,0.66,1.29,1,0.03-.06.06-0.11,0.09-0.17-0.11-.15-0.21-0.3-0.32-0.45,0.02-.06.03-0.11,0.05-0.17a1.4,1.4,0,0,1,.57.21,1.933,1.933,0,0,0,1.9.48c0.55-.11.59-0.19,0.32-0.79-0.26.14-.5,0.28-0.74,0.41-0.04-.17-0.09-0.35-0.12-0.5-0.19.04-.39,0.08-0.59,0.12a1.093,1.093,0,0,1-.05-0.17c0.11-.17.22-0.34,0.3-0.47-0.46-.03-0.94-0.05-1.42-0.08a0.43,0.43,0,0,1-.27-0.08,0.3,0.3,0,0,1,.03-0.52c0.19-.1.4-0.15,0.65-0.25-0.33-.29-0.35-0.98-0.86-0.91a1.312,1.312,0,0,1-.01-0.39,1.565,1.565,0,0,1,.41-0.2,1.085,1.085,0,0,1-.46-1.19c0.52,0.4,1.01.77,1.47,1.13,0.19-.18.34-0.31,0.51-0.46a1.555,1.555,0,0,1-.47-1.14c0.27,0.15.49,0.27,0.77,0.43-0.01-.32-0.02-0.55-0.02-0.62-0.27-.07-0.47-0.12-0.67-0.17,0.08-.2.15-0.41,0.27-0.72-0.12-.22-0.31-0.52-0.46-0.85a2.776,2.776,0,0,1-.1-0.61,2.589,2.589,0,0,1,.45.14,2.983,2.983,0,0,1,.35.29c0.08-.25.15-0.44,0.21-0.64,0.05,0,.1-0.01.15-0.01,0.16,0.64.31,1.28,0.47,1.92a0.647,0.647,0,0,0,.13-0.04,2.888,2.888,0,0,0-.33-1.96,1.538,1.538,0,0,1-.35-1.44c0.2,0.39.4,0.77,0.6,1.15a1.151,1.151,0,0,0,.17-0.14v-2.39c0.74,0.48.29,1.41,0.58,2.03,0.29-.25.34-0.95,0.89-0.74-0.25,1.06-1.22,1.68-.91,3.09,0.24-.53.49-1.05,0.8-1.71,0.03,0.33.05,0.47,0.06,0.61,0.34-.18.68-0.37,1.02-0.56,0.03,0.06.05,0.11,0.08,0.17-0.2.25-.41,0.49-0.61,0.73,0.24,0.19.46,0.36,0.72,0.56-0.46.5-.95-0.01-1.39,0.15,0.34,0.33.68,0.64,1.08,1.02-0.47.2-.81,0.33-1.2,0.49-0.02-.13-0.04-0.31-0.06-0.5-0.34-.02-0.56.16-0.53,0.64,0.04,0.73.1,1.45,0.16,2.21,1.02-.4,1.23-1.69,1.69-2.73,0.18,0.2.29,0.33,0.41,0.46a1.71,1.71,0,0,1,.11.14,3.165,3.165,0,0,1,.31-0.61,0.284,0.284,0,0,1,.1-0.09,2.886,2.886,0,0,1-.04-0.29c0.1,0.05.21,0.1,0.31,0.16,0.01-.01.03-0.01,0.04-0.02v0.04c0.74,0.38,1.48.76,2.3,1.19-0.09-.53-0.13-0.79-0.18-1.08,0.46,0.23.77,1.1,1.11,0.73-0.41-.56-0.78-1.07-1.15-1.58,0.08-.13.17-0.26,0.25-0.39,0.2-.06.4-0.12,0.62-0.19-0.07-.6-0.14-1.13-0.21-1.75,0.26,0.17.48,0.31,0.85,0.56-0.42-.95-0.76-1.72-1.2-2.72,0.9,0.53,1.62.95,2.33,1.36a5.979,5.979,0,0,0-1.06-2.13c-0.83-.94-0.9-0.97-0.84-1.96,1.35,1.25,1.61,1.31,1.72.76-0.39-.72-0.67-1.26-1.05-1.96,0.43,0.08.65,0.11,0.88,0.16,0.17,0.03.34,0.08,0.51,0.12a3.372,3.372,0,0,0,0-.84c-0.12-.5-0.29-0.98-0.48-1.61,0.37,0.33.67,0.59,1.09,0.97-0.27-1.1-.48-1.95-0.69-2.81a2.917,2.917,0,0,0,.31.14,1.191,1.191,0,0,0,.42-0.49c0.09-.67.11-1.37,0.15-2.07,0.68,0.55-.09,2.2,1.08,2.28a0.667,0.667,0,0,1,.07.37c-0.13.72-.27,1.42-0.41,2.13l0.25,0.19c0.26-.37.52-0.74,0.94-1.35-0.04,1.08-.07,1.87-0.11,2.67-0.27-.05-0.44-0.07-0.61-0.1,0.76,0.71-.09,1.4.02,2.24,0.55-.8,1.01-1.48,1.54-2.26,0.31,0.86-.23,1.1-0.39,1.54,0.45,0.66.26,1.31-.72,2.51,0.11,0.49.22,0.97,0.36,1.56,0.44-.39.81-0.73,1.17-1.05,0.6,1.01-.19,1.41-0.45,2.04a1.324,1.324,0,0,0-.18.63,0.872,0.872,0,0,0,.45.55,17.469,17.469,0,0,0,1.52-.98c0.2,0.06.49,0.14,0.79,0.22-0.77,1.02-1.52,2.01-2.26,2.99,0.19,0.42.36,0.8,0.52,1.16,0.46-.43.88-0.83,1.29-1.21,0.7,0.86.23,1.14-.3,1.31,0.2,0.36.36,0.68,0.62,1.16,0.13-.07.31-0.16,0.51-0.25a53.65,53.65,0,1,0-103.06,2.01C1633.87,1836.85,1634.13,1836.97,1634.41,1837.09Zm14.55-21.24c0.21,0.71.42,1.43,0.67,2.3A2.427,2.427,0,0,0,1648.96,1815.85Zm30.55-7.03c-0.81,0-1.26.68-1.29,1.75C1678.63,1810,1679.02,1809.49,1679.51,1808.82Zm45.43,24.15a2.5,2.5,0,0,0,.26.07c-0.04-.12-0.07-0.23-0.1-0.36C1725.05,1832.77,1725,1832.87,1724.94,1832.97Zm-19.36-4.48c-0.02-.04-0.05-0.09-0.07-0.14-0.17.14-.33,0.27-0.49,0.41-0.08-.19-0.15-0.33-0.24-0.56-0.53,1.21-1,.34-1.54-0.18,0.09,1.03.17,1.29,0.46,1.25a8.766,8.766,0,0,0,1.58-.35A1.077,1.077,0,0,0,1705.58,1828.49Zm15.96,6.64a1,1,0,0,0-.99-1.13C1720.92,1834.43,1721.22,1834.76,1721.54,1835.13Zm-0.52-3.25c0.18,0.52.35,1.05,0.56,1.68A1.66,1.66,0,0,0,1721.02,1831.88Zm-20.74,9.04c-0.27.19-.56,0.15-0.73-0.68a1.045,1.045,0,0,0-.34-0.47c-0.41.79-.83,1.63-1.31,2.57,1-.27,1.9-0.51,2.85-0.77C1700.62,1841.4,1700.49,1841.21,1700.28,1840.92Zm9.05-23.85c-0.08.09-.17,0.17-0.25,0.27-0.3.39-.51,1.02-1.03,0.82-0.27-.1-0.33.18-0.2,0.87,0.55-.55,1.07-1.08,1.6-1.62C1709.41,1817.29,1709.37,1817.18,1709.33,1817.07Zm4.19,28.96c-0.13.27-.25,0.52-0.41,0.84a6.623,6.623,0,0,0,4.09.32l-0.49.43c0.1,0.2.16,0.31,0.27,0.54-0.09.02-.17,0.03-0.25,0.05,0.74,0.46,1.45.05,2.16-.24-0.48-.67-0.95-1.32-1.44-1.99-0.08.1-.17,0.21-0.19,0.24-0.47-.31-0.91-0.59-1.39-0.9,0.01-.04.03-0.17,0.05-0.26-0.11-.07-0.21-0.14-0.31-0.21-0.28-.04-0.56-0.08-0.84-0.11-0.03.05-.06,0.11-0.09,0.17,0.25,0.22.49,0.45,0.74,0.68l-0.15.3C1714.68,1846.08,1714.12,1846.99,1713.52,1846.03Zm2.49-1.62c0.08,0.01.15,0.02,0.24,0.03-0.03-.14-0.05-0.28-0.08-0.46A0.809,0.809,0,0,0,1716.01,1844.41Zm0.58-.64a0.843,0.843,0,0,0-.24.07c0.29,0.23.53,0.43,0.77,0.62a0.849,0.849,0,0,0-.25-1.1h0c0.01,0.03.01,0.06,0.02,0.09A0.935,0.935,0,0,1,1716.59,1843.77Zm8.23-8.14c-0.17-.1-0.49-0.5-0.57.32,0.34,0.09.67,0.18,1,.27,0.01,0.06.02,0.11,0.03,0.16-0.21.15-.42,0.31-0.66,0.49,0.29,0.54-.31.32-0.37,0.73,0.18-.08.32-0.13,0.46-0.2a2.906,2.906,0,0,1,.35-0.18c0.38-.07.47,0.11,0.32,0.55,0.24,0.15.48,0.31,0.72,0.46-0.26-.58-0.5-1.15-0.75-1.71,0.87,0.18,1.61.38,2.35,0.46a1.453,1.453,0,0,0,.68-0.39,6.225,6.225,0,0,0-.52-1.02c-0.69.41-.96-0.58-1.42-0.83a2.487,2.487,0,0,1-1.02-1.14c-0.16.23-.32,0.46-0.49,0.71a4.976,4.976,0,0,1,.56.2,1.044,1.044,0,0,1,.2.25,2.226,2.226,0,0,1-.19.24C1725.3,1835.2,1725.09,1835.38,1724.82,1835.63Zm-22.54,5.67a7.115,7.115,0,0,0-.47.7,0.417,0.417,0,0,1-.48.22c-0.03.14-.07,0.27-0.1,0.4-0.15-.06-0.3-0.13-0.55-0.25a5.387,5.387,0,0,1-.74,1.4,2.03,2.03,0,0,1-1.44.82c-0.85-.27-0.87.27-1.05,0.93a3.76,3.76,0,0,0,.55.1,1.463,1.463,0,0,1-.13-0.09,2.336,2.336,0,0,1,.04-0.26c0.21-.03.43-0.08,0.64-0.11a0.661,0.661,0,0,0,.71-0.72,0.384,0.384,0,0,1,.23-0.22c0.49-.11.98-0.14,1.45-0.29a4.543,4.543,0,0,0,1.01-.55,7.868,7.868,0,0,0,.67-0.57c-0.09-.32-0.19-0.66-0.32-1.13,0.28-.06.51-0.1,0.78-0.15C1702.83,1840.96,1702.56,1840.97,1702.28,1841.3Zm-0.68,8.01c-0.14.05-.3,0.08-0.44,0.12a3.07,3.07,0,0,1-2.5.16,1.933,1.933,0,0,0-.83.61c0.1,0.12.19,0.26,0.28,0.39,1.5-.28,2.97-0.1,4.37-0.74A3.314,3.314,0,0,1,1701.6,1849.31Zm14.68-1.01a0.3,0.3,0,0,1-.1.02,1.093,1.093,0,0,1,.08.15C1716.27,1848.42,1716.27,1848.37,1716.28,1848.3Zm4.25-4.99c-0.02-.03-0.04-0.07-0.06-0.1-0.15.1-.29,0.2-0.43,0.3-0.07-.14-0.12-0.24-0.21-0.41-0.45.87-.86,0.24-1.33-0.12,0.08,0.74.15,0.92,0.4,0.9a10.67,10.67,0,0,0,1.37-.26A0.835,0.835,0,0,0,1720.53,1843.31Zm31.65-77.55s-4.35.88-5.91,3.54c-1.33-2.59-3.04-2.79-4.7-3.25a3.515,3.515,0,0,1,4.66,1.46A5.157,5.157,0,0,1,1752.18,1765.76Zm-15.29,6.85s-3.17.64-4.31,2.58c-0.97-1.89-2.21-2.04-3.42-2.37a2.555,2.555,0,0,1,3.39,1.06A3.769,3.769,0,0,1,1736.89,1772.61Zm-114.2,10.67s-3.17.64-4.3,2.58c-0.97-1.89-2.22-2.03-3.42-2.37a2.558,2.558,0,0,1,3.39,1.06A3.749,3.749,0,0,1,1622.69,1783.28Zm-14.9-17.25s-3.61.74-4.9,2.94c-1.1-2.15-2.52-2.32-3.89-2.69a2.912,2.912,0,0,1,3.86,1.2A4.281,4.281,0,0,1,1607.79,1766.03Zm63.32-7.85s-3.64.74-4.93,2.95c-1.11-2.15-2.54-2.32-3.92-2.7a2.929,2.929,0,0,1,3.88,1.21A4.329,4.329,0,0,1,1671.11,1758.18Zm-38.95,14.62s-4.44.91-6.03,3.61c-1.35-2.64-3.1-2.84-4.78-3.3a3.572,3.572,0,0,1,4.74,1.48A5.275,5.275,0,0,1,1632.16,1772.8Zm136.41,10.31s-3.62.74-4.91,2.95c-1.11-2.16-2.53-2.32-3.9-2.7a2.919,2.919,0,0,1,3.87,1.21A4.285,4.285,0,0,1,1768.57,1783.11Zm-104.77,82.2c-1.14-.07-2.27-0.19-3.42-0.22-2.74-.07-5.5-0.07-8.24-0.14-2.05-.05-2.11-0.23-4.16-0.25-1.51-.02-3.03.11-4.54,0.21a2.047,2.047,0,0,0-.71.27,7.7,7.7,0,0,0,.89.25,8.6,8.6,0,0,0,.88,0c5.52,0.02,9.06.03,14.57,0.08,1,0.01,1.98.19,2.99,0.24a17.18,17.18,0,0,0,1.75-.07C1663.81,1865.56,1663.8,1865.43,1663.8,1865.31Zm63.73-.42c-0.63-.1-1.24-0.27-1.89-0.31-1.95-.12-3.9-0.26-5.87-0.28-1.61-.02-3.23.13-4.86,0.2-0.61.02-1.24,0.04-1.85,0-1.16-.05-2.32-0.22-3.48-0.2a11.447,11.447,0,0,0-2.15.46c0.04,0.07.09,0.15,0.13,0.22q9.915,0.12,19.81.23C1727.43,1865.1,1727.48,1865,1727.53,1864.89Zm-50.24-.91a23.557,23.557,0,0,0-2.89-.09,34.313,34.313,0,0,1-4.76.07c-2.13-.11-4.3.02-6.46,0.02-0.93,0-1.86-.08-2.79-0.07-0.7.01-1.39,0.1-2.09,0.15v0.29a14.145,14.145,0,0,0,1.46.14c3.4,0.01,6.81.01,10.22-.02,2.26-.02,4.53-0.11,6.8-0.17a3.069,3.069,0,0,0,.5-0.13C1677.28,1864.11,1677.29,1864.04,1677.29,1863.98Zm38.33,0c-1.54-.86-3.33-0.61-4.9-0.69a21.212,21.212,0,0,0-2.6.22,4.119,4.119,0,0,1-.93-0.01,27.245,27.245,0,0,0-5.99-.17c-0.04.07-.08,0.15-0.13,0.23a13.375,13.375,0,0,0,1.78.25c2.58,0.07,5.16.09,7.74,0.14,0.84,0.02,1.68.12,2.52,0.13C1713.86,1864.09,1714.61,1864.03,1715.62,1863.98Zm-80.81.07c0.52,0.04,1.04.07,1.54,0.14,2.97,0.39,5.97.04,8.96,0.07a0.95,0.95,0,0,0,.6-0.27,0.986,0.986,0,0,0-.64-0.37c-1.01-.03-2.03.01-3.04,0.01-0.96-.01-1.92-0.06-2.88-0.04-1.51.03-3.03,0.1-4.54,0.16v0.3Zm57.57,0.25c0.47,0.05.93,0.1,1.4,0.13q1.875,0.135,3.75.24,3.585,0.195,7.18.35a11.449,11.449,0,0,0,1.53-.19,6.635,6.635,0,0,0-1.4-.42q-5.85-.2-11.7-0.34a5.519,5.519,0,0,0-.71.05C1692.41,1864.18,1692.4,1864.24,1692.38,1864.3Zm35.48-.3c4.36,0.61,8.78.26,13.19,0.1C1740.14,1863.68,1729.9,1863.54,1727.86,1864Zm-10.26,2.27a12.991,12.991,0,0,0,2.24.03,40.985,40.985,0,0,1,7.43-.03,10.732,10.732,0,0,0,2.33-.19c-3.99-.21-7.97-0.88-11.95-0.03C1717.63,1866.12,1717.62,1866.2,1717.6,1866.27Zm-83.88-2.92c-1.05-.06-2.1-0.11-3.15-0.17-1.79-.11-3.58-0.23-5.38-0.32a5.707,5.707,0,0,0-1.31.12,0.3,0.3,0,0,0-.24.3,0.792,0.792,0,0,0,.48.15c3.18,0.07,6.37.12,9.55,0.18C1633.69,1863.52,1633.7,1863.44,1633.72,1863.35Zm56.99,0.75c-1.31-.24-2.3-0.42-3.29-0.59a1.73,1.73,0,0,0-.51-0.01c-1.71.14-3.43,0.28-5.63,0.57,0.29,0.03.57,0.06,0.86,0.08a19.546,19.546,0,0,0,2.14.11,22.169,22.169,0,0,1,4.75-.04A9.745,9.745,0,0,0,1690.71,1864.1Zm-28.62,2.16a53.131,53.131,0,0,0-9.28-.12C1653.49,1866.52,1660.59,1866.64,1662.09,1866.26Zm37.21-.86c-0.75-.07-1.51-0.18-2.27-0.21-1.82-.06-3.66-0.07-5.48-0.13-1.37-.05-2.73-0.22-4.09-0.24-1.01-.01-2.02.1-3.02,0.19a1.312,1.312,0,0,0-.47.24,3.447,3.447,0,0,0,.59.23,5.8,5.8,0,0,0,.59,0c3.67,0.02,7.34.04,11.01,0.09,0.67,0.01,1.32.17,1.99,0.22a9.266,9.266,0,0,0,1.17-.06C1699.31,1865.62,1699.31,1865.51,1699.3,1865.4Zm-9.6,1.1a52.171,52.171,0,0,0-9.28-.12C1681.1,1866.76,1688.2,1866.87,1689.7,1866.5Zm-27.52-3.46a31.387,31.387,0,0,0,8.55.15V1863Q1666.455,1863.015,1662.18,1863.04Zm11.87,2.31c2.75-.08,5.28-0.15,8.14-0.22C1680.35,1864.61,1675.29,1864.76,1674.05,1865.35Zm63.66-2.54c-0.6-.02-1.2-0.03-1.8-0.05a20.524,20.524,0,0,1-2.24-.1,3.8,3.8,0,0,0-2.5.45l6.51-.03Zm-98.66,2.51a17.283,17.283,0,0,0-6.09-.11A31.729,31.729,0,0,0,1639.05,1865.32Zm16.08-2.58c1.74,0.03,3.27.06,5.06,0.09A8.2,8.2,0,0,0,1655.13,1862.74Zm-5.13.91c2.79,0.01,3.28.03,6.15,0.05A14.661,14.661,0,0,0,1650,1863.65Zm61.82-.95a3.5,3.5,0,0,0-.87-0.23c-1.36-.01-2.73.02-4.09,0.04a0.329,0.329,0,0,0-.23.19,1.672,1.672,0,0,0,.65.22c1.42,0.01,2.85,0,4.27-.01Zm-79.38.14c1.71-.01,3.42-0.01,5.46-0.02,0.13-.08.47-0.37-0.45-0.4-1.65-.04-3.32.04-4.98,0.08C1632.46,1862.61,1632.45,1862.73,1632.44,1862.84Zm69.54,3.03c1.66,0.09,3.15.17,4.78,0.27C1705.92,1865.39,1703.04,1865.23,1701.98,1865.87Zm17.08-2.6c2.43,0.09,4.59.17,6.97,0.26C1724.8,1862.78,1720.61,1862.63,1719.06,1863.27Zm-79.97-.46c1.37,0.1,2.74.19,4.37,0.3C1642.52,1862.3,1640.9,1862.19,1639.09,1862.81Zm26.19,2.39a3.877,3.877,0,0,0,4.04.14C1667.95,1865.29,1666.75,1865.25,1665.28,1865.2Zm63.5-.25a6.559,6.559,0,0,0,4.16.04A10.6,10.6,0,0,0,1728.78,1864.95Zm-95.65-.85c-1.49.05-2.99,0.1-4.59,0.16,0.67,0.42,3.33.39,4.61,0.01A1.114,1.114,0,0,0,1633.13,1864.1Zm48.88-1.46c-1.6.02-3.18-.4-4.8-0.07,0,0.08-.01.16-0.01,0.24,1.6-.01,3.19-0.01,4.79-0.02C1682,1862.74,1682,1862.69,1682.01,1862.64Zm58.25,2.36a5.241,5.241,0,0,0,3.29.44,0.427,0.427,0,0,0,.32-0.23,0.769,0.769,0,0,0-.49-0.21C1742.43,1864.98,1741.47,1864.99,1740.26,1865Zm2.25-1.01a4.441,4.441,0,0,0,3.7-.15C1745.1,1863.89,1743.98,1863.93,1742.51,1863.99Zm-45.58-.33c1-.01,1.99-0.01,3.31-0.02a2.986,2.986,0,0,0-.84-0.39c-0.85.03-1.69,0.11-2.54,0.18A1.546,1.546,0,0,1,1696.93,1863.66Zm40.75,1.51a6.8,6.8,0,0,0-3.41-.17c-0.01.06-.01,0.12-0.02,0.18C1735.4,1865.18,1736.54,1865.17,1737.68,1865.17Zm1.27-2.17,2.83,0.09c0.02-.1.04-0.19,0.06-0.29-0.93-.04-1.87-0.09-2.8-0.14C1739.01,1862.77,1738.98,1862.89,1738.95,1863Zm-91.91-.69c0.95,0.02,1.89.05,2.84,0.08,0.02-.1.04-0.19,0.06-0.29-0.94-.04-1.87-0.09-2.8-0.14C1647.1,1862.08,1647.07,1862.19,1647.04,1862.31Zm0.12,3.93c0.95-.01,1.9-0.01,2.84-0.02a1.355,1.355,0,0,0,.02-0.2c-0.95-.02-1.89-0.04-2.84-0.05C1647.17,1866.06,1647.17,1866.15,1647.16,1866.24Zm69.06-.38-2.16.15c0.02,0.09.03,0.18,0.05,0.28l2.23-.09C1716.3,1866.09,1716.26,1865.98,1716.22,1865.86Zm-76.85-3.84c0.49-.06.98-0.12,1.48-0.17a0.7,0.7,0,0,0-.22-0.25c-0.48.01-.96,0.05-1.44,0.07C1639.25,1861.79,1639.31,1861.9,1639.37,1862.02Zm50.33,18.83a88.775,88.775,0,0,0-12.33-.13C1678.28,1881.11,1687.71,1881.23,1689.7,1880.85Zm3.1-3.75c-0.84-.11-1.65-0.28-2.51-0.33-2.59-.13-5.19-0.27-7.8-0.29-2.14-.02-4.3.13-6.45,0.2-0.82.02-1.65,0.04-2.46,0.01-1.55-.06-3.09-0.24-4.62-0.21a17.7,17.7,0,0,0-2.87.47c0.06,0.07.12,0.15,0.18,0.22q13.155,0.135,26.31.25C1692.65,1877.31,1692.72,1877.21,1692.8,1877.1Zm-15.83-.95c-2.04-.9-4.42-0.64-6.5-0.72-1.12-.04-2.3.16-3.46,0.23a7.034,7.034,0,0,1-1.22-.02,46.96,46.96,0,0,0-7.96-.18c-0.06.08-.12,0.16-0.17,0.24,0.78,0.09,1.56.25,2.35,0.27,3.43,0.07,6.86.09,10.29,0.14,1.11,0.02,2.22.13,3.34,0.14C1674.64,1876.26,1675.64,1876.19,1676.97,1876.15Zm-30.86.32c0.62,0.04,1.24.1,1.86,0.13,1.66,0.09,3.31.18,4.98,0.25,3.17,0.13,6.35.26,9.53,0.37,0.48,0.01.99-.09,2.03-0.2a10.38,10.38,0,0,0-1.85-.44c-5.18-.14-10.36-0.25-15.54-0.36-0.31-.01-0.63.04-0.95,0.06C1646.15,1876.34,1646.13,1876.4,1646.11,1876.47Zm47.12-.3c5.79,0.63,11.66.28,17.52,0.11C1709.55,1875.85,1695.94,1875.7,1693.23,1876.17Zm-13.63,2.35a24.9,24.9,0,0,0,2.98.03,69.048,69.048,0,0,1,9.86-.03,18.913,18.913,0,0,0,3.1-.19c-5.3-.22-10.59-0.92-15.87-0.04A1.546,1.546,0,0,0,1679.6,1878.52Zm26.72-3.58c-0.8-.02-1.6-0.03-2.39-0.05-1-.03-2.04,0-2.98-0.1a6.262,6.262,0,0,0-3.32.46c3.02-.01,5.83-0.02,8.65-0.02A2.535,2.535,0,0,1,1706.32,1874.94Zm-34.39-.12a5.12,5.12,0,0,0-1.15-.24c-1.81-.01-3.63.01-5.44,0.04a0.453,0.453,0,0,0-.3.19,2.807,2.807,0,0,0,.86.23c1.89,0.02,3.78,0,5.67-.01Zm11.15,0.5c2.49-.01,4.98-0.01,7.94-0.02,0.2-.08.69-0.39-0.65-0.41-2.4-.04-4.82.04-7.23,0.07Zm-24.23,2.77c2.21,0.1,4.19.19,6.36,0.28C1664.09,1877.6,1660.27,1877.44,1658.85,1878.09Zm35.61-.94a11.034,11.034,0,0,0,5.52.05A18.272,18.272,0,0,0,1694.46,1877.15Zm15.24,0.06a8.709,8.709,0,0,0,4.37.46,0.532,0.532,0,0,0,.42-0.24,1.179,1.179,0,0,0-.64-0.22C1712.58,1877.19,1711.31,1877.21,1709.7,1877.21Zm2.98-1.04a7.488,7.488,0,0,0,4.92-.15C1716.12,1876.06,1714.65,1876.11,1712.68,1876.17Zm-60.52-.37c1.32-.01,2.63-0.01,4.39-0.01a4.506,4.506,0,0,0-1.12-.41c-1.12.03-2.24,0.12-3.36,0.18Zm54.1,1.59a11.642,11.642,0,0,0-4.52-.18c-0.01.07-.01,0.13-0.02,0.19C1703.24,1877.39,1704.75,1877.39,1706.26,1877.39Zm1.7-2.24c1.25,0.03,2.51.05,3.76,0.08a2.454,2.454,0,0,0,.08-0.29l-3.72-.15Zm12.54,1.51,2.81,0.27c0.08-.12.16-0.23,0.25-0.35-0.93-.09-1.85-0.18-2.77-0.28C1720.69,1876.42,1720.6,1876.54,1720.5,1876.66Zm-42.73,1.43-2.87.15c0.02,0.1.05,0.2,0.07,0.29,0.99-.03,1.97-0.05,2.96-0.08C1677.88,1878.33,1677.82,1878.21,1677.77,1878.09Zm12.78-6.24c-1.66-.08-3.31-0.21-4.98-0.24-4-.07-8.01-0.08-12.01-0.16-2.99-.06-3.07-0.24-6.06-0.27-2.2-.02-4.42.12-6.62,0.21a4.705,4.705,0,0,0-1.04.28,12.452,12.452,0,0,0,1.3.26c0.39,0.04.86,0,1.29,0,8.04,0.03,13.19.05,21.24,0.11,1.45,0.01,2.88.2,4.34,0.26,0.84,0.03,1.71-.04,2.56-0.07C1690.56,1872.1,1690.56,1871.97,1690.55,1871.85Zm19.66-1.36c-1.41-.04-2.87-0.18-4.21-0.1-2.33.15-4.56,0.15-6.93,0.07-3.1-.12-6.28.01-9.42,0.01-1.36,0-2.71-.09-4.06-0.08-1.02,0-2.03.1-3.05,0.15v0.3c0.7,0.05,1.41.15,2.12,0.15,4.96,0.01,9.93.03,14.89,0,3.31-.02,6.61-0.1,9.91-0.17a4.4,4.4,0,0,0,.74-0.13C1710.2,1870.62,1710.21,1870.55,1710.21,1870.49Zm-61.9-.01c0.75,0.05,1.51.08,2.24,0.15,4.33,0.41,8.7.06,13.05,0.1a1.652,1.652,0,0,0,.89-0.29,1.7,1.7,0,0,0-.94-0.38c-1.47-.03-2.95.01-4.43,0-1.4,0-2.8-.06-4.19-0.04-2.21.03-4.42,0.1-6.62,0.16v0.3Zm-1.59-.72-4.59-.18c-2.61-.11-5.22-0.25-7.84-0.34a12.226,12.226,0,0,0-1.92.12,0.361,0.361,0,0,0-.34.31,1.477,1.477,0,0,0,.7.16q6.945,0.105,13.91.2A2.759,2.759,0,0,0,1646.72,1869.76Zm83.05,0.88c-1.9-.25-3.35-0.44-4.8-0.62a3.542,3.542,0,0,0-.73-0.01c-2.5.14-5,.29-8.22,0.58l1.27,0.09c1.03,0.04,2.1.15,3.11,0.11a45.65,45.65,0,0,1,6.92-.03A18.734,18.734,0,0,0,1729.77,1870.64Zm-41.71,2.19a106.88,106.88,0,0,0-13.53-.14C1675.52,1873.08,1685.88,1873.21,1688.06,1872.83Zm49.64-.82c-0.87-.07-1.75-0.19-2.63-0.22-2.11-.07-4.24-0.07-6.35-0.15-1.58-.06-3.16-0.23-4.74-0.25-1.16-.02-2.33.1-3.49,0.18a1.946,1.946,0,0,0-.55.25,3.317,3.317,0,0,0,.69.24,3.857,3.857,0,0,0,.68,0c4.25,0.04,8.5.06,12.76,0.12,0.76,0.01,1.52.19,2.29,0.24a12.389,12.389,0,0,0,1.36-.07C1737.71,1872.24,1737.71,1872.13,1737.7,1872.01Zm-9.41,1.11a108.6,108.6,0,0,0-13.52-.14C1715.76,1873.38,1726.11,1873.51,1728.29,1873.12Zm-40.1-3.63a64.834,64.834,0,0,0,12.46.17v-0.2Zm17.31,2.41c3.99-.07,7.69-0.14,11.85-0.21C1714.68,1871.15,1707.3,1871.3,1705.5,1871.9Zm-51.01-.09a36.081,36.081,0,0,0-8.88-.13A64.068,64.068,0,0,0,1654.49,1871.81Zm58.23-2.63a36.081,36.081,0,0,0-8.88-.13A65.663,65.663,0,0,0,1712.72,1869.18Zm-34.79-.19c2.52,0.05,4.76.09,7.36,0.14C1683.36,1868.35,1679.33,1868.29,1677.93,1868.99Zm-7.49,1.11c4.07,0.02,4.78.04,8.97,0.06A30.01,30.01,0,0,0,1670.44,1870.1Zm-25.59-.87c2.49,0,4.99-.01,7.96-0.01,0.2-.08.69-0.39-0.66-0.41-2.4-.05-4.83.03-7.25,0.06C1644.88,1868.99,1644.87,1869.11,1644.85,1869.23Zm9.7-.02,6.37,0.32C1659.55,1868.69,1657.18,1868.58,1654.55,1869.21Zm38.16,2.53a7.61,7.61,0,0,0,5.88.14C1696.61,1871.83,1694.85,1871.79,1692.71,1871.74Zm-46.85-1.2c-2.18.05-4.36,0.1-6.7,0.15,0.99,0.45,4.86.42,6.73,0.03Zm52.28-2.14c-2.33.01-4.63-.42-6.99-0.08a2.105,2.105,0,0,1-.02.25q3.495-.015,6.99-0.01C1698.13,1868.5,1698.13,1868.45,1698.14,1868.4Zm-32.01.3c1.38,0.03,2.76.06,4.14,0.1,0.02-.1.05-0.2,0.08-0.3l-4.08-.15C1666.23,1868.46,1666.18,1868.58,1666.13,1868.7Zm0.17,4.07h4.15a1.8,1.8,0,0,1,.02-0.22c-1.38-.01-2.76-0.03-4.14-0.05Zm49.45-3.72a8.907,8.907,0,0,0,5.4-.14C1719.53,1868.96,1717.91,1869,1715.75,1869.05Zm-60.8-.66c0.72-.06,1.44-0.12,2.16-0.17a0.85,0.85,0,0,0-.32-0.25c-0.7,0-1.4.04-2.1,0.06C1654.77,1868.15,1654.86,1868.27,1654.95,1868.39Zm-11.39-64.89a1.5,1.5,0,0,0,.02.2c-0.04.25-.08,0.49-0.13,0.74a0.225,0.225,0,0,1-.06.14,0.939,0.939,0,0,1-.26.14c-0.15.06-.31,0.1-0.47,0.15s-0.31.07-.47,0.1c-0.03,0-.07-0.01-0.1-0.01a0.142,0.142,0,0,1-.04-0.02v0.02l-0.01.01c-0.01.01-.02,0.04,0,0.05h0.02a0.167,0.167,0,0,0,.21.16,0.925,0.925,0,0,1,.29.02c0.2,0.05.4,0.13,0.61,0.19a0.293,0.293,0,0,1,.3.3,4.979,4.979,0,0,0,.15.75,1.866,1.866,0,0,1,.04.25c0.01,0.08.03,0.17,0.04,0.25a0.127,0.127,0,0,1,.06.01,0.284,0.284,0,0,0,.04-0.12c0.01-.09-0.01-0.19,0-0.28,0.04-.32.08-0.64,0.13-0.96a0.839,0.839,0,0,1,.05-0.18,0.879,0.879,0,0,0,.1-0.06,0.249,0.249,0,0,1,.08.01c0.02-.03.05-0.05,0.07-0.08,0.04-.02.07-0.03,0.11-0.05,0.15-.04.3-0.08,0.45-0.11,0.1-.01.21-0.03,0.31-0.04a0.03,0.03,0,0,0,0-.06h-0.01c0.07-.02.13-0.04,0.19-0.06h0.01l0.05-.01a0.032,0.032,0,0,0-.01-0.06,0.01,0.01,0,0,1-.01.01,0.082,0.082,0,0,0-.05-0.05,2.477,2.477,0,0,0-.27-0.03c-0.18-.03-0.36-0.07-0.53-0.09-0.15-.03-0.3-0.04-0.51-0.07-0.02-.07-0.08-0.2-0.11-0.33a4.413,4.413,0,0,1-.07-1.09,0.453,0.453,0,0,0-.03-0.16,0.538,0.538,0,0,0-.09-0.12c-0.01.04-.02,0.09-0.03,0.13A1.41,1.41,0,0,1,1643.56,1803.5Zm0.73,1.59a0.555,0.555,0,0,1-.08.06,0.01,0.01,0,0,1-.01.01,0.147,0.147,0,0,0-.02-0.04Zm19.99-15.15a1.454,1.454,0,0,0,.01.29c-0.04.36-.1,0.71-0.16,1.07a0.436,0.436,0,0,1-.07.21,0.985,0.985,0,0,1-.3.2c-0.18.08-.37,0.14-0.55,0.21-0.18.05-.36,0.09-0.54,0.13a0.487,0.487,0,0,1-.12-0.01c-0.01-.01-0.03-0.02-0.04-0.03v0.03c-0.01,0-.01.01-0.02,0.01-0.01.02-.02,0.06,0.01,0.07a0.035,0.035,0,0,0,.02.01c0.02,0.19.09,0.24,0.24,0.23a0.744,0.744,0,0,1,.33.03c0.24,0.08.46,0.21,0.7,0.29a0.387,0.387,0,0,1,.34.45,7.035,7.035,0,0,0,.17,1.09c0.02,0.12.02,0.24,0.03,0.36s0.03,0.24.05,0.37a0.2,0.2,0,0,1,.07.01,1.046,1.046,0,0,0,.04-0.17c0.01-.14-0.01-0.28.01-0.41,0.05-.47.1-0.94,0.17-1.4a0.659,0.659,0,0,1,.06-0.26c0.04-.02.07-0.05,0.11-0.07a0.272,0.272,0,0,1,.09,0,0.444,0.444,0,0,0,.08-0.11c0.05-.02.09-0.05,0.14-0.07a3.332,3.332,0,0,1,.51-0.16l0.37-.06c0.03,0,.03-0.08,0-0.07h-0.01a1.427,1.427,0,0,1,.22-0.08,0.01,0.01,0,0,1,.01-0.01l0.06-.02c0.03-.01.02-0.08-0.01-0.07h-0.02a0.158,0.158,0,0,0-.05-0.08c-0.11-.02-0.22-0.02-0.32-0.04l-0.61-.15-0.58-.1a4.151,4.151,0,0,1-.12-0.48,7.608,7.608,0,0,1-.07-1.58,0.634,0.634,0,0,0-.03-0.24,0.67,0.67,0,0,0-.11-0.18c-0.01.06-.02,0.13-0.03,0.2A2.394,2.394,0,0,1,1664.28,1789.94Zm0.81,2.32-0.09.09a0.02,0.02,0,0,1-.02.01,0.142,0.142,0,0,0-.02-0.06C1665,1792.29,1665.05,1792.27,1665.09,1792.26Zm55.56,16.55c-0.01.03,0.02,0.08,0.01,0.12-0.02.15-.05,0.29-0.08,0.44a0.1,0.1,0,0,1-.04.08,0.556,0.556,0,0,1-.17.09l-0.3.09c-0.1.02-.2,0.04-0.3,0.05h-0.07c-0.01,0-.01-0.01-0.02-0.01v0.01c-0.01,0-.01,0-0.01.01s-0.01.02,0,.02a0.01,0.01,0,0,1,.01.01,0.111,0.111,0,0,0,.14.09,0.608,0.608,0,0,1,.19.01c0.13,0.03.26,0.08,0.39,0.11a0.188,0.188,0,0,1,.19.18,3.632,3.632,0,0,0,.1.45c0.01,0.05.02,0.1,0.03,0.14a0.777,0.777,0,0,0,.02.16h0.04c0.01-.02.02-0.05,0.03-0.07a0.965,0.965,0,0,1,0-.17c0.02-.19.05-0.38,0.08-0.57a0.405,0.405,0,0,1,.03-0.1,0.574,0.574,0,0,1,.07-0.04h0.05l0.04-.04c0.03-.01.05-0.02,0.08-0.03a2.291,2.291,0,0,1,.28-0.07c0.07-.01.14-0.01,0.21-0.02,0.02-.01.02-0.04,0-0.03h-0.01a0.564,0.564,0,0,1,.12-0.04h0.01l0.03-.01c0.02,0,.01-0.03,0-0.03h-0.02a0.034,0.034,0,0,0-.02-0.03c-0.06-.01-0.12-0.01-0.18-0.02-0.12-.01-0.23-0.03-0.34-0.05s-0.2-.02-0.33-0.04a1.115,1.115,0,0,1-.07-0.2,2.308,2.308,0,0,1-.05-0.64,0.164,0.164,0,0,0-.02-0.1,0.2,0.2,0,0,0-.06-0.07c0,0.02-.01.05-0.01,0.08A1.027,1.027,0,0,1,1720.65,1808.81Zm0.47,0.95a0.219,0.219,0,0,1-.05.03l-0.01.01a0.037,0.037,0,0,0-.01-0.03C1721.07,1809.77,1721.1,1809.76,1721.12,1809.76Zm0.94-14.43a0.708,0.708,0,0,0,.01.14c-0.02.16-.06,0.33-0.09,0.49a0.3,0.3,0,0,1-.04.1,0.663,0.663,0,0,1-.19.09c-0.12.04-.23,0.07-0.35,0.1s-0.22.05-.33,0.07a0.22,0.22,0,0,0-.08-0.01c-0.01,0-.02-0.01-0.03-0.01v0.02q-0.03.015,0,.03h0.01a0.119,0.119,0,0,0,.15.11,0.489,0.489,0,0,1,.21.01c0.15,0.03.3,0.09,0.44,0.13,0.12,0.03.21,0.03,0.22,0.2a3.026,3.026,0,0,0,.12.5c0.01,0.06.01,0.11,0.02,0.16l0.03,0.18h0.05a0.235,0.235,0,0,0,.02-0.08,1.205,1.205,0,0,0,0-.19c0.03-.21.06-0.43,0.1-0.64a0.235,0.235,0,0,1,.04-0.12,0.574,0.574,0,0,0,.07-0.04,0.109,0.109,0,0,1,.05.01l0.05-.05a0.355,0.355,0,0,1,.09-0.04,3.005,3.005,0,0,1,.32-0.07l0.23-.03c0.02-.01.02-0.04,0-0.04h-0.01a0.737,0.737,0,0,0,.14-0.04h0.01l0.03-.01a0.015,0.015,0,1,0,0-.03h-0.02a0.1,0.1,0,0,0-.03-0.04c-0.06-.01-0.13-0.01-0.2-0.02l-0.38-.06c-0.11-.01-0.22-0.02-0.37-0.04a1.769,1.769,0,0,1-.08-0.22,2.569,2.569,0,0,1-.05-0.73,0.359,0.359,0,0,0-.02-0.11c-0.02-.03-0.05-0.05-0.07-0.08a0.292,0.292,0,0,0-.02.09A0.857,0.857,0,0,1,1722.06,1795.33Zm0.53,1.07a0.209,0.209,0,0,0-.06.04h-0.01c0-.01-0.01-0.02-0.01-0.03C1722.54,1796.41,1722.56,1796.4,1722.59,1796.4Zm-69.03-9.84a0.615,0.615,0,0,0,.01.13c-0.03.17-.06,0.33-0.09,0.49a0.16,0.16,0,0,1-.05.1,0.573,0.573,0,0,1-.19.1c-0.11.03-.22,0.06-0.34,0.1-0.11.02-.22,0.04-0.34,0.06h-0.07c-0.01-.01-0.02-0.01-0.03-0.02v0.02h-0.01c-0.01.01-.01,0.03,0,0.03s0.01,0.01.02,0.01a0.113,0.113,0,0,0,.15.1,1.477,1.477,0,0,1,.21.01c0.15,0.04.29,0.09,0.44,0.13a0.211,0.211,0,0,1,.22.2,2.327,2.327,0,0,0,.11.51c0.01,0.05.02,0.11,0.03,0.16s0.02,0.11.03,0.17a0.06,0.06,0,0,1,.04.01,0.412,0.412,0,0,0,.03-0.08,1.2,1.2,0,0,1,0-.19c0.03-.22.06-0.43,0.09-0.65a0.433,0.433,0,0,1,.04-0.11,0.574,0.574,0,0,1,.07-0.04h0.06l0.05-.05c0.03-.01.05-0.02,0.08-0.03,0.11-.03.22-0.06,0.32-0.08l0.24-.03a0.016,0.016,0,1,0-.01-0.03h0a0.573,0.573,0,0,1,.14-0.04v-0.01h0.04a0.021,0.021,0,0,0-.01-0.04h-0.01a0.045,0.045,0,0,0-.03-0.03c-0.07-.01-0.14-0.01-0.2-0.02l-0.39-.06c-0.11-.02-0.22-0.03-0.36-0.05a1.32,1.32,0,0,1-.08-0.22,2.547,2.547,0,0,1-.06-0.73,0.123,0.123,0,0,0-.02-0.1,0.2,0.2,0,0,0-.07-0.09c0,0.03-.01.06-0.01,0.1A1.282,1.282,0,0,1,1653.56,1786.56Zm0.53,1.06a0.209,0.209,0,0,1-.06.04l-0.01.01c-0.01-.01-0.01-0.02-0.02-0.03C1654.03,1787.63,1654.06,1787.63,1654.09,1787.62Zm48.24,3.44c-0.01.03,0.02,0.09,0.01,0.14a4.633,4.633,0,0,1-.09.49,0.1,0.1,0,0,1-.04.09,0.692,0.692,0,0,1-.19.1c-0.11.04-.23,0.07-0.34,0.1s-0.23.04-.34,0.06h-0.08a0.02,0.02,0,0,0-.02-0.01v0.01c-0.01,0-.01,0-0.01.01a0.015,0.015,0,0,0,0,.03h0.01a0.132,0.132,0,0,0,.16.11,0.5,0.5,0,0,1,.21.01c0.14,0.03.29,0.09,0.44,0.12a0.2,0.2,0,0,1,.21.21,3.026,3.026,0,0,0,.12.5c0.01,0.05.01,0.11,0.02,0.16s0.02,0.12.03,0.17a0.09,0.09,0,0,0,.05.01c0.01-.03.02-0.05,0.03-0.08a1.205,1.205,0,0,1,0-.19c0.02-.21.05-0.43,0.09-0.64a0.235,0.235,0,0,1,.04-0.12c0.02-.01.05-0.03,0.07-0.04h0.06l0.05-.05a0.689,0.689,0,0,1,.08-0.03,2.992,2.992,0,0,1,.32-0.08l0.23-.03a0.015,0.015,0,0,0,0-.03h-0.01c0.05-.01.1-0.03,0.14-0.04h0.01l0.04-.01a0.021,0.021,0,0,0-.01-0.04h-0.01a0.085,0.085,0,0,0-.03-0.03c-0.07-.01-0.14-0.01-0.21-0.02-0.12-.02-0.25-0.04-0.38-0.06-0.11-.01-0.22-0.02-0.37-0.04-0.01-.05-0.05-0.14-0.08-0.23a2.912,2.912,0,0,1-.05-0.72,0.359,0.359,0,0,0-.02-0.11,0.572,0.572,0,0,0-.07-0.08c-0.01.03-.01,0.06-0.02,0.09A0.646,0.646,0,0,1,1702.33,1791.06Zm0.53,1.06c-0.02.02-.04,0.03-0.06,0.05h0c-0.01-.01-0.01-0.02-0.02-0.03A0.188,0.188,0,0,0,1702.86,1792.12Zm-31.45-16.26a0.308,0.308,0,0,0,.01.09c-0.02.12-.04,0.24-0.07,0.36a0.071,0.071,0,0,1-.03.06,0.329,0.329,0,0,1-.13.07c-0.08.03-.17,0.05-0.25,0.08-0.08.01-.16,0.03-0.24,0.04h-0.05a0.031,0.031,0,0,0-.02-0.01v0.01h-0.01c-0.01.01-.01,0.02,0,0.02l0.01,0.01a0.082,0.082,0,0,0,.11.07,0.757,0.757,0,0,1,.15.01c0.11,0.03.21,0.07,0.32,0.09a0.147,0.147,0,0,1,.15.15,2.325,2.325,0,0,0,.08.36c0.01,0.03.01,0.07,0.02,0.11a0.5,0.5,0,0,1,.02.12c0.01,0,.02.01,0.03,0.01a0.142,0.142,0,0,0,.02-0.06,0.565,0.565,0,0,0,0-.13c0.02-.16.05-0.31,0.07-0.46a0.3,0.3,0,0,1,.03-0.09,0.106,0.106,0,0,1,.05-0.02,0.03,0.03,0,0,1,.04,0,0.151,0.151,0,0,1,.04-0.04,0.142,0.142,0,0,1,.06-0.02,1.8,1.8,0,0,1,.22-0.06,0.881,0.881,0,0,0,.17-0.02c0.02,0,.02-0.03,0-0.02h-0.01c0.04-.01.07-0.02,0.1-0.03h0.01l0.02-.01c0.02,0,.01-0.03,0-0.02h-0.01a0.034,0.034,0,0,0-.02-0.03c-0.05,0-.1-0.01-0.15-0.01-0.09-.02-0.18-0.03-0.27-0.05s-0.16-.01-0.26-0.03c-0.01-.03-0.04-0.09-0.06-0.16a2.195,2.195,0,0,1-.04-0.51,0.2,0.2,0,0,0-.01-0.08,0.265,0.265,0,0,0-.05-0.06,0.127,0.127,0,0,0-.01.06A0.647,0.647,0,0,1,1671.41,1775.86Zm0.38,0.76c-0.01.01-.03,0.02-0.04,0.03h-0.01c0-.01-0.01-0.01-0.01-0.02C1671.75,1776.63,1671.77,1776.62,1671.79,1776.62Zm-10.86,22.61a0.615,0.615,0,0,0,.01.13c-0.03.17-.06,0.33-0.09,0.49a0.16,0.16,0,0,1-.05.1,0.573,0.573,0,0,1-.19.1c-0.11.03-.22,0.06-0.34,0.1-0.11.02-.22,0.04-0.34,0.06h-0.07c-0.01-.01-0.02-0.01-0.03-0.02v0.01a0.01,0.01,0,0,1-.01.01c-0.01.01-.01,0.03,0,0.03a0.02,0.02,0,0,1,.02.01,0.113,0.113,0,0,0,.15.1,1.477,1.477,0,0,1,.21.01c0.15,0.04.29,0.09,0.44,0.13a0.211,0.211,0,0,1,.22.2,2.327,2.327,0,0,0,.11.51c0.01,0.05.02,0.1,0.03,0.16s0.02,0.11.03,0.17h0.04a0.212,0.212,0,0,0,.03-0.07,1.2,1.2,0,0,1,0-.19c0.03-.22.06-0.43,0.1-0.65a0.35,0.35,0,0,1,.03-0.12,0.488,0.488,0,0,0,.07-0.03h0.06l0.05-.05a0.689,0.689,0,0,0,.08-0.03,2.137,2.137,0,0,1,.32-0.08l0.24-.03a0.016,0.016,0,1,0-.01-0.03h0a0.573,0.573,0,0,1,.14-0.04v-0.01h0.04a0.021,0.021,0,0,0-.01-0.04h-0.01a0.045,0.045,0,0,0-.03-0.03c-0.07-.01-0.13-0.01-0.2-0.02l-0.39-.06c-0.1-.02-0.21-0.03-0.36-0.05a1.32,1.32,0,0,1-.08-0.22,2.232,2.232,0,0,1-.05-0.73,0.261,0.261,0,0,0-.03-0.11,0.251,0.251,0,0,0-.07-0.08c0,0.03-.01.06-0.01,0.09A1.261,1.261,0,0,1,1660.93,1799.23Zm0.53,1.06c-0.02.01-.04,0.03-0.06,0.04l-0.01.01c0-.01-0.01-0.02-0.01-0.03C1661.4,1800.3,1661.43,1800.3,1661.46,1800.29Zm-13.76-.2a0.18,0.18,0,0,0,.01.1c-0.02.12-.05,0.24-0.07,0.37a0.161,0.161,0,0,1-.04.07,0.638,0.638,0,0,1-.14.08c-0.09.02-.17,0.05-0.26,0.07s-0.17.03-.25,0.05a0.127,0.127,0,0,1-.06-0.01,0.02,0.02,0,0,1-.02-0.01v0.01l-0.01.01c-0.01,0-.01.02,0,0.02s0.01,0,.01.01a0.1,0.1,0,0,0,.12.08,0.43,0.43,0,0,1,.16,0c0.11,0.03.22,0.07,0.33,0.1,0.09,0.02.16,0.03,0.16,0.15a2.339,2.339,0,0,0,.09.38c0.01,0.04.01,0.08,0.02,0.13a0.5,0.5,0,0,1,.02.12,0.06,0.06,0,0,0,.04.01c0-.02.02-0.04,0.02-0.06a0.653,0.653,0,0,1,0-.14c0.02-.17.04-0.33,0.07-0.49a0.19,0.19,0,0,1,.03-0.09,0.219,0.219,0,0,1,.05-0.03h0.04a0.138,0.138,0,0,0,.04-0.03l0.06-.03c0.08-.02.16-0.04,0.25-0.06a1.114,1.114,0,0,0,.17-0.02,0.015,0.015,0,1,0,0-.03c0,0.01,0,.01-0.01.01a0.615,0.615,0,0,1,.11-0.03c0-.01,0-0.01.01-0.01h0.02a0.015,0.015,0,0,0,0-.03h-0.01a0.034,0.034,0,0,0-.03-0.02c-0.05-.01-0.1-0.01-0.15-0.02-0.09-.01-0.19-0.03-0.29-0.04-0.08-.02-0.16-0.02-0.27-0.04a0.471,0.471,0,0,1-.06-0.17,1.645,1.645,0,0,1-.04-0.54,0.292,0.292,0,0,0-.02-0.09c-0.01-.02-0.04-0.04-0.05-0.06-0.01.02-.01,0.05-0.02,0.07A0.761,0.761,0,0,1,1647.7,1800.09Zm0.4,0.8c-0.02.01-.03,0.02-0.05,0.03h0a0.038,0.038,0,0,1-.02-0.02C1648.06,1800.9,1648.08,1800.89,1648.1,1800.89Zm38.33-12.75a0.688,0.688,0,0,0,.02.13c-0.03.17-.06,0.33-0.1,0.49a0.116,0.116,0,0,1-.04.1,1.14,1.14,0,0,1-.19.1l-0.34.09c-0.11.03-.23,0.05-0.34,0.07a0.22,0.22,0,0,1-.08-0.01,0.02,0.02,0,0,1-.02-0.01v0.01a0.01,0.01,0,0,0-.01.01c-0.01.01-.02,0.02,0,0.03h0.01a0.126,0.126,0,0,0,.16.11,0.741,0.741,0,0,1,.21.01c0.14,0.04.29,0.09,0.44,0.13,0.11,0.03.21,0.04,0.21,0.2a2.8,2.8,0,0,0,.12.5,0.985,0.985,0,0,1,.02.17c0.01,0.06.03,0.11,0.04,0.17h0.04a0.191,0.191,0,0,0,.03-0.08,1.082,1.082,0,0,1,0-.18c0.02-.22.05-0.43,0.09-0.65a0.278,0.278,0,0,1,.04-0.12c0.02-.01.05-0.02,0.07-0.03h0.06a0.121,0.121,0,0,1,.05-0.05,0.59,0.59,0,0,0,.08-0.04c0.11-.03.21-0.05,0.32-0.07l0.23-.03c0.03,0,.02-0.04,0-0.04h-0.01c0.05-.01.1-0.02,0.14-0.03l0.01-.01,0.04-.01c0.02,0,.01-0.03-0.01-0.03h-0.01a0.045,0.045,0,0,0-.03-0.03c-0.07-.01-0.14-0.01-0.21-0.02-0.12-.02-0.25-0.05-0.38-0.06-0.11-.02-0.22-0.03-0.37-0.05-0.01-.05-0.05-0.13-0.07-0.22a2.547,2.547,0,0,1-.06-0.73,0.516,0.516,0,0,0-.02-0.11c-0.02-.03-0.05-0.05-0.07-0.08a0.292,0.292,0,0,1-.02.09A0.692,0.692,0,0,1,1686.43,1788.14Zm0.53,1.06a0.218,0.218,0,0,0-.05.04c-0.01,0-.01,0-0.01.01-0.01-.01-0.01-0.02-0.02-0.03C1686.91,1789.21,1686.94,1789.21,1686.96,1789.2Zm24.81-3.17a1.548,1.548,0,0,0,.01.21c-0.03.25-.06,0.51-0.09,0.76a0.541,0.541,0,0,1-.04.15,0.771,0.771,0,0,1-.19.14c-0.12.06-.23,0.11-0.35,0.16-0.11.03-.22,0.07-0.34,0.1a0.17,0.17,0,0,0-.07-0.01c-0.01-.01-0.02-0.01-0.03-0.02v0.02a0.01,0.01,0,0,0-.01.01,0.045,0.045,0,0,0,0,.05h0.02c0.01,0.13.06,0.18,0.15,0.17a0.376,0.376,0,0,1,.21.01c0.15,0.06.29,0.14,0.44,0.2a0.267,0.267,0,0,1,.22.31,5.229,5.229,0,0,0,.11.78,1.9,1.9,0,0,1,.03.25c0.01,0.09.02,0.17,0.03,0.26a0.06,0.06,0,0,1,.04.01,0.527,0.527,0,0,0,.03-0.12,2.8,2.8,0,0,1,0-.29c0.03-.34.06-0.67,0.1-1a1.3,1.3,0,0,1,.03-0.18,0.435,0.435,0,0,0,.07-0.06,0.127,0.127,0,0,1,.06.01,0.922,0.922,0,0,0,.05-0.08,0.922,0.922,0,0,1,.08-0.05,2.19,2.19,0,0,1,.33-0.12c0.07-.01.15-0.03,0.23-0.04,0.02-.01.02-0.06-0.01-0.06h0c0.05-.02.09-0.04,0.14-0.06h0.01l0.03-.02c0.02,0,.01-0.05-0.01-0.05h-0.01a0.062,0.062,0,0,0-.03-0.05l-0.2-.03c-0.13-.03-0.26-0.07-0.38-0.1s-0.22-.03-0.37-0.06c-0.02-.08-0.06-0.21-0.08-0.34a5.257,5.257,0,0,1-.05-1.12,0.467,0.467,0,0,0-.03-0.17,0.517,0.517,0,0,0-.06-0.13,0.675,0.675,0,0,0-.02.14A2.837,2.837,0,0,1,1711.77,1786.03Zm0.53,1.64a0.435,0.435,0,0,0-.06.07h-0.01c0-.01-0.01-0.03-0.01-0.04A0.689,0.689,0,0,1,1712.3,1787.67Zm-19.61,12.41c-0.02.07,0.03,0.17,0.02,0.26-0.04.3-.09,0.61-0.14,0.91a0.361,0.361,0,0,1-.07.19,1.14,1.14,0,0,1-.3.18c-0.17.06-.36,0.12-0.53,0.18s-0.36.08-.54,0.12a0.41,0.41,0,0,1-.11-0.01,0.147,0.147,0,0,1-.04-0.02v0.02a0.022,0.022,0,0,0-.02.02,0.028,0.028,0,0,0,0,.05,0.035,0.035,0,0,1,.02.01,0.2,0.2,0,0,0,.24.2,0.906,0.906,0,0,1,.33.02c0.23,0.07.46,0.17,0.69,0.24a0.342,0.342,0,0,1,.34.38,6.473,6.473,0,0,0,.18.94c0.02,0.1.03,0.2,0.04,0.3s0.04,0.22.05,0.32a0.2,0.2,0,0,0,.07.01,0.419,0.419,0,0,0,.04-0.15c0.01-.11-0.01-0.23,0-0.35,0.05-.4.09-0.81,0.15-1.21a1.287,1.287,0,0,1,.06-0.22,1.091,1.091,0,0,0,.11-0.06,0.139,0.139,0,0,1,.09,0c0.03-.03.05-0.07,0.08-0.1s0.09-.04.13-0.06a4.669,4.669,0,0,1,.5-0.14l0.37-.06c0.03,0,.03-0.07-0.01-0.06h-0.01c0.08-.03.15-0.05,0.22-0.08h0.01l0.06-.02c0.03,0,.02-0.06-0.01-0.06h-0.02a0.077,0.077,0,0,0-.05-0.06c-0.1-.02-0.21-0.02-0.32-0.04-0.2-.04-0.4-0.08-0.6-0.11-0.17-.03-0.34-0.05-0.57-0.08-0.03-.1-0.09-0.26-0.13-0.42a5.654,5.654,0,0,1-.08-1.36,0.522,0.522,0,0,0-.04-0.21,1.3,1.3,0,0,0-.1-0.15c-0.01.06-.02,0.11-0.03,0.17A1.753,1.753,0,0,1,1692.69,1800.08Zm0.83,1.99a0.647,0.647,0,0,1-.09.08,0.01,0.01,0,0,1-.01.01,0.142,0.142,0,0,1-.02-0.06Zm-12.08-17.53a0.648,0.648,0,0,0,.02.19c-0.03.23-.07,0.46-0.11,0.69a0.254,0.254,0,0,1-.05.13,0.9,0.9,0,0,1-.22.14c-0.14.05-.27,0.09-0.41,0.14l-0.39.09a0.277,0.277,0,0,0-.09-0.01c-0.01-.01-0.02-0.01-0.03-0.02v0.02c-0.01,0-.01,0-0.01.01a0.021,0.021,0,0,0,0,.04l0.01,0.01a0.154,0.154,0,0,0,.18.15,0.7,0.7,0,0,1,.25.01c0.17,0.05.34,0.13,0.52,0.18a0.256,0.256,0,0,1,.25.28,4.455,4.455,0,0,0,.14.71c0.01,0.07.02,0.15,0.03,0.23s0.02,0.16.03,0.23a0.109,0.109,0,0,0,.05.01c0.01-.03.03-0.07,0.04-0.11a2.253,2.253,0,0,1,0-.26c0.03-.3.06-0.61,0.11-0.91a0.458,0.458,0,0,1,.04-0.16,0.922,0.922,0,0,1,.08-0.05h0.07c0.02-.02.04-0.05,0.06-0.07a0.929,0.929,0,0,1,.1-0.05,2.54,2.54,0,0,1,.37-0.1,2.358,2.358,0,0,1,.28-0.04c0.02-.01.02-0.06-0.01-0.05h0c0.05-.02.1-0.04,0.16-0.06h0.01l0.04-.01a0.029,0.029,0,0,0-.01-0.05h-0.01a0.108,0.108,0,0,0-.04-0.05,1.967,1.967,0,0,1-.24-0.03c-0.15-.02-0.3-0.06-0.45-0.08-0.12-.02-0.25-0.04-0.43-0.06-0.02-.07-0.06-0.19-0.09-0.32a3.79,3.79,0,0,1-.06-1.01,0.453,0.453,0,0,0-.03-0.16,0.763,0.763,0,0,0-.08-0.11c-0.01.04-.01,0.08-0.02,0.13A1.256,1.256,0,0,1,1681.44,1784.54Zm0.62,1.49-0.06.06h-0.01a0.052,0.052,0,0,1-.02-0.04A0.292,0.292,0,0,0,1682.06,1786.03Zm33.73,13.56c-0.02.06,0.03,0.18,0.02,0.26-0.05.32-.1,0.63-0.15,0.95a0.357,0.357,0,0,1-.06.19,0.98,0.98,0,0,1-.27.18c-0.16.07-.33,0.13-0.49,0.19-0.16.04-.32,0.08-0.48,0.11a0.41,0.41,0,0,1-.11-0.01c-0.01-.01-0.02-0.01-0.03-0.02v0.02a0.038,0.038,0,0,0-.02.02c-0.01.01-.02,0.04,0,0.05a0.031,0.031,0,0,0,.02.01,0.187,0.187,0,0,0,.22.21,0.7,0.7,0,0,1,.29.02c0.21,0.08.42,0.19,0.63,0.26a0.347,0.347,0,0,1,.3.4,6.638,6.638,0,0,0,.15.98c0.02,0.1.02,0.21,0.03,0.31s0.03,0.22.04,0.33a0.127,0.127,0,0,0,.06.01,0.88,0.88,0,0,0,.05-0.15c0-.12-0.01-0.24,0-0.36,0.04-.42.09-0.84,0.15-1.25a0.537,0.537,0,0,1,.06-0.23,0.865,0.865,0,0,1,.1-0.07,0.249,0.249,0,0,1,.08.01c0.02-.03.05-0.07,0.07-0.1l0.12-.06a2.444,2.444,0,0,1,.46-0.14l0.32-.06c0.04,0,.03-0.07,0-0.07,0,0.01,0,.01-0.01.01,0.07-.03.14-0.05,0.2-0.08,0.01,0,.01,0,0.01-0.01l0.05-.01a0.039,0.039,0,0,0-.01-0.07h-0.01a0.1,0.1,0,0,0-.05-0.06c-0.09-.02-0.19-0.03-0.28-0.05-0.18-.03-0.36-0.08-0.54-0.12-0.16-.03-0.32-0.05-0.52-0.09a3.739,3.739,0,0,1-.11-0.43,6.664,6.664,0,0,1-.06-1.41,0.833,0.833,0,0,0-.03-0.22,1.29,1.29,0,0,0-.09-0.16l-0.03.18A2.341,2.341,0,0,1,1715.79,1799.59Zm0.73,2.07c-0.03.03-.06,0.05-0.09,0.08a0.01,0.01,0,0,1-.01.01,0.142,0.142,0,0,0-.02-0.06Zm-50.04-23.53a1.832,1.832,0,0,0,.02.21c-0.04.25-.09,0.49-0.14,0.74a0.339,0.339,0,0,1-.06.15,1.108,1.108,0,0,1-.29.14,5.084,5.084,0,0,1-.52.15c-0.17.04-.34,0.07-0.52,0.1a0.448,0.448,0,0,1-.11-0.01,0.076,0.076,0,0,1-.04-0.02v0.02a0.01,0.01,0,0,0-.01.01c-0.02.01-.03,0.04,0,0.05a0.031,0.031,0,0,1,.02.01,0.177,0.177,0,0,0,.23.16,1.133,1.133,0,0,1,.32.01c0.22,0.06.44,0.14,0.67,0.2a0.3,0.3,0,0,1,.32.31,5.105,5.105,0,0,0,.18.75c0.02,0.09.03,0.17,0.04,0.25a2.381,2.381,0,0,0,.05.26c0.02,0,.04.01,0.06,0.01a0.284,0.284,0,0,0,.04-0.12c0.01-.1-0.01-0.19,0-0.29,0.05-.32.09-0.65,0.15-0.97a0.311,0.311,0,0,1,.06-0.18c0.03-.02.07-0.04,0.1-0.06a0.308,0.308,0,0,1,.09.01c0.03-.03.05-0.06,0.07-0.08a0.694,0.694,0,0,1,.13-0.05,3.894,3.894,0,0,1,.49-0.12c0.11-.01.23-0.03,0.35-0.04a0.031,0.031,0,0,0-.01-0.06,0.01,0.01,0,0,1-.01.01c0.08-.02.15-0.04,0.22-0.06,0-.01,0-0.01.01-0.01l0.05-.01a0.026,0.026,0,0,0-.01-0.05h-0.02a0.07,0.07,0,0,0-.04-0.05c-0.11-.02-0.21-0.02-0.31-0.03-0.19-.03-0.39-0.07-0.58-0.1-0.17-.02-0.33-0.03-0.56-0.06-0.03-.08-0.08-0.21-0.12-0.34a3.692,3.692,0,0,1-.08-1.1,0.508,0.508,0,0,0-.03-0.17,1.2,1.2,0,0,0-.11-0.12,0.675,0.675,0,0,0-.02.14A1.15,1.15,0,0,1,1666.48,1778.13Zm0.8,1.61c-0.03.02-.05,0.05-0.08,0.07h-0.02a0.076,0.076,0,0,0-.02-0.04Zm29.07-2.13a1.623,1.623,0,0,0,.01.21c-0.03.26-.07,0.52-0.11,0.77a0.207,0.207,0,0,1-.05.15,0.691,0.691,0,0,1-.22.16c-0.14.05-.27,0.1-0.41,0.15s-0.26.07-.4,0.1h-0.09a0.053,0.053,0,0,0-.03-0.02v0.01c0,0.01-.01.01-0.01,0.02s-0.02.03,0,.04a0.02,0.02,0,0,0,.02.01,0.148,0.148,0,0,0,.18.17,0.7,0.7,0,0,1,.25.01c0.17,0.06.34,0.15,0.52,0.21a0.273,0.273,0,0,1,.26.31,5.207,5.207,0,0,0,.13.79,2.3,2.3,0,0,1,.03.26c0.01,0.09.03,0.18,0.04,0.27h0.05a0.527,0.527,0,0,0,.03-0.12c0.01-.1-0.01-0.2,0-0.3,0.04-.33.07-0.67,0.12-1.01a0.476,0.476,0,0,1,.04-0.18l0.09-.06h0.06a0.555,0.555,0,0,0,.06-0.08c0.03-.02.07-0.03,0.1-0.05a2.779,2.779,0,0,1,.38-0.12c0.09-.01.18-0.03,0.28-0.05,0.02,0,.02-0.05-0.01-0.05h-0.01c0.06-.02.12-0.04,0.17-0.06l0.01-.01,0.04-.01c0.02-.01.02-0.06-0.01-0.05h-0.01a0.127,0.127,0,0,0-.04-0.06,1.967,1.967,0,0,1-.24-0.03l-0.45-.09c-0.13-.03-0.26-0.04-0.44-0.07-0.02-.08-0.06-0.21-0.09-0.35a4.85,4.85,0,0,1-.06-1.14,0.467,0.467,0,0,0-.03-0.17,0.567,0.567,0,0,0-.08-0.13,0.675,0.675,0,0,0-.02.14A2.12,2.12,0,0,1,1696.35,1777.61Zm0.63,1.67a0.234,0.234,0,0,0-.07.07h-0.01c-0.01-.01-0.01-0.03-0.02-0.04C1696.91,1779.3,1696.94,1779.29,1696.98,1779.28Zm-13.15-7.31c-0.01.02,0.02,0.07,0.01,0.1-0.02.13-.05,0.26-0.08,0.38a0.1,0.1,0,0,1-.03.08,0.413,0.413,0,0,1-.15.07c-0.09.03-.18,0.05-0.27,0.08-0.08.01-.17,0.03-0.26,0.04h-0.06c-0.01,0-.01-0.01-0.02-0.01v0.01h-0.01a0.019,0.019,0,0,0,0,.03h0.01a0.091,0.091,0,0,0,.12.08,0.97,0.97,0,0,1,.17.01c0.11,0.03.22,0.08,0.34,0.11a0.147,0.147,0,0,1,.16.16,2.744,2.744,0,0,0,.09.39c0.01,0.04.01,0.09,0.02,0.13a0.585,0.585,0,0,0,.02.13,0.037,0.037,0,0,1,.03.01,0.149,0.149,0,0,0,.03-0.07,0.653,0.653,0,0,1,0-.14c0.02-.17.05-0.34,0.08-0.5a0.219,0.219,0,0,1,.03-0.09,0.219,0.219,0,0,0,.05-0.03h0.05l0.04-.04a0.142,0.142,0,0,1,.06-0.02,1.288,1.288,0,0,1,.25-0.06c0.06-.01.12-0.01,0.19-0.02,0.01,0,.01-0.03-0.01-0.03h0l0.11-.03h0l0.03-.01c0.02,0,.01-0.02,0-0.02h-0.01a0.085,0.085,0,0,0-.03-0.03c-0.05-.01-0.1-0.01-0.15-0.02-0.1-.01-0.2-0.03-0.3-0.05s-0.17-.02-0.29-0.03c-0.01-.04-0.04-0.11-0.06-0.18a2.184,2.184,0,0,1-.03-0.57,0.309,0.309,0,0,0-.02-0.08c-0.01-.02-0.03-0.04-0.05-0.07,0,0.03-.01.05-0.01,0.08A0.8,0.8,0,0,1,1683.83,1771.97Zm0.41,0.83c-0.02.01-.03,0.02-0.05,0.03a0.01,0.01,0,0,1-.01.01,0.037,0.037,0,0,0-.01-0.03A0.2,0.2,0,0,0,1684.24,1772.8Z" transform="translate(-1599 -1757.91)"/>
</svg>
