<?xml version="1.0" encoding="utf-8"?>
<!-- Generator: Adobe Illustrator 24.0.1, SVG Export Plug-In . SVG Version: 6.00 Build 0)  -->
<svg version="1.1" id="Слой_1" xmlns="http://www.w3.org/2000/svg" xmlns:xlink="http://www.w3.org/1999/xlink" x="0px" y="0px"
	 viewBox="0 0 505.76 271.63" style="enable-background:new 0 0 505.76 271.63;" xml:space="preserve">
<style type="text/css">
	.st0{fill:#E1E1E1;stroke:#201600;stroke-width:0.4163;stroke-miterlimit:10;}
	.st1{fill:none;stroke:#201600;stroke-width:0.2966;stroke-miterlimit:10;}
	.st2{fill:#FFFFFF;stroke:#201600;stroke-width:0.2966;stroke-miterlimit:10;}
	.st3{fill:none;stroke:#201600;stroke-width:0.1483;stroke-miterlimit:10;}
	.st4{fill:#FFFFFF;stroke:#201600;stroke-width:0.1483;stroke-miterlimit:10;}
</style>
<g>
	<polygon class="st0" points="0.21,214.58 0.21,271.42 505.55,271.42 505.55,200.81 497.52,200.81 497.52,184.94 500.05,184.94 
		500.05,169.68 497.49,169.68 497.52,153.8 500.03,153.8 500.03,138.54 497.49,138.54 497.52,122.67 500.05,122.67 500.05,107.41 
		497.52,107.41 497.49,91.53 500.03,91.53 500.03,76.27 497.49,76.27 497.52,60.39 500.05,60.39 500.05,45.13 497.52,45.13 
		497.52,29.26 505.55,29.26 505.55,11.99 411.22,11.99 411.24,0.21 377.49,0.21 377.49,16.46 355.93,16.46 355.93,19.84 
		334.13,19.91 334.18,11.84 256.47,11.84 256.47,71.63 215.2,71.63 215.2,75.29 167.03,75.29 167.03,37.08 128.32,37.08 
		128.32,43.18 103.13,43.18 103.13,48.87 82.26,48.87 82.26,73.69 39.54,73.69 39.54,106.05 0.21,106.05 0.21,115.45 6.75,115.45 
		6.75,131.07 0.21,131.07 0.21,143.28 6.75,143.28 6.75,158.69 0.21,158.69 0.21,171.04 6.75,171.04 6.75,186.74 0.21,186.74 
		0.21,198.95 6.75,198.95 6.75,214.58 	"/>
	<g>
		<polyline class="st1" points="334.18,257.81 334.18,11.84 256.47,11.84 256.47,221.75 		"/>
		<polyline class="st1" points="355.96,258.19 355.96,19.91 334.13,19.91 334.13,271.42 		"/>
		<polyline class="st1" points="355.93,271.42 355.93,16.43 377.51,16.43 377.51,258.75 		"/>
		<line class="st1" x1="406.93" y1="258.71" x2="82.26" y2="258.71"/>
		<polyline class="st1" points="377.49,271.42 377.49,16.43 377.49,0.21 411.24,0.21 411.22,11.99 505.55,11.99 505.55,24.83 
			505.55,29.26 497.52,29.26 		"/>
		<path class="st1" d="M411.24,258.75"/>
		<polyline class="st1" points="406.93,258.59 406.93,215.15 505.55,215.15 		"/>
		<line class="st1" x1="471.32" y1="11.84" x2="471.32" y2="215.15"/>
		<polyline class="st1" points="256.4,71.63 215.2,71.63 215.2,221.68 		"/>
		<line class="st2" x1="215.23" y1="258.71" x2="215.23" y2="229.5"/>
		<polyline class="st1" points="215.2,75.29 167.03,75.35 167.03,271.35 		"/>
		<polyline class="st1" points="167.03,75.35 167.03,37.08 128.32,37.08 128.32,270.85 		"/>
		<polyline class="st1" points="128.4,43.18 103.13,43.18 103.13,271.42 		"/>
		<polyline class="st1" points="82.26,105.99 29.85,105.99 29.85,226.79 		"/>
		<g>
			<rect x="258.21" y="21.35" class="st2" width="73.95" height="21.54"/>
			<line class="st2" x1="294.84" y1="21.2" x2="294.84" y2="42.89"/>
			<line class="st2" x1="286.72" y1="21.23" x2="286.72" y2="42.96"/>
			<line class="st2" x1="302.95" y1="21.35" x2="302.95" y2="42.96"/>
			<line class="st2" x1="271.76" y1="21.3" x2="271.76" y2="42.89"/>
			<line class="st2" x1="319.18" y1="21.3" x2="319.18" y2="42.79"/>
			<line class="st2" x1="279.24" y1="21.2" x2="279.24" y2="42.89"/>
			<line class="st2" x1="311.07" y1="21.35" x2="311.07" y2="42.82"/>
			<line class="st2" x1="264.84" y1="21.2" x2="264.84" y2="42.89"/>
			<line class="st2" x1="325.93" y1="21.2" x2="325.93" y2="42.89"/>
			<line class="st2" x1="258.21" y1="28.07" x2="332.16" y2="28.07"/>
		</g>
		<g>
			<rect x="258.14" y="51.25" class="st2" width="73.95" height="21.54"/>
			<line class="st3" x1="294.77" y1="51.1" x2="294.77" y2="72.79"/>
			<line class="st1" x1="286.65" y1="51.13" x2="286.65" y2="72.86"/>
			<line class="st1" x1="302.88" y1="51.24" x2="302.88" y2="72.86"/>
			<line class="st1" x1="271.69" y1="51.2" x2="271.69" y2="72.79"/>
			<line class="st1" x1="319.11" y1="51.2" x2="319.11" y2="72.69"/>
			<line class="st3" x1="279.17" y1="51.1" x2="279.17" y2="72.79"/>
			<line class="st3" x1="310.99" y1="51.25" x2="310.99" y2="72.72"/>
			<line class="st3" x1="264.77" y1="51.1" x2="264.77" y2="72.79"/>
			<line class="st3" x1="325.86" y1="51.1" x2="325.86" y2="72.79"/>
			<line class="st1" x1="258.14" y1="57.97" x2="332.08" y2="57.97"/>
		</g>
		<g>
			<rect x="258.07" y="81.03" class="st2" width="73.95" height="21.54"/>
			<line class="st4" x1="294.7" y1="80.88" x2="294.7" y2="102.57"/>
			<line class="st2" x1="286.58" y1="80.91" x2="286.58" y2="102.65"/>
			<line class="st2" x1="302.81" y1="81.03" x2="302.81" y2="102.64"/>
			<line class="st2" x1="271.63" y1="80.98" x2="271.63" y2="102.57"/>
			<line class="st2" x1="319.04" y1="80.98" x2="319.04" y2="102.48"/>
			<line class="st4" x1="279.11" y1="80.88" x2="279.11" y2="102.57"/>
			<line class="st4" x1="310.93" y1="81.03" x2="310.93" y2="102.5"/>
			<line class="st4" x1="264.7" y1="80.88" x2="264.7" y2="102.57"/>
			<line class="st4" x1="325.8" y1="80.88" x2="325.8" y2="102.57"/>
			<line class="st2" x1="258.07" y1="87.76" x2="332.02" y2="87.76"/>
		</g>
		<g>
			<rect x="258.07" y="110.79" class="st2" width="73.95" height="21.54"/>
			<line class="st3" x1="294.7" y1="110.64" x2="294.7" y2="132.33"/>
			<line class="st1" x1="286.58" y1="110.67" x2="286.58" y2="132.4"/>
			<line class="st1" x1="302.81" y1="110.79" x2="302.81" y2="132.4"/>
			<line class="st1" x1="271.63" y1="110.74" x2="271.63" y2="132.33"/>
			<line class="st1" x1="319.04" y1="110.74" x2="319.04" y2="132.23"/>
			<line class="st3" x1="279.11" y1="110.64" x2="279.11" y2="132.33"/>
			<line class="st3" x1="310.93" y1="110.79" x2="310.93" y2="132.26"/>
			<line class="st3" x1="264.7" y1="110.64" x2="264.7" y2="132.33"/>
			<line class="st3" x1="325.8" y1="110.64" x2="325.8" y2="132.33"/>
			<line class="st1" x1="258.07" y1="117.51" x2="332.02" y2="117.51"/>
		</g>
		<g>
			<rect x="258.14" y="140.67" class="st2" width="73.95" height="21.54"/>
			<line class="st2" x1="294.77" y1="140.52" x2="294.77" y2="162.21"/>
			<line class="st2" x1="286.65" y1="140.55" x2="286.65" y2="162.28"/>
			<line class="st2" x1="302.88" y1="140.67" x2="302.88" y2="162.28"/>
			<line class="st2" x1="271.69" y1="140.62" x2="271.69" y2="162.21"/>
			<line class="st2" x1="319.11" y1="140.62" x2="319.11" y2="162.11"/>
			<line class="st2" x1="279.17" y1="140.52" x2="279.17" y2="162.21"/>
			<line class="st2" x1="310.99" y1="140.67" x2="310.99" y2="162.14"/>
			<line class="st2" x1="264.77" y1="140.52" x2="264.77" y2="162.21"/>
			<line class="st2" x1="325.86" y1="140.52" x2="325.86" y2="162.21"/>
			<line class="st2" x1="258.14" y1="147.39" x2="332.08" y2="147.39"/>
		</g>
		<g>
			<rect x="258.07" y="170.45" class="st2" width="73.95" height="21.54"/>
			<line class="st2" x1="294.7" y1="170.31" x2="294.7" y2="191.99"/>
			<line class="st2" x1="286.58" y1="170.34" x2="286.58" y2="192.07"/>
			<line class="st2" x1="302.81" y1="170.45" x2="302.81" y2="192.07"/>
			<line class="st2" x1="271.63" y1="170.41" x2="271.63" y2="191.99"/>
			<line class="st2" x1="319.04" y1="170.41" x2="319.04" y2="191.9"/>
			<line class="st2" x1="279.11" y1="170.31" x2="279.11" y2="191.99"/>
			<line class="st2" x1="310.93" y1="170.45" x2="310.93" y2="191.93"/>
			<line class="st2" x1="264.7" y1="170.31" x2="264.7" y2="191.99"/>
			<line class="st2" x1="325.8" y1="170.31" x2="325.8" y2="191.99"/>
			<line class="st2" x1="258.07" y1="177.18" x2="332.02" y2="177.18"/>
		</g>
		<g>
			<rect x="258.07" y="200.21" class="st2" width="73.95" height="21.54"/>
			<line class="st2" x1="294.7" y1="200.06" x2="294.7" y2="221.75"/>
			<line class="st2" x1="286.58" y1="200.09" x2="286.58" y2="221.83"/>
			<line class="st2" x1="302.81" y1="200.21" x2="302.81" y2="221.82"/>
			<line class="st2" x1="271.63" y1="200.16" x2="271.63" y2="221.75"/>
			<line class="st2" x1="319.04" y1="200.16" x2="319.04" y2="221.65"/>
			<line class="st2" x1="279.11" y1="200.06" x2="279.11" y2="221.75"/>
			<line class="st2" x1="310.93" y1="200.21" x2="310.93" y2="221.68"/>
			<line class="st2" x1="264.7" y1="200.06" x2="264.7" y2="221.75"/>
			<line class="st2" x1="325.8" y1="200.06" x2="325.8" y2="221.75"/>
			<line class="st2" x1="258.07" y1="206.94" x2="332.02" y2="206.94"/>
		</g>
		<line class="st3" x1="215.28" y1="83.97" x2="215.28" y2="105.66"/>
		<g>
			<rect x="215.2" y="84.12" class="st2" width="37.39" height="21.54"/>
			<line class="st2" x1="223.39" y1="84.12" x2="223.39" y2="105.73"/>
			<line class="st2" x1="239.62" y1="84.07" x2="239.62" y2="105.56"/>
			<line class="st2" x1="231.5" y1="84.12" x2="231.5" y2="105.59"/>
			<line class="st2" x1="246.37" y1="83.97" x2="246.37" y2="105.66"/>
			<line class="st2" x1="215.2" y1="90.85" x2="252.6" y2="90.85"/>
		</g>
		<g>
			<rect x="215.2" y="115.45" class="st2" width="37.39" height="21.54"/>
			<line class="st2" x1="223.39" y1="115.45" x2="223.39" y2="137.06"/>
			<line class="st2" x1="239.62" y1="115.4" x2="239.62" y2="136.89"/>
			<line class="st2" x1="231.5" y1="115.45" x2="231.5" y2="136.92"/>
			<line class="st2" x1="246.37" y1="115.3" x2="246.37" y2="136.99"/>
			<line class="st2" x1="215.2" y1="122.17" x2="252.6" y2="122.17"/>
		</g>
		<g>
			<rect x="215.2" y="146.77" class="st2" width="37.39" height="21.54"/>
			<line class="st2" x1="223.39" y1="146.77" x2="223.39" y2="168.38"/>
			<line class="st2" x1="239.62" y1="146.72" x2="239.62" y2="168.22"/>
			<line class="st2" x1="231.5" y1="146.77" x2="231.5" y2="168.24"/>
			<line class="st2" x1="246.37" y1="146.62" x2="246.37" y2="168.31"/>
			<line class="st2" x1="215.2" y1="153.5" x2="252.6" y2="153.5"/>
		</g>
		<g>
			<rect x="215.2" y="178.1" class="st2" width="37.39" height="21.54"/>
			<line class="st1" x1="223.39" y1="178.1" x2="223.39" y2="199.71"/>
			<line class="st1" x1="239.62" y1="178.05" x2="239.62" y2="199.54"/>
			<line class="st3" x1="231.5" y1="178.1" x2="231.5" y2="199.57"/>
			<line class="st3" x1="246.37" y1="177.95" x2="246.37" y2="199.64"/>
			<line class="st1" x1="215.2" y1="184.82" x2="252.6" y2="184.82"/>
		</g>
		<polyline class="st2" points="225.21,221.68 225.21,208.5 242.58,208.5 242.58,221.68 		"/>
		<line class="st1" x1="225.21" y1="213.39" x2="242.58" y2="213.39"/>
		<line class="st1" x1="233.9" y1="208.5" x2="233.9" y2="213.39"/>
		<line class="st1" x1="229.89" y1="213.39" x2="229.89" y2="221.68"/>
		<line class="st1" x1="237.5" y1="213.39" x2="237.5" y2="221.68"/>
		<line class="st1" x1="215.2" y1="204.99" x2="256.4" y2="204.99"/>
		<g>
			<rect x="266.4" y="234.31" class="st2" width="20.46" height="20.46"/>
			<line class="st2" x1="266.34" y1="240.07" x2="286.86" y2="240.07"/>
			<line class="st2" x1="276.6" y1="234.31" x2="276.6" y2="240.07"/>
			<line class="st2" x1="272.22" y1="240.07" x2="272.22" y2="254.77"/>
			<line class="st2" x1="280.74" y1="240.07" x2="280.74" y2="254.77"/>
		</g>
		<g>
			<rect x="301.12" y="234.31" class="st2" width="20.46" height="20.46"/>
			<line class="st2" x1="301.05" y1="240.07" x2="321.57" y2="240.07"/>
			<line class="st2" x1="311.31" y1="234.31" x2="311.31" y2="240.07"/>
			<line class="st2" x1="306.94" y1="240.07" x2="306.94" y2="254.77"/>
			<line class="st2" x1="315.45" y1="240.07" x2="315.45" y2="254.77"/>
		</g>
		<line class="st2" x1="231.5" y1="229.5" x2="231.5" y2="258.71"/>
		<line class="st2" x1="218.08" y1="229.5" x2="218.08" y2="258.71"/>
		<line class="st2" x1="215.23" y1="237.19" x2="256.47" y2="237.19"/>
		<line class="st2" x1="225.21" y1="237.19" x2="225.21" y2="258.5"/>
		<line class="st2" x1="237.5" y1="237.19" x2="237.5" y2="258.86"/>
		<line class="st2" x1="229.89" y1="246.36" x2="229.89" y2="250.18"/>
		<line class="st2" x1="232.98" y1="246.36" x2="232.98" y2="250.18"/>
		<line class="st2" x1="235.85" y1="258.71" x2="253.69" y2="271.42"/>
		<line class="st2" x1="192.51" y1="271.42" x2="211.14" y2="258.71"/>
		<polyline class="st1" points="259.06,271.42 301.05,265.07 325.86,265.07 325.86,271.42 		"/>
		<polyline class="st1" points="325.86,265.07 248.83,258.71 248.83,229.5 		"/>
		<line class="st1" x1="208.23" y1="260.69" x2="238.63" y2="260.69"/>
		<line class="st1" x1="204.89" y1="262.97" x2="241.83" y2="262.97"/>
		<line class="st1" x1="201.82" y1="265.07" x2="244.77" y2="265.07"/>
		<line class="st1" x1="198.73" y1="267.18" x2="247.73" y2="267.18"/>
		<line class="st1" x1="195.68" y1="269.26" x2="250.65" y2="269.26"/>
		<rect x="355.89" y="37.98" class="st2" width="17.08" height="212.2"/>
		<rect x="389.25" y="12" class="st2" width="10.22" height="218.84"/>
		<polyline class="st1" points="411.22,11.99 406.93,11.99 406.93,271.42 		"/>
		<line class="st1" x1="364.43" y1="37.98" x2="364.43" y2="250.18"/>
		<line class="st1" x1="355.89" y1="40.51" x2="372.97" y2="40.51"/>
		<line class="st1" x1="356.08" y1="49.84" x2="372.97" y2="49.84"/>
		<line class="st1" x1="355.89" y1="57.97" x2="372.97" y2="57.97"/>
		<line class="st1" x1="355.89" y1="63.16" x2="372.97" y2="63.16"/>
		<line class="st1" x1="355.89" y1="65.46" x2="372.97" y2="65.46"/>
		<rect x="355.89" y="40.51" class="st1" width="17.08" height="9.33"/>
		<rect x="355.89" y="49.84" class="st1" width="17.08" height="8.13"/>
		<rect x="355.89" y="57.97" class="st1" width="17.08" height="5.19"/>
		<rect x="355.89" y="63.16" class="st1" width="17.08" height="2.3"/>
		<rect x="355.89" y="65.46" class="st1" width="17.08" height="9.33"/>
		<rect x="355.89" y="74.79" class="st1" width="17.08" height="8.13"/>
		<rect x="355.89" y="88.11" class="st1" width="17.08" height="2.3"/>
		<rect x="355.89" y="90.41" class="st1" width="17.08" height="9.33"/>
		<rect x="355.89" y="99.74" class="st1" width="17.08" height="8.13"/>
		<rect x="355.89" y="113.06" class="st1" width="17.08" height="2.3"/>
		<rect x="355.89" y="115.35" class="st1" width="17.08" height="9.33"/>
		<rect x="355.89" y="124.69" class="st1" width="17.08" height="8.13"/>
		<rect x="355.89" y="138" class="st1" width="17.08" height="2.3"/>
		<rect x="355.89" y="140.3" class="st1" width="17.08" height="9.33"/>
		<rect x="355.89" y="149.64" class="st1" width="17.08" height="8.13"/>
		<rect x="355.89" y="162.95" class="st1" width="17.08" height="2.3"/>
		<rect x="355.89" y="165.25" class="st1" width="17.08" height="9.33"/>
		<rect x="355.89" y="174.59" class="st1" width="17.08" height="8.13"/>
		<rect x="355.89" y="187.9" class="st1" width="17.08" height="2.3"/>
		<rect x="355.89" y="190.2" class="st1" width="17.08" height="9.33"/>
		<rect x="355.89" y="199.53" class="st1" width="17.08" height="8.13"/>
		<rect x="355.89" y="212.85" class="st1" width="17.08" height="2.3"/>
		<rect x="355.89" y="215.15" class="st1" width="17.08" height="9.33"/>
		<rect x="355.89" y="224.48" class="st1" width="17.08" height="8.13"/>
		<rect x="355.89" y="237.8" class="st1" width="17.08" height="2.3"/>
		<line class="st1" x1="355.89" y1="247.29" x2="372.97" y2="247.29"/>
		<g>
			<rect x="343.02" y="42.79" class="st2" width="10.89" height="206.37"/>
			<rect x="343.02" y="42.79" class="st1" width="10.89" height="2.3"/>
			<rect x="343.02" y="45.18" class="st1" width="10.86" height="9.33"/>
			<rect x="343.02" y="54.51" class="st1" width="10.86" height="8.13"/>
			<rect x="343.02" y="62.64" class="st1" width="10.86" height="5.19"/>
			<rect x="343.02" y="67.83" class="st1" width="10.89" height="2.3"/>
			<rect x="343.02" y="70.12" class="st1" width="10.86" height="9.33"/>
			<rect x="343.02" y="79.46" class="st1" width="10.86" height="8.13"/>
			<rect x="343.02" y="87.59" class="st1" width="10.86" height="5.19"/>
			<rect x="343.02" y="92.77" class="st1" width="10.89" height="2.3"/>
			<rect x="343.02" y="95.07" class="st1" width="10.86" height="9.33"/>
			<rect x="343.02" y="104.41" class="st1" width="10.86" height="8.13"/>
			<rect x="343.02" y="112.54" class="st1" width="10.86" height="5.19"/>
			<rect x="343.02" y="117.72" class="st1" width="10.89" height="2.3"/>
			<rect x="343" y="120.02" class="st1" width="10.86" height="9.33"/>
			<rect x="343" y="129.36" class="st1" width="10.86" height="8.13"/>
			<rect x="343" y="137.49" class="st1" width="10.86" height="5.19"/>
			<rect x="343" y="142.67" class="st1" width="10.89" height="2.3"/>
			<rect x="343.02" y="144.97" class="st1" width="10.86" height="9.33"/>
			<rect x="343.02" y="154.3" class="st1" width="10.86" height="8.13"/>
			<rect x="343.02" y="162.43" class="st1" width="10.86" height="5.19"/>
			<rect x="343.02" y="167.62" class="st1" width="10.89" height="2.3"/>
			<rect x="343.02" y="169.92" class="st1" width="10.86" height="9.33"/>
			<rect x="343.02" y="179.25" class="st1" width="10.86" height="8.13"/>
			<rect x="343.02" y="187.38" class="st1" width="10.86" height="5.19"/>
			<rect x="343.02" y="192.57" class="st1" width="10.89" height="2.3"/>
			<rect x="343.02" y="194.87" class="st1" width="10.86" height="9.33"/>
			<rect x="343.02" y="204.2" class="st1" width="10.86" height="8.13"/>
			<rect x="343.02" y="212.33" class="st1" width="10.86" height="5.19"/>
			<rect x="343.02" y="217.52" class="st1" width="10.89" height="2.3"/>
			<rect x="343.02" y="219.82" class="st1" width="10.86" height="9.33"/>
			<rect x="343.02" y="229.15" class="st1" width="10.86" height="8.13"/>
			<rect x="343.02" y="237.28" class="st1" width="10.86" height="5.19"/>
			<rect x="343.02" y="242.47" class="st1" width="10.89" height="2.3"/>
		</g>
		<rect x="389.25" y="12" class="st1" width="10.22" height="4.43"/>
		<rect x="389.25" y="16.43" class="st1" width="10.22" height="8.4"/>
		<rect x="389.25" y="24.83" class="st1" width="10.22" height="4.43"/>
		<rect x="389.25" y="29.26" class="st1" width="10.22" height="8.4"/>
		<rect x="389.25" y="37.66" class="st1" width="10.22" height="8.4"/>
		<rect x="389.25" y="46.06" class="st1" width="10.22" height="4.43"/>
		<rect x="389.25" y="50.49" class="st1" width="10.22" height="8.4"/>
		<rect x="389.25" y="58.89" class="st1" width="10.22" height="4.43"/>
		<rect x="389.25" y="63.32" class="st1" width="10.22" height="8.4"/>
		<rect x="389.25" y="71.72" class="st1" width="10.22" height="8.4"/>
		<rect x="389.25" y="80.12" class="st1" width="10.22" height="4.43"/>
		<rect x="389.25" y="84.55" class="st1" width="10.22" height="8.4"/>
		<rect x="389.25" y="92.95" class="st1" width="10.22" height="4.43"/>
		<rect x="389.25" y="97.38" class="st1" width="10.22" height="8.4"/>
		<rect x="389.25" y="105.78" class="st1" width="10.22" height="8.4"/>
		<rect x="389.25" y="114.17" class="st1" width="10.22" height="4.43"/>
		<rect x="389.25" y="118.61" class="st1" width="10.22" height="8.4"/>
		<rect x="389.25" y="127.01" class="st1" width="10.22" height="4.43"/>
		<rect x="389.25" y="131.44" class="st1" width="10.22" height="8.4"/>
		<rect x="389.25" y="139.84" class="st1" width="10.22" height="8.4"/>
		<rect x="389.25" y="148.23" class="st1" width="10.22" height="4.43"/>
		<rect x="389.25" y="152.67" class="st1" width="10.22" height="8.4"/>
		<rect x="389.25" y="161.07" class="st1" width="10.22" height="4.43"/>
		<rect x="389.25" y="165.5" class="st1" width="10.22" height="8.4"/>
		<rect x="389.25" y="173.9" class="st1" width="10.22" height="4.43"/>
		<rect x="389.25" y="178.33" class="st1" width="10.22" height="8.4"/>
		<rect x="389.25" y="186.73" class="st1" width="10.22" height="8.4"/>
		<rect x="389.25" y="195.13" class="st1" width="10.22" height="4.43"/>
		<rect x="389.25" y="199.56" class="st1" width="10.22" height="8.4"/>
		<rect x="389.25" y="207.96" class="st1" width="10.22" height="4.43"/>
		<rect x="389.25" y="212.39" class="st1" width="10.22" height="8.4"/>
		<rect x="389.25" y="220.79" class="st1" width="10.22" height="8.4"/>
		<line class="st1" x1="406.93" y1="48.03" x2="471.32" y2="48.03"/>
		<line class="st1" x1="256.47" y1="229.5" x2="256.47" y2="258.86"/>
		<g>
			<rect x="431.47" y="26.29" class="st2" width="15.3" height="20.26"/>
			<line class="st1" x1="439.12" y1="26.29" x2="439.12" y2="46.79"/>
			<line class="st1" x1="431.47" y1="30.56" x2="446.77" y2="30.56"/>
			<line class="st1" x1="435.45" y1="30.56" x2="435.45" y2="46.55"/>
			<line class="st1" x1="443.07" y1="30.56" x2="443.07" y2="46.55"/>
		</g>
		<g>
			<rect x="431.47" y="59.87" class="st2" width="15.3" height="20.26"/>
			<line class="st2" x1="439.12" y1="59.87" x2="439.12" y2="80.37"/>
			<line class="st2" x1="431.47" y1="64.15" x2="446.77" y2="64.15"/>
			<line class="st2" x1="435.45" y1="64.15" x2="435.45" y2="80.14"/>
			<line class="st2" x1="443.07" y1="64.15" x2="443.07" y2="80.14"/>
		</g>
		<g>
			<rect x="431.47" y="91.98" class="st2" width="15.3" height="20.26"/>
			<line class="st2" x1="439.12" y1="91.98" x2="439.12" y2="112.48"/>
			<line class="st2" x1="431.47" y1="96.25" x2="446.77" y2="96.25"/>
			<line class="st2" x1="435.45" y1="96.25" x2="435.45" y2="112.24"/>
			<line class="st2" x1="443.07" y1="96.25" x2="443.07" y2="112.24"/>
		</g>
		<g>
			<rect x="431.47" y="124.08" class="st2" width="15.3" height="20.26"/>
			<line class="st2" x1="439.12" y1="124.08" x2="439.12" y2="144.58"/>
			<line class="st2" x1="431.47" y1="128.35" x2="446.77" y2="128.35"/>
			<line class="st2" x1="435.45" y1="128.35" x2="435.45" y2="144.34"/>
			<line class="st2" x1="443.07" y1="128.35" x2="443.07" y2="144.34"/>
		</g>
		<g>
			<rect x="431.47" y="156.18" class="st2" width="15.3" height="20.26"/>
			<line class="st2" x1="439.12" y1="156.18" x2="439.12" y2="176.68"/>
			<line class="st2" x1="431.47" y1="160.45" x2="446.77" y2="160.45"/>
			<line class="st2" x1="435.45" y1="160.45" x2="435.45" y2="176.44"/>
			<line class="st2" x1="443.07" y1="160.45" x2="443.07" y2="176.44"/>
		</g>
		<g>
			<rect x="431.47" y="188.28" class="st2" width="15.3" height="15.1"/>
			<line class="st2" x1="439.12" y1="188.28" x2="439.12" y2="203.38"/>
			<line class="st2" x1="431.47" y1="192.42" x2="446.77" y2="192.42"/>
			<line class="st2" x1="435.45" y1="192.42" x2="435.45" y2="203.38"/>
			<line class="st2" x1="443.07" y1="192.42" x2="443.07" y2="203.38"/>
		</g>
		<line class="st1" x1="406.93" y1="216.59" x2="505.55" y2="216.59"/>
		<line class="st1" x1="406.93" y1="252.53" x2="505.55" y2="252.53"/>
		<rect x="438.29" y="224.48" class="st2" width="35.89" height="19.13"/>
		<line class="st1" x1="449.03" y1="224.48" x2="449.03" y2="243.61"/>
		<line class="st1" x1="462.97" y1="224.48" x2="462.97" y2="243.61"/>
		<polyline class="st1" points="497.52,45.13 500.05,45.13 500.05,60.39 497.52,60.39 		"/>
		<polyline class="st1" points="497.49,76.27 500.03,76.27 500.03,91.53 497.49,91.53 		"/>
		<polyline class="st1" points="497.52,107.41 500.05,107.41 500.05,122.67 497.52,122.67 		"/>
		<polyline class="st1" points="497.49,138.54 500.03,138.54 500.03,153.8 497.49,153.8 		"/>
		<polyline class="st1" points="497.52,169.68 500.05,169.68 500.05,184.94 497.52,184.94 		"/>
		<g>
			<rect x="484.38" y="29.26" class="st2" width="13.14" height="15.88"/>
			<line class="st2" x1="484.38" y1="33.59" x2="497.52" y2="33.59"/>
			<line class="st2" x1="492.56" y1="29.26" x2="492.56" y2="45.13"/>
		</g>
		<g>
			<rect x="484.38" y="60.39" class="st2" width="13.14" height="15.88"/>
			<line class="st2" x1="484.38" y1="64.73" x2="497.52" y2="64.73"/>
			<line class="st2" x1="492.56" y1="60.39" x2="492.56" y2="76.27"/>
		</g>
		<g>
			<rect x="484.38" y="91.53" class="st2" width="13.14" height="15.88"/>
			<line class="st2" x1="484.38" y1="95.86" x2="497.52" y2="95.86"/>
			<line class="st2" x1="492.56" y1="91.53" x2="492.56" y2="107.41"/>
		</g>
		<g>
			<rect x="484.38" y="122.67" class="st2" width="13.14" height="15.88"/>
			<line class="st2" x1="484.38" y1="127" x2="497.52" y2="127"/>
			<line class="st2" x1="492.56" y1="122.67" x2="492.56" y2="138.54"/>
		</g>
		<g>
			<rect x="484.38" y="153.8" class="st2" width="13.14" height="15.88"/>
			<line class="st2" x1="484.38" y1="158.14" x2="497.52" y2="158.14"/>
			<line class="st2" x1="492.56" y1="153.8" x2="492.56" y2="169.68"/>
		</g>
		<g>
			<rect x="484.38" y="184.94" class="st2" width="13.14" height="15.88"/>
			<line class="st2" x1="484.38" y1="189.27" x2="497.52" y2="189.27"/>
			<line class="st2" x1="492.56" y1="184.94" x2="492.56" y2="200.81"/>
		</g>
		<line class="st1" x1="167.03" y1="111.55" x2="215.2" y2="111.55"/>
		<g>
			<rect x="180.81" y="89.44" class="st2" width="20.8" height="16.29"/>
			<line class="st2" x1="180.81" y1="94.48" x2="201.61" y2="94.48"/>
			<rect x="186.73" y="94.48" class="st2" width="8.96" height="11.25"/>
			<line class="st2" x1="191.21" y1="89.44" x2="191.21" y2="94.48"/>
		</g>
		<g>
			<rect x="180.71" y="122.71" class="st2" width="20.8" height="16.29"/>
			<line class="st2" x1="180.71" y1="127.75" x2="201.52" y2="127.75"/>
			<rect x="186.64" y="127.75" class="st2" width="8.96" height="11.25"/>
			<line class="st2" x1="191.12" y1="122.71" x2="191.12" y2="127.75"/>
		</g>
		<g>
			<rect x="180.71" y="151.73" class="st2" width="20.8" height="16.29"/>
			<line class="st2" x1="180.71" y1="156.76" x2="201.52" y2="156.76"/>
			<rect x="186.64" y="156.76" class="st2" width="8.96" height="11.25"/>
			<line class="st2" x1="191.12" y1="151.73" x2="191.12" y2="156.76"/>
		</g>
		<g>
			<rect x="180.71" y="177.26" class="st2" width="20.8" height="16.29"/>
			<line class="st2" x1="180.71" y1="182.29" x2="201.52" y2="182.29"/>
			<rect x="186.64" y="182.29" class="st2" width="8.96" height="11.25"/>
			<line class="st2" x1="191.12" y1="177.26" x2="191.12" y2="182.29"/>
		</g>
		<polyline class="st2" points="182.43,221.75 182.43,207.65 199.8,207.65 199.8,221.75 		"/>
		<line class="st1" x1="182.43" y1="212.88" x2="199.8" y2="212.88"/>
		<line class="st1" x1="191.12" y1="207.65" x2="191.12" y2="212.88"/>
		<line class="st1" x1="187.1" y1="212.88" x2="187.1" y2="221.75"/>
		<line class="st1" x1="194.72" y1="212.88" x2="194.72" y2="221.75"/>
		<g>
			<rect x="142.18" y="58.6" class="st2" width="10.22" height="174.73"/>
			<rect x="142.18" y="58.6" class="st1" width="10.22" height="4.43"/>
			<rect x="142.18" y="63.03" class="st1" width="10.22" height="8.4"/>
			<rect x="142.18" y="71.43" class="st1" width="10.22" height="4.43"/>
			<rect x="142.18" y="75.86" class="st1" width="10.22" height="8.4"/>
			<rect x="142.18" y="84.26" class="st1" width="10.22" height="8.4"/>
			<rect x="142.18" y="92.66" class="st1" width="10.22" height="4.43"/>
			<rect x="142.18" y="97.09" class="st1" width="10.22" height="8.4"/>
			<rect x="142.18" y="105.49" class="st1" width="10.22" height="4.43"/>
			<rect x="142.18" y="109.92" class="st1" width="10.22" height="8.4"/>
			<rect x="142.18" y="118.32" class="st1" width="10.22" height="8.4"/>
			<rect x="142.18" y="126.72" class="st1" width="10.22" height="4.43"/>
			<rect x="142.18" y="131.15" class="st1" width="10.22" height="8.4"/>
			<rect x="142.18" y="139.55" class="st1" width="10.22" height="4.43"/>
			<rect x="142.18" y="143.98" class="st1" width="10.22" height="8.4"/>
			<rect x="142.18" y="152.38" class="st1" width="10.22" height="8.4"/>
			<rect x="142.18" y="160.77" class="st1" width="10.22" height="4.43"/>
			<rect x="142.18" y="165.21" class="st1" width="10.22" height="8.4"/>
			<rect x="142.18" y="173.61" class="st1" width="10.22" height="4.43"/>
			<rect x="142.18" y="178.04" class="st1" width="10.22" height="8.4"/>
			<rect x="142.18" y="186.44" class="st1" width="10.22" height="8.4"/>
			<rect x="142.18" y="194.83" class="st1" width="10.22" height="4.43"/>
			<rect x="142.18" y="199.27" class="st1" width="10.22" height="8.4"/>
			<rect x="142.18" y="207.67" class="st1" width="10.22" height="4.43"/>
			<rect x="142.18" y="212.1" class="st1" width="10.22" height="8.4"/>
			<rect x="142.18" y="220.5" class="st1" width="10.22" height="4.43"/>
		</g>
		<polyline class="st1" points="103.13,48.83 82.26,48.83 82.26,271.42 		"/>
		<g>
			<rect x="103.13" y="72.44" class="st2" width="17.08" height="184.19"/>
			<line class="st1" x1="111.67" y1="72.44" x2="111.67" y2="256.63"/>
			<line class="st1" x1="103.13" y1="74.97" x2="120.21" y2="74.97"/>
			<line class="st1" x1="103.31" y1="84.31" x2="120.21" y2="84.31"/>
			<line class="st1" x1="103.13" y1="92.44" x2="120.21" y2="92.44"/>
			<line class="st1" x1="103.13" y1="97.62" x2="120.21" y2="97.62"/>
			<line class="st1" x1="103.13" y1="99.92" x2="120.21" y2="99.92"/>
			<rect x="103.13" y="74.97" class="st1" width="17.08" height="9.33"/>
			<rect x="103.13" y="84.31" class="st1" width="17.08" height="8.13"/>
			<rect x="103.13" y="92.44" class="st1" width="17.08" height="5.19"/>
			<rect x="103.13" y="97.62" class="st1" width="17.08" height="2.3"/>
			<rect x="103.13" y="99.92" class="st1" width="17.08" height="9.33"/>
			<rect x="103.13" y="109.26" class="st1" width="17.08" height="8.13"/>
			<rect x="103.13" y="122.57" class="st1" width="17.08" height="2.3"/>
			<rect x="103.13" y="124.87" class="st1" width="17.08" height="9.33"/>
			<rect x="103.13" y="134.2" class="st1" width="17.08" height="8.13"/>
			<rect x="103.13" y="147.52" class="st1" width="17.08" height="2.3"/>
			<rect x="103.13" y="149.82" class="st1" width="17.08" height="9.33"/>
			<rect x="103.13" y="159.15" class="st1" width="17.08" height="8.13"/>
			<rect x="103.13" y="172.47" class="st1" width="17.08" height="2.3"/>
			<rect x="103.13" y="174.77" class="st1" width="17.08" height="9.33"/>
			<rect x="103.13" y="184.1" class="st1" width="17.08" height="8.13"/>
			<rect x="103.13" y="197.42" class="st1" width="17.08" height="2.3"/>
			<rect x="103.13" y="199.72" class="st1" width="17.08" height="9.33"/>
			<rect x="103.13" y="209.05" class="st1" width="17.08" height="8.13"/>
			<rect x="103.13" y="222.37" class="st1" width="17.08" height="2.3"/>
			<rect x="103.13" y="224.66" class="st1" width="17.08" height="9.33"/>
			<rect x="103.13" y="234" class="st1" width="17.08" height="8.13"/>
			<rect x="103.13" y="247.32" class="st1" width="17.08" height="2.3"/>
		</g>
		<g>
			<rect x="89.42" y="75.86" class="st2" width="10.89" height="180.77"/>
			<rect x="89.42" y="75.86" class="st1" width="10.89" height="2.3"/>
			<rect x="89.42" y="78.24" class="st1" width="10.86" height="9.33"/>
			<rect x="89.42" y="87.58" class="st1" width="10.86" height="8.13"/>
			<rect x="89.42" y="95.71" class="st1" width="10.86" height="5.19"/>
			<rect x="89.42" y="100.89" class="st1" width="10.89" height="2.3"/>
			<rect x="89.42" y="103.19" class="st1" width="10.86" height="9.33"/>
			<rect x="89.42" y="112.53" class="st1" width="10.86" height="8.13"/>
			<rect x="89.42" y="120.66" class="st1" width="10.86" height="5.19"/>
			<rect x="89.42" y="125.84" class="st1" width="10.89" height="2.3"/>
			<rect x="89.42" y="128.14" class="st1" width="10.86" height="9.33"/>
			<rect x="89.42" y="137.48" class="st1" width="10.86" height="8.13"/>
			<rect x="89.42" y="145.6" class="st1" width="10.86" height="5.19"/>
			<rect x="89.42" y="150.79" class="st1" width="10.89" height="2.3"/>
			<rect x="89.41" y="153.09" class="st1" width="10.86" height="9.33"/>
			<rect x="89.41" y="162.42" class="st1" width="10.86" height="8.13"/>
			<rect x="89.41" y="170.55" class="st1" width="10.86" height="5.19"/>
			<rect x="89.41" y="175.74" class="st1" width="10.89" height="2.3"/>
			<rect x="89.42" y="178.04" class="st1" width="10.86" height="9.33"/>
			<rect x="89.42" y="187.37" class="st1" width="10.86" height="8.13"/>
			<rect x="89.42" y="195.5" class="st1" width="10.86" height="5.19"/>
			<rect x="89.42" y="200.69" class="st1" width="10.89" height="2.3"/>
			<rect x="89.42" y="202.99" class="st1" width="10.86" height="9.33"/>
			<rect x="89.42" y="212.32" class="st1" width="10.86" height="8.13"/>
			<rect x="89.42" y="220.45" class="st1" width="10.86" height="5.19"/>
			<rect x="89.42" y="225.64" class="st1" width="10.89" height="2.3"/>
			<rect x="89.42" y="227.94" class="st1" width="10.86" height="9.33"/>
			<rect x="89.42" y="237.27" class="st1" width="10.86" height="8.13"/>
			<rect x="89.42" y="245.4" class="st1" width="10.86" height="5.19"/>
			<rect x="89.42" y="250.59" class="st1" width="10.89" height="2.3"/>
		</g>
		<polyline class="st1" points="82.26,226.79 0.21,226.79 0.21,271.42 505.55,271.42 505.55,215.15 505.55,200.81 497.52,200.81 		
			"/>
		<line class="st1" x1="0.21" y1="228.72" x2="82.26" y2="228.72"/>
		<line class="st1" x1="82.26" y1="253.12" x2="0.21" y2="253.12"/>
		<rect x="10.82" y="233.53" class="st2" width="63.71" height="15.61"/>
		<line class="st1" x1="42.67" y1="233.53" x2="42.67" y2="249.14"/>
		<line class="st1" x1="31.73" y1="233.33" x2="31.73" y2="249.14"/>
		<line class="st1" x1="53.83" y1="233.53" x2="53.83" y2="249.14"/>
		<line class="st1" x1="20.96" y1="233.53" x2="20.96" y2="249.14"/>
		<line class="st1" x1="64.03" y1="233.53" x2="64.03" y2="249.14"/>
		<line class="st1" x1="29.85" y1="138.27" x2="82.26" y2="138.27"/>
		<g>
			<rect x="48.41" y="115.93" class="st2" width="15.3" height="20.26"/>
			<line class="st2" x1="56.06" y1="115.93" x2="56.06" y2="136.43"/>
			<line class="st2" x1="48.41" y1="120.2" x2="63.7" y2="120.2"/>
			<line class="st2" x1="52.39" y1="120.2" x2="52.39" y2="136.19"/>
			<line class="st2" x1="60" y1="120.2" x2="60" y2="136.19"/>
		</g>
		<g>
			<rect x="48.41" y="202.33" class="st2" width="15.3" height="15.1"/>
			<line class="st2" x1="56.06" y1="202.33" x2="56.06" y2="217.43"/>
			<line class="st2" x1="48.41" y1="206.47" x2="63.7" y2="206.47"/>
			<line class="st2" x1="52.39" y1="206.47" x2="52.39" y2="217.43"/>
			<line class="st2" x1="60" y1="206.47" x2="60" y2="217.43"/>
		</g>
		<g>
			<rect x="48.41" y="145.5" class="st2" width="15.3" height="20.26"/>
			<line class="st2" x1="56.06" y1="145.5" x2="56.06" y2="166"/>
			<line class="st2" x1="48.41" y1="149.77" x2="63.7" y2="149.77"/>
			<line class="st2" x1="52.39" y1="149.77" x2="52.39" y2="165.76"/>
			<line class="st2" x1="60" y1="149.77" x2="60" y2="165.76"/>
		</g>
		<g>
			<rect x="48.41" y="173.85" class="st2" width="15.3" height="20.26"/>
			<line class="st2" x1="56.06" y1="173.85" x2="56.06" y2="194.35"/>
			<line class="st2" x1="48.41" y1="178.12" x2="63.7" y2="178.12"/>
			<line class="st2" x1="52.39" y1="178.12" x2="52.39" y2="194.11"/>
			<line class="st2" x1="60" y1="178.12" x2="60" y2="194.11"/>
		</g>
		<polyline class="st1" points="82.26,73.64 39.54,73.64 39.54,105.99 		"/>
		<g>
			<rect x="53.25" y="82.26" class="st2" width="15.3" height="15.1"/>
			<line class="st2" x1="60.9" y1="82.26" x2="60.9" y2="97.37"/>
			<line class="st2" x1="53.25" y1="86.4" x2="68.55" y2="86.4"/>
			<line class="st2" x1="57.23" y1="86.4" x2="57.23" y2="97.37"/>
			<line class="st2" x1="64.85" y1="86.4" x2="64.85" y2="97.37"/>
		</g>
		<g>
			
				<rect x="6.75" y="115.45" transform="matrix(-1 -3.841650e-11 3.841650e-11 -1 28.5823 246.5198)" class="st2" width="15.08" height="15.63"/>
			<line class="st2" x1="21.83" y1="119.71" x2="6.75" y2="119.71"/>
			<line class="st2" x1="12.44" y1="115.45" x2="12.44" y2="131.07"/>
		</g>
		<polyline class="st1" points="29.85,105.99 0.21,105.99 0.21,115.45 15.03,115.45 		"/>
		<polyline class="st1" points="6.75,131.07 0.21,131.07 0.21,143.28 6.75,143.28 		"/>
		<g>
			
				<rect x="6.75" y="143.28" transform="matrix(-1 -3.841650e-11 3.841650e-11 -1 28.5823 302.1902)" class="st2" width="15.08" height="15.63"/>
			<line class="st2" x1="21.83" y1="147.55" x2="6.75" y2="147.55"/>
			<line class="st2" x1="12.44" y1="143.28" x2="12.44" y2="158.91"/>
		</g>
		<polyline class="st1" points="6.75,158.91 0.21,158.91 0.21,171.12 6.75,171.12 		"/>
		<g>
			
				<rect x="6.75" y="171.12" transform="matrix(-1 -3.859725e-11 3.859725e-11 -1 28.5823 357.8606)" class="st2" width="15.08" height="15.63"/>
			<line class="st2" x1="21.83" y1="175.38" x2="6.75" y2="175.38"/>
			<line class="st2" x1="12.44" y1="171.12" x2="12.44" y2="186.74"/>
		</g>
		<polyline class="st1" points="6.75,186.74 0.21,186.74 0.21,198.95 6.75,198.95 		"/>
		<g>
			
				<rect x="6.55" y="198.95" transform="matrix(-1 -3.835611e-11 3.835611e-11 -1 28.1813 413.531)" class="st2" width="15.08" height="15.63"/>
			<line class="st2" x1="21.63" y1="203.22" x2="6.55" y2="203.22"/>
			<line class="st2" x1="12.24" y1="198.95" x2="12.24" y2="214.58"/>
		</g>
		<polyline class="st1" points="6.55,214.58 0.21,214.58 0.21,226.79 6.55,226.79 		"/>
		<polyline class="st1" points="334.18,221.68 174.95,221.68 174.95,229.5 334.13,229.5 		"/>
	</g>
</g>
</svg>
