<svg xmlns="http://www.w3.org/2000/svg" width="149.81" height="149.81" viewBox="0 0 149.81 149.81">
  <metadata><?xpacket begin="﻿" id="W5M0MpCehiHzreSzNTczkc9d"?>
<x:xmpmeta xmlns:x="adobe:ns:meta/" x:xmptk="Adobe XMP Core 5.6-c140 79.160451, 2017/05/06-01:08:21        ">
   <rdf:RDF xmlns:rdf="http://www.w3.org/1999/02/22-rdf-syntax-ns#">
      <rdf:Description rdf:about=""/>
   </rdf:RDF>
</x:xmpmeta>
                                                                                                    
                                                                                                    
                                                                                                    
                                                                                                    
                                                                                                    
                                                                                                    
                                                                                                    
                                                                                                    
                                                                                                    
                                                                                                    
                                                                                                    
                                                                                                    
                                                                                                    
                                                                                                    
                                                                                                    
                                                                                                    
                                                                                                    
                                                                                                    
                                                                                                    
                                                                                                    
                           
<?xpacket end="w"?></metadata>
<defs>
    <style>
      .cls-1 {
        fill: #98ca45;
        fill-rule: evenodd;
      }
    </style>
  </defs>
  <path class="cls-1" d="M1758.82,1190.38c-0.01-.09-0.02-0.17-0.03-0.25-20.1-3-40.2-5.99-60.49-9.01,5.52-7.54,10.91-14.92,16.3-22.3l-0.18-.15c-7.31,5.53-14.53,11.2-21.94,16.78-2.81-20.28-5.57-40.27-8.33-60.27a2.7,2.7,0,0,1-.28.04c-3,20.2-6,40.4-9.03,60.78-7.54-5.51-14.91-10.89-22.27-16.28l-0.21.24c5.46,7.13,10.93,14.26,16.51,21.54-0.5.09-.8,0.16-1.1,0.2-2.47.34-4.95,0.66-7.42,1q-8.97,1.245-17.95,2.5c-4.74.65-15.12,2.09-19.86,2.76-4.55.63-9.05,1.24-13.54,1.86,0.01,0.09.01,0.19,0.02,0.29,3.45,0.51,44.75,6.56,60.67,9.04-5.57,7.64-11.01,15.09-16.46,22.54,0.08,0.06.15,0.12,0.22,0.18,7.23-5.54,14.45-11.07,21.86-16.75,2.78,20.15,5.53,40.02,8.27,59.88,0.09,0,.19-0.01.28-0.01,2.98-20.07,5.97-40.13,8.98-60.39,7.6,5.55,14.98,10.95,22.36,16.35,0.07-.06.13-0.12,0.2-0.18-5.59-7.32-11.18-14.63-16.85-22.06,15.66-2.16,36.91-5.08,52.46-7.23a0.01,0.01,0,0,1,.01-0.01Q1754.92,1190.915,1758.82,1190.38Zm-137.64-.89c0.01-.01.02-0.01,0.03-0.02,15.98-2.21,38.49-5.35,54.21-7.52,2.65,2.15,5.15,4.19,7.65,6.23-0.04.08-.09,0.17-0.13,0.25C1664.16,1188.76,1639.87,1189.16,1621.18,1189.49Zm62.03,63.18c-0.26-1.74-.56-3.47-0.8-5.22-0.45-3.28-.87-6.58-1.32-9.86-0.43-3.26-.87-6.51-1.32-9.77q-0.72-5.16-1.45-10.33c-0.44-3.13-.89-6.26-1.33-9.39-0.37-2.69-.72-5.39-1.11-8.08a2.791,2.791,0,0,1,.5-2.37c2.27-2.86,4.45-5.78,6.67-8.67a1.092,1.092,0,0,1,.3-0.11c0,0.57.1,44.69,0.1,63.78A1.942,1.942,0,0,1,1683.21,1252.67Zm0.54-128.37,0.33-.03c2.63,18.99,5.26,37.97,7.91,57.1-2.76,2.27-5.54,4.56-8.53,7.01C1683.57,1171.64,1683.75,1127.68,1683.75,1124.3Zm8.78,73.94c-2.95-3.21-5.87-6.37-9.01-9.78,22.19,0.53,44.1,1.05,66.01,1.57l0.03,0.27c-0.85.13-1.69,0.26-2.42,0.37a0.037,0.037,0,0,1,.01.03C1729.96,1193.08,1708.84,1195.98,1692.53,1198.24Zm39.4-16.3q3.465,0.495,7.06,1.01a55.51,55.51,0,0,0-47.91-48.01c0.34,2.51.65,4.82,0.96,7.1C1713.73,1147.08,1726.96,1160.35,1731.93,1181.94Zm-96.13,16.32c-2.3-.32-4.64-0.65-7-0.99,0.9,9.95,6.31,23.57,17.18,33.58a55.932,55.932,0,0,0,30.66,14.46c-0.33-2.5-.64-4.83-0.94-7.13C1654.03,1233.15,1640.78,1219.89,1635.8,1198.26Zm82.38,26.15a48.679,48.679,0,0,1-26.12,13.6c-0.34,2.38-.69,4.77-1.06,7.33,13.65-2.02,25.03-7.9,34.16-17.97a55.228,55.228,0,0,0,13.9-30.06c-2.55.35-4.91,0.67-7.29,1A48.837,48.837,0,0,1,1718.18,1224.41Zm-68.6-68.63a48.6,48.6,0,0,1,26.1-13.59c0.36-2.48.69-4.78,1.04-7.28a55.748,55.748,0,0,0-48.02,47.97c2.5-.33,4.81-0.64,7.26-0.96A48.586,48.586,0,0,1,1649.58,1155.78Z" transform="translate(-1609 -1115.19)"/>
</svg>
