<?xml version="1.0" encoding="utf-8"?>
<!-- Generator: Adobe Illustrator 24.0.1, SVG Export Plug-In . SVG Version: 6.00 Build 0)  -->
<svg version="1.1" id="Layer_1" xmlns="http://www.w3.org/2000/svg" xmlns:xlink="http://www.w3.org/1999/xlink" x="0px" y="0px"
	 viewBox="0 0 172.3 599.59" style="enable-background:new 0 0 172.3 599.59;" xml:space="preserve">
<style type="text/css">
	.st0{fill:#020001;}
	.st1{fill:#FFFFFF;}
	.st2{fill:#F4F3F4;}
</style>
<g>
	<polygon class="st0" points="0,0 0,599.59 86.15,524.26 172.3,599.59 172.3,0 	"/>
</g>
<g>
	<path class="st1" d="M50.19,125.95c-0.02-0.15,0-0.3,0.04-0.44c0.59-0.1,1.19,0.06,1.64,0.44c0.18-0.76,0.86-1.31,1.64-1.33
		c0.66-1.4-0.37-2.34-1.5-2.95c1.25-1.35,3.75-1.04,4.63-2.95c0.26-2.48,2.54-4.15,3.6-6.32c4.38-4.58,8.68-9.09,12.7-13.97
		c1.94-2.08,4.21-4.47,7.32-3.67c0.26,0.03,0.51,0.09,0.76,0.16c1.65,0.69,2.9,2.09,3.41,3.8c0.72,2.66-1.07,4.32-1.93,6.31
		c-0.64,0.95-1.76,1.7-1.94,2.8c4.02,3.65,9.83,7.12,10.44,12.96c0.98-0.19,1.62-2.86,2.85-1.04c0.49,0.32,0.73,0.91,0.61,1.48
		l-0.32,0.29l-1.03-1.18c-0.54,0.8,0.29,1.72,0.44,2.65c0.08,0.94-0.3,2.17,0.91,2.51c0.94-0.27,1.95-0.17,2.82,0.28
		c0.03,0.05,0.06,0.1,0.08,0.16h3.88c-0.44-0.97-0.96-1.91-1.56-2.79c-3.18-2.08-3.82-6.35-7.47-8.23c-1.18-1.79-2.23-3.66-3.14-5.6
		l0.15-1.19c4.14-4.61,8.04-9.32,7.03-16.02c0.29-0.66,0.92-1.12,1.64-1.19c0.27,0.2,0.52,0.43,0.74,0.68
		c1.53,1.72,1.6,4.35,2.25,6.54c0.11,0.63,0.18,1.24,0.23,1.84c-0.03,1.79,0.46,3.54,1.41,5.05c0.56,1.14-0.63,3.26,1.05,3.7
		c1.61,2.1,4.26,3.11,6.86,2.63c-0.14-2.28-0.92-4.48-2.26-6.33c-1.66-1.58-1.51-3.9-2.96-5.57c-0.09-0.19-0.18-0.37-0.26-0.56
		c-1.7-3.82-1.64-8.33-1.56-12.84c0.39-1.04,1.59-0.51,2.26-0.44c4.73,4.07,4.07,10.35,7.48,14.99c1.53,2.58,2.44,5.48,2.67,8.47
		c0.02,0.66-0.03,1.32-0.15,1.98c0.54,1.28,0.61,3.24,2.26,3.55c-0.28,0.51-0.49,1.05-0.62,1.62c0.44,2.04,4.45,0.07,2.85,2.48
		c-0.78,0.19-1.4-0.96-2.08-0.15l0.15,0.75c2.23,0.75,4.51,3.59,7.01,1.47c0.17-2.89-1.76-5.33-3.43-7.65
		c-0.41-0.87-0.8-1.75-1.17-2.64c-1.74-4.14-2.86-8.51-3.34-12.98c-0.65-2.72-1.65-5.34-2.98-7.79l-2.53-9.7
		c1.13-2.39,2.26-5.18,1.21-7.95c-1.62-3.88-1.45-8.49-4.19-11.92c-0.02-0.09-0.04-0.16-0.05-0.23c0.03-0.75,0.36-1.46,0.93-1.96
		c1.11-0.32,0.96-1.04,1.06-1.93c0.69-1.26,4.02-0.95,2.41-2.94c-0.2-0.55,0.36-0.99,0-1.45c-0.71,0.74-1.68,1.15-2.7,1.16
		c-0.02-1.2,0.18-2.39,0.59-3.52c-0.48-0.05-0.66,0.67-1.17,0.57c-0.13-0.35-0.29-0.69-0.47-1.02l-1.03,1.02
		c-0.27-0.54-0.34-1.17-0.17-1.76l0.77-0.58l0.58,0.58c0.84-1.19,2.43-2.54,1.82-4.27l0.29-0.73c-0.54-0.13-1.11,0.03-1.49,0.44
		c-0.37-0.83-0.42-1.77-0.15-2.63c0.37-0.3,0.62-0.71,0.73-1.18c-0.48-0.17-1.1,0.32-1.79,0.15c-0.1-1.13,1.84-2.3,1.05-3.38
		l-0.47,0.44c-0.68-0.7,0.62-1.32,0.77-2.05c-0.39-0.63-0.83,0.34-1.35,0.29c-0.37-0.89,0.14-2.15-0.45-2.95
		c-0.7,0.37-0.73,1.43-1.64,1.33c-0.23-0.83-0.59-1.63-1.04-2.36c-0.11-0.78-0.49-1.5-1.06-2.05c-0.45,1.64,0.42,4.49-0.73,6.17
		L103.57,34l-0.61,1.19c-0.06-1.37-0.36-2.71-0.87-3.98c-0.52,0.29-0.25,1.01-0.76,1.18c-0.89-1.47,1.11-2.63,1.5-3.83
		c0.25-0.15,0.37-0.45,0.29-0.73l-0.29-0.29c-1.06,0.15-1.98,1.48-2.99,0.87c0.12-0.58-0.04-1.18-0.44-1.62l-0.45,0.31l-2.1-2.51
		c-1.16,0.46,0.54,1.49-0.44,2.19c-0.86-0.91-1.26-2.29-2.55-2.8c-0.08,1.4-1.48,0.43-2.08,0.31c-0.45-0.46-0.83-0.96-1.35-0.31
		c-1.63-0.58-2.76-2.34-4.48-2.78c-0.05,1.86,2.29,2.75,2.86,4.56c-0.62,0.34-1.11-0.5-1.65-0.74c-2.43-1.93-5.49-3.65-8.67-2.48
		v0.15c1.76,0.85,4.16,0.53,5.38,2.34c-1.69,0.07-3.46-1.72-5.07,0l0.29,0.89c-1,0.16-1.91,0.68-2.55,1.47
		c1.64,1.52,5.24-0.73,6.42,1.91c-0.78,0.14-1.46-0.89-2.38-0.89l-0.61,1.93l-1.48-0.45c-0.25,0.57,0.45,1.13,0.47,1.76
		c-0.93,0.48-1.4-0.71-1.79-1.31c0.01-0.46-0.1-0.92-0.32-1.33c-1.29,0.63-0.61,1.95-0.58,3.09c-0.13,0.89,0.98,1.86,0.15,2.49
		c-1.84,0.26-3.8-3.26-4.93-0.73c0.34,0.48,0.86,0.53,1.2,1.04l-0.76,0.44c0.21,0.75,1.96,0.85,1.2,1.91l1.49,0.6
		c-0.4,0.29-0.72,0.69-0.9,1.16c0.46,0.56,1.3,0.19,1.96,0.29c0,0.89-1.06,1.71-1.35,2.65c-0.68,3.5-4.22,5.82-5.4,9.13
		c-0.24,1.86,1.6,2.85,1.65,4.56c0.74,1.25,2.35,0.75,2.98,1.91c1.33-0.63,2.53,1.09,3.6-0.44c0.76-0.79,1.32-1.75,1.64-2.8
		c1.15-1.29,2.5-2.39,4.01-3.23c3.04,2.44,4.63-4.11,6.88-0.58c1.42,2.48,2.38,6.06,0.89,8.84c-3.5,3.57-4.78,8.04-8.8,11.03
		c-1.97,1.13-4.04,2.06-6,3.21c-0.93,0.53-1.82,1.13-2.67,1.78c-1.57,0.2-2.4-1.34-3.29-2.36c-0.81-1.4-0.49-3.26-1.2-4.71
		c-0.3,0.2-0.13,0.94-0.59,1.04c-0.34-0.7,0.03-1.66-0.32-2.34c-0.39-0.17-0.29,0.27-0.44,0.44c-0.03,0.18-0.14,0.34-0.29,0.44
		l-0.45-0.15c-0.48,0.54-0.26,1.38-0.76,1.9c-1-1.73-1-3.89-2.08-5.57l-0.76,0.44c-1.06-1.18-2.16-2.73-1.5-4.27
		c0.53-1.39,0.48-2.93-0.15-4.27c-0.65,1.2-1.1,2.5-1.32,3.84h-0.61c-1.57-1.06-2.69-3.18-4.62-3.38c0.46,1.54,2.84,2.34,2.84,4.1
		c-0.91,0.8,0.73,1.64,0.58,2.66c0.06,0.16,0,0.34-0.15,0.44c-0.74,0.07-1.21-1.41-1.94-0.44l0.45,1.48
		c-1.96,0.36-2.21-2.15-3.29-3.23l-0.15,1.47c-1.54-1.59-3.41-1.08-5.22-2.07c-0.51,0.36,0.34,0.53,0.29,0.89
		c2.26,1.9,5.08,3.05,6.28,5.89c-1.72,0-2.16-2.3-3.58-3.09c-1.2,2.97,3.21,4.21,2.99,6.76c-0.35-0.48-0.86-0.53-1.2-1.01
		c-0.24,1.25,0.98,2.27,1.2,3.52c-0.57,0.29-1.18-0.48-1.82,0c1.12,0.58,2.01,1.51,2.55,2.65c-0.79,0.36-1.4-0.6-2.08-0.9
		c-0.05,0.87,0.64,1.77,0.59,2.81l1.78,1.76c-1.86,0.24-3.36-1.31-4.93-2.2l-0.15,0.15l3.29,3.24l-2.23,0.29
		c0,3.11,4.46,1.38,6.43,2.04c4.41-0.24,7.67-3.28,12.11-3.52c0.42,2.33-2.04,3.85-2.85,5.88c-0.77,3.68-1.81,7.29-3.11,10.81
		c-0.94,2.53-2.09,4.97-3.45,7.29c-0.2,4.74-3.72,8.13-6.3,11.9c-2.74,1.83-3.51,5.11-6.28,7.07c0.05,1.06-1.05,1.99-0.71,2.95
		H50.19z M105.05,106.83h0.32c0.93,1.04,2.5,1.57,2.99,2.78c-0.98,0.27-2.04,0.05-2.84-0.58
		C105.14,108.36,104.98,107.6,105.05,106.83 M117.02,108.44c0.9,0.73,1.66,1.63,2.24,2.63l-0.01,0.01c0.17,0.32,0.27,0.67,0.31,1.03
		c-1.09,0.2-1.15-1.23-2.26-1.04c-0.11-0.68-0.26-1.35-0.45-2C116.86,108.85,116.91,108.63,117.02,108.44 M111.65,90.63
		c0.96,1.63,2.89,3.09,2.67,5.28l-0.01,0.01c1.47,1.76-1.52,2.58-0.28,4.41c-2.15-1.42-1.42-4.32-1.79-6.61
		c-0.48-1.02-1.03-2-1.65-2.94L111.65,90.63z M71.61,94.91c1.18-1.63,2.23-3.36,3.13-5.17l0.29,0.6l0.01,0.01
		C75.43,92.5,72.82,94.12,71.61,94.91 M86.23,103.89c-0.83,1.35,1.69,3.11-0.89,3.95c-1.07,0.93-0.15,1.91,0,2.95
		c-0.78-1.24-2.91-1.82-2.84-3.53c0.29-1.28,1.3-0.15,1.93-0.89l0.01,0.01c1.02-1.3,1.74-2.81,2.11-4.42
		c-0.14-0.27-0.27-0.85-0.76-0.73c0.12-0.32-0.03-0.85,0.44-0.89l1.5,2.22L86.23,103.89z M92.97,99.91
		c-1.08,0.13,0.42-3.41,0.25-5.31l0.48-0.15h0.44C94.26,96.34,93.85,98.22,92.97,99.91L92.97,99.91z M103.85,99.41
		c0.72,0.84-0.14,2.14,0.03,3v0.01c-1.52,0.12-0.69-1.77-1.34-2.52c0.18-0.31,0.14-0.98,0.73-0.89
		C103.49,99.1,103.69,99.24,103.85,99.41 M105.23,41.35l-0.61,1.33c-0.03,0.05-0.07,0.09-0.12,0.12c-0.16,0.1-0.37,0.04-0.47-0.12
		l-0.01,0.01C104.26,42.11,104.69,41.64,105.23,41.35 M101.03,36.64c0.64,0.82,0.52,2.22,1.35,3.09c0.76-0.58,0.83-1.81,1.79-1.91
		l0,0.01c0.93,0.14,0.09,1.45,0.14,2.19c-0.92,0.46-1.96,0.67-2.99,0.58v-2.48C101.38,37.56,100.63,37.15,101.03,36.64 M99.54,36.64
		l0.58,1.62h-0.29c-0.07-0.25-0.22-0.46-0.44-0.6c-0.05-0.05-0.09-0.11-0.13-0.17C99.11,37.18,99.23,36.8,99.54,36.64 M97.29,32.52
		l1.49,0.89l-0.87,2.05C97.88,34.4,96.95,33.72,97.29,32.52 M87.59,30.01l0.15-1.3l1.49,1.47c0.62,0.48,1.03-0.61,1.05-0.9
		l0.91,0.58c0.31-0.17,0.49-0.52,0.44-0.87l0.59,0.29c0.17-0.18,0.32-0.37,0.46-0.57l0.89,1.01c0.3-0.05,0.59-0.53,0.91-0.15v0.29
		l0,0.01c1.59,0.38,0.71,2.46,0.73,3.55c-0.12-0.46-1.3-0.6-1.49-1.48c-1.11,1.16-1.55-1.02-2.53-1.04
		c-0.79,0.34,0.25,1.01-0.32,1.33l-1.63-1.18l-1.79,0.57c-1.78-1.18-3.23-2.8-4.19-4.71C85.14,27.29,86.1,29.6,87.59,30.01
		 M82.36,31.8c1.26,0.84,1.16,2.82,1.64,3.8l-1.19,0.29C83.17,34.49,81.93,33.22,82.36,31.8 M82.51,36.49
		c0.61,0.95,2.23,0.58,2.7,0.87c-1.13,0.63-1.83,2.19-3.13,2.37c0.51-0.87-0.47-1.65-1.05-2.22C81.35,36.98,81.89,36.61,82.51,36.49
		 M76.82,35.9c-0.15-0.18-0.33-0.33-0.52-0.46c0.7-0.12,1.8-0.45,2.02,0.46c-0.12-0.01-0.23,0.05-0.3,0.15l-0.58-0.73l-0.29,0.29
		c0.54,0.75-0.98,1.02-1.05,0.9L76.82,35.9z M71.02,49.87c0.02-0.03,0.05-0.05,0.07-0.07c0.41-0.37,1.05-0.34,1.42,0.07H71.02z
		 M87.29,45.91c-1.33,1.18-2.43,2.85-4.35,2.66c0.57-2.71-2.6-2.74-4.01-3.84l-0.33,0.29c0.52,0.58,0.97,1.22,1.35,1.9
		c-1.54,0.43-3.11-1.06-4.01,0.6c0.95,1.23,2.72,1.14,3.43,2.34c-1.36-0.17-2.75,0.16-3.89,0.91c0.22,1.35-1.37,2.07-2.23,2.8
		c-0.05-0.75,0.05-1.51,0.29-2.23l0.47,0.6c1.45-1.06-1.1-3.01,1.03-3.98c0.07-0.28-0.05-0.57-0.29-0.73l-1.79,1.33v-1.19l4.63-7.66
		c0.15,0.41,0.22,1.64,1.2,1.33v0.44c-0.61,0.65-1.03,1.46-1.21,2.34c0.77,0.68,1.45-0.51,2.08-1.02l0.45,0.87v0.01
		c1.23,0.19,1.59-1.48,2.54-1.17c1.67-1.81,2.67-4.13,4.2-5.74l1.02,1.04C89.93,40.33,87.26,43.12,87.29,45.91 M91.18,36.19
		c-1.24-0.19-2.4-0.76-3.31-1.62c0.92-0.17,1.53,0.34,2.4,0.15c0.02,0,0.03,0.01,0.05,0.01C90.96,34.89,91.35,35.55,91.18,36.19
		 M69.37,74.43c-0.55-0.13-0.97-0.58-1.05-1.14C68.89,73.39,69.32,73.86,69.37,74.43 M63.98,71.49v0.01
		c0.26,0.39,0.37,0.87,0.29,1.34c-0.66-0.53-1.22-1.18-1.64-1.91L63.98,71.49z M60.11,79.89c-0.42-0.83-1.27-1.34-2.2-1.33
		c1.24-0.1,2.94-0.5,3.83,0.58C61.26,79.5,60.71,79.76,60.11,79.89 M62.34,74.14c-0.2-0.57-0.86-1.31-0.59-1.76l4.93,2.65l0,0.01
		c1.52,0.18,3.03,0.51,4.48,1C67.76,77.4,65.38,73.78,62.34,74.14 M64.43,97.11c1.22-3.76,3.85-6.93,4.95-10.75
		c0.32-1.59,1.77-2.94,1.64-4.56c1.84-1.5,1.8-4.01,3.43-5.75c0.42-0.73,1.04-1.33,1.79-1.72c2.11-1.14,4.96-0.97,6.56-3.42
		c1.6-0.74,2.92-1.98,3.75-3.53c0.02,1.58-0.09,3.15-0.32,4.71c-0.29,1.22,0.18,2.5,1.2,3.24c0.62-1.69,0.07-3.81,0.45-5.6
		c1.08-2.99,1.35-6.44,3.31-8.98c0.48,2.05,1.23,4.04,2.23,5.89c0.24,0.37,0.48,0.74,0.76,1.08c0.43,0.59,1.07,1,1.79,1.14
		c0.4-0.51-0.11-1.38-0.15-2.08c-2.74-1.45-1.56-5.02-2.1-7.65c0.29-0.69,0.83-1.68-0.29-2.2c-0.23-1.95-0.79-3.84-1.64-5.6
		c-1.26-1.39,0.14-2.67,1.05-3.67c2.28,3.65,5.19,7.02,7.3,10.74c0.98,3.38,3.21,6.25,2.55,10.3c-0.84-1.86-2.01-3.56-3.43-5.02
		c0.3,3.38,2.7,6.38,4.63,9.13c0.8-0.66,0.29-1.87,0.44-2.78c-0.1-0.53-0.19-1.06-0.28-1.59c-0.47-3.69-1.38-7.32-2.71-10.79
		c-3.21-4.15-4.27-9.59-8.5-12.93l-0.47,0.15l-0.58-3.53c1.44,0.37,2.08,2.35,3.72,2.49l7.18,9.27c1.93,4.56,1.86,9.95,1.79,15.3
		l0.45,0.6c1.17-0.96,0.78-2.85,1.49-4.12c0-5.87-1.66-11.62-4.78-16.59c-1.08-1.66-2.32-3.2-3.73-4.6
		c-1.67-2.88-5.66-4.71-5.69-7.95l1.8,1.18c3.34,3.18,6.03,6.97,7.92,11.18c0.8,0.57,0.79,2.2,1.96,1.91
		c1.68,3.14,2.71,6.58,3.04,10.12c0.12,1.02,0.2,2.07,0.24,3.13c1.7,1.76-0.1,4.1,0.3,6.03l-0.01,0.01c1.87,2.8,0.84,6.95,0.91,10.3
		c-0.13,0.45-0.6,0.71-1.05,0.58c0.66-1.88,0.13-3.97-1.34-5.32c-1.81,1.5,0.64,5-2.08,5.89c-0.15-1.93,1.03-4.21-0.47-5.75
		c-0.73,0.19-1.25,0.82-1.29,1.57c0.05-0.68-0.19-1.35-0.65-1.86c-2.67,0.71,0.37,5.84-3.57,5.14c-0.32-2.58-0.42-5.29-1.64-7.51
		c-1.35-1.21-1.81-3.3-3.58-3.81c-0.39,0.28-0.66,0.69-0.76,1.16c0.97,1.88,2.94,3.67,2.99,5.6c-0.49-0.31-1.3-1.8-1.94-0.75
		c0.35,1.93,2.53,3.31,1.5,5.6c-0.81-0.14-1.7-0.94-2.4-0.44c-0.59,0.95,0.95,1.12,1.2,1.77h-0.15c-0.55,0.16-0.96,0.62-1.05,1.18
		c0.21,0.24,0.47,0.44,0.76,0.58c2.62-0.17,4.63-1.76,7.45-1.47c0.77,2.73,1.08,5.57,0.91,8.4l-0.91,0.87l-0.2-0.33l-3.08-4.95
		c-0.01-0.8-0.27-1.58-0.74-2.22c-0.8,0.87-1.09,2.1-0.76,3.24c-0.72,0.48-1.74,0.21-2.23,1.18c-0.31,0.56-1.32,1.38-0.29,1.92
		c1.08-0.44,2.16-1.72,3.28-1.31c-1.4,0.49-2.67,2.18-4.19,1.48c-1.26-1.72-2.18-3.68-2.7-5.75c-0.39-1.04,0.35-2.92-1.17-3.09
		c-0.27-1.57,0.56-3.04-0.15-4.41c-2.21,1.42-0.59,4.65-2.55,6.32c0.28,1.38,0.95,2.66,1.93,3.67c0.2-0.2,0.36-0.45,0.45-0.73
		c0.9,2.04,1.36,4.24,1.35,6.47c-2.44,1.07-5.18,1.24-7.74,0.48c-0.63-0.13-1.23-0.3-1.82-0.48c-3.53-2.22-3.25-7.24-2.52-10.74
		c0.76-0.78,1.04-1.9,0.73-2.95c-3.6,3.09-3.35,8.25-5.07,12.37c-2.31,1.97-2.23,5.6-4.63,7.65v-0.44c0.42-1.23,0.62-2.66-0.76-3.38
		l-0.44,0.44c-0.02,2.73-2.97,4.27-2.08,7.36c-2,0.56-1.69,3.24-3.75,3.39C60.7,102.73,64.57,100.49,64.43,97.11 M55.34,115.78
		c0.49,0.81-0.98,0.81-0.47,1.79c-0.51,1.09-1.65,1.74-2.85,1.63C53.01,117.95,54.12,116.81,55.34,115.78 M50.13,160.93
		L50.13,160.93L50.13,160.93L50.13,160.93z M76.83,160.94L76.83,160.94L76.83,160.94L76.83,160.94z M31.07,160.32
		c-0.77-0.67-1.49-1.4-2.14-2.19l-7.23-8.46l5.2-5.79c1.65-1.85,2.9-2.78,3.78-2.78h0.21v-0.87h-5.22v0.87h0.17
		c0.74,0,1.1,0.22,1.1,0.65c-0.34,0.81-0.85,1.53-1.49,2.13l-5.89,6.58v-6.58c-0.08-0.77,0.06-1.55,0.39-2.24
		c0.48-0.43,1.13-0.63,1.77-0.54h0.18v-0.87H14.6v0.86h0.26c0.62-0.09,1.25,0.11,1.7,0.54c0.36,0.69,0.51,1.47,0.44,2.24v14.21
		c0.06,0.78-0.09,1.57-0.44,2.28c-0.45,0.45-1.08,0.65-1.7,0.56H14.6v0.84h7.31v-0.84h-0.18c-0.64,0.08-1.29-0.12-1.77-0.56
		c-0.34-0.71-0.47-1.5-0.39-2.28v-7.13l9.18,10.81h4.02v-0.84h-0.21C32,160.91,31.47,160.69,31.07,160.32 M156.46,160.37
		c-0.44-0.72-0.8-1.48-1.08-2.28l-6.97-17.86h-1.3l-6.71,17.86c-0.24,0.8-0.62,1.55-1.11,2.22c-0.29,0.4-0.76,0.63-1.26,0.62h-0.21
		v0.84h4.84v-0.84l-0.21-0.03c-0.86-0.11-1.29-0.43-1.29-0.98c0.11-0.6,0.28-1.18,0.51-1.74l1.18-3.21h8.57l1.21,3.12
		c0.29,0.64,0.49,1.31,0.62,2c0.03,0.25-0.07,0.5-0.26,0.67c-0.33,0.14-0.7,0.19-1.06,0.17h-0.24l0,0v0.84h5.84v-0.84h-0.18
		C157,160.92,156.65,160.7,156.46,160.37 M143.26,153.94l3.75-10.19l3.93,10.19H143.26z M61.14,160.93h-0.25v0.84h13.47l0.43-4.83
		h-1l-0.03,0.31c-0.09,0.91-0.38,1.78-0.85,2.56c-0.52,0.53-1.27,0.78-2.01,0.68H70.3c-1.21,0.09-2.42-0.08-3.55-0.51
		c-0.64-0.41-0.99-1.15-0.9-1.9v-14.18c-0.08-0.77,0.06-1.55,0.39-2.25c0.47-0.43,1.11-0.63,1.75-0.54h0.2v-0.87h-7.3v0.86h0.25
		c0.62-0.09,1.25,0.11,1.7,0.54c0.36,0.69,0.52,1.47,0.44,2.25v14.19c0.06,0.79-0.09,1.58-0.44,2.3
		C62.4,160.81,61.76,161.02,61.14,160.93 M55.97,161.77v-0.84h-0.18c-0.38-0.02-0.73-0.23-0.92-0.56c-0.44-0.72-0.8-1.48-1.08-2.28
		l-6.97-17.86h-1.3l-6.71,17.86c-0.24,0.8-0.62,1.55-1.11,2.22c-0.29,0.4-0.76,0.63-1.26,0.62h-0.21v0.84h4.84v-0.84l-0.21-0.03
		c-0.86-0.11-1.28-0.43-1.28-0.98c0.11-0.6,0.28-1.18,0.51-1.74l1.18-3.2h8.57l1.21,3.12c0.29,0.64,0.49,1.31,0.62,2
		c0.03,0.25-0.07,0.5-0.26,0.67c-0.33,0.14-0.69,0.19-1.05,0.17h-0.24v0.84H55.97z M41.67,153.94l3.75-10.19l3.94,10.19H41.67z
		 M86.85,141.1h0.18v-0.87h-7.31v0.86h0.23c0.63-0.09,1.26,0.11,1.73,0.54c0.36,0.69,0.52,1.47,0.44,2.25v14.22
		c0.09,0.79-0.06,1.58-0.44,2.28c-0.46,0.44-1.1,0.64-1.73,0.55h-0.23v0.83h7.31v-0.84h-0.18c-0.64,0.1-1.28-0.11-1.75-0.55
		c-0.34-0.71-0.49-1.5-0.41-2.28v-14.21c-0.08-0.77,0.06-1.55,0.41-2.25C85.57,141.2,86.21,141.01,86.85,141.1 M132.66,160.32
		c-0.77-0.67-1.49-1.4-2.14-2.19l-7.23-8.46l5.2-5.79c1.64-1.85,2.9-2.78,3.78-2.78h0.21v-0.87h-5.22v0.87h0.18
		c0.74,0,1.1,0.22,1.1,0.65c-0.34,0.81-0.85,1.53-1.49,2.13l-5.89,6.58v-6.58c-0.08-0.77,0.06-1.54,0.38-2.24
		c0.48-0.43,1.13-0.63,1.78-0.54h0.18v-0.87h-7.3v0.87h0.26c0.62-0.09,1.24,0.11,1.7,0.54c0.37,0.69,0.52,1.47,0.44,2.24v14.21
		c0.06,0.78-0.1,1.57-0.44,2.28c-0.44,0.45-1.07,0.66-1.7,0.56h-0.26v0.84h7.3v-0.84h-0.18c-0.65,0.08-1.3-0.12-1.78-0.56
		c-0.33-0.71-0.46-1.5-0.38-2.28v-7.13l9.18,10.8h4.02v-0.84h-0.21C133.59,160.91,133.07,160.7,132.66,160.32 M109.34,141.64
		L109.34,141.64c0.46-0.43,1.08-0.63,1.7-0.54h0.23v-0.86h-6.07v0.86h0.21c0.63-0.08,1.26,0.12,1.74,0.54
		c0.34,0.7,0.48,1.47,0.42,2.25v11.54l-11.84-15.19h-3.79v0.86h0.26c0.62,0,1.3,0.55,2.04,1.63l0.39,0.56v14.8
		c0.07,0.78-0.06,1.56-0.39,2.27c-0.46,0.44-1.09,0.65-1.72,0.56h-0.15v0.85h6.09v-0.85h-0.23c-0.62,0.07-1.24-0.14-1.7-0.56
		c-0.38-0.69-0.53-1.49-0.44-2.27v-13.03l12.81,16.71v-17.89C108.85,143.11,109,142.34,109.34,141.64 M13.77,131.21h144.76v-1.09
		H13.77V131.21z M13.77,134.1h144.76v-1.09H13.77V134.1z M20.11,176.48c-0.3-0.44-0.59-0.87-0.86-1.29c0.41-0.16,0.74-0.39,0.97-0.7
		c0.24-0.31,0.35-0.71,0.35-1.2c0-0.34-0.06-0.64-0.19-0.89c-0.13-0.25-0.3-0.47-0.53-0.64c-0.23-0.17-0.5-0.3-0.81-0.38
		c-0.31-0.08-0.66-0.13-1.03-0.13c-0.18,0-0.37,0.01-0.57,0.02c-0.2,0.01-0.39,0.02-0.58,0.03c-0.19,0.01-0.37,0.02-0.54,0.02
		c-0.17,0.01-0.33,0.01-0.46,0.01H14.8v0.39c0.22,0.12,0.49,0.22,0.83,0.29v5.73c-0.13,0.03-0.27,0.06-0.41,0.11
		c-0.14,0.04-0.28,0.11-0.43,0.19v0.38h3.12v-0.38c-0.11-0.05-0.23-0.11-0.35-0.16c-0.12-0.05-0.26-0.1-0.41-0.13v-2.37h0.82
		c0.18,0.47,0.39,0.95,0.63,1.43c0.24,0.49,0.52,0.91,0.83,1.28l0.44,0.33h1.69v-0.35l-0.49-0.32
		C20.73,177.35,20.41,176.92,20.11,176.48 M18.64,174.43c-0.25,0.25-0.54,0.37-0.89,0.37h-0.6v-2.83c0.13-0.04,0.3-0.06,0.51-0.06
		c0.19,0,0.37,0.03,0.53,0.08c0.16,0.06,0.31,0.14,0.43,0.25c0.12,0.11,0.22,0.26,0.29,0.44c0.07,0.18,0.1,0.39,0.1,0.64
		C19,173.81,18.88,174.18,18.64,174.43 M26.25,173.84c-0.2-0.22-0.45-0.37-0.75-0.47c-0.3-0.09-0.62-0.14-0.97-0.14
		c-0.8,0-1.43,0.23-1.88,0.68c-0.45,0.45-0.68,1.11-0.68,1.98c0,0.41,0.06,0.77,0.17,1.09c0.11,0.32,0.28,0.6,0.49,0.84
		c0.22,0.23,0.49,0.41,0.81,0.54c0.32,0.13,0.7,0.19,1.11,0.19c0.26,0,0.51-0.03,0.73-0.09c0.23-0.06,0.43-0.13,0.6-0.22
		c0.17-0.09,0.32-0.2,0.44-0.31c0.12-0.12,0.2-0.23,0.26-0.35l-0.19-0.2c-0.13,0.11-0.32,0.2-0.56,0.26
		c-0.24,0.07-0.47,0.1-0.69,0.1c-0.52,0-0.91-0.16-1.18-0.48c-0.27-0.32-0.4-0.74-0.41-1.28h3.11c0.09-0.51,0.09-0.94,0.01-1.29
		C26.59,174.34,26.45,174.06,26.25,173.84 M25.2,175.46h-1.62c0.02-0.33,0.05-0.59,0.1-0.81c0.05-0.21,0.11-0.38,0.19-0.51
		c0.08-0.13,0.17-0.21,0.27-0.26c0.1-0.05,0.22-0.07,0.36-0.07c0.3,0,0.51,0.14,0.61,0.43C25.21,174.52,25.24,174.93,25.2,175.46
		 M31.87,177.34c0-0.11-0.01-0.24-0.01-0.38c0-0.35,0.01-0.68,0.03-1.01c0.02-0.33,0.03-0.69,0.03-1.1c0-0.22-0.03-0.43-0.08-0.63
		c-0.05-0.19-0.15-0.37-0.29-0.51c-0.14-0.14-0.33-0.26-0.57-0.34c-0.24-0.08-0.56-0.13-0.94-0.13c-0.45,0-0.88,0.05-1.29,0.15
		c-0.41,0.1-0.74,0.24-0.99,0.41c0.01,0.12,0.04,0.23,0.07,0.36c0.03,0.12,0.07,0.24,0.11,0.36c0.04,0.12,0.09,0.23,0.14,0.33
		c0.05,0.1,0.1,0.2,0.16,0.28h0.45l0.48-1.22c0.18-0.07,0.37-0.1,0.58-0.1c0.34,0,0.56,0.13,0.66,0.4c0.1,0.27,0.13,0.7,0.07,1.28
		c-0.55,0.03-1.02,0.07-1.41,0.13c-0.39,0.06-0.71,0.15-0.95,0.28c-0.25,0.12-0.43,0.29-0.54,0.48c-0.12,0.2-0.17,0.45-0.17,0.75
		c0,0.22,0.04,0.41,0.12,0.58c0.08,0.17,0.19,0.32,0.33,0.44c0.14,0.12,0.31,0.22,0.5,0.28c0.19,0.07,0.4,0.1,0.62,0.1
		c0.21,0,0.4-0.03,0.57-0.09c0.17-0.06,0.32-0.14,0.44-0.24c0.12-0.1,0.23-0.21,0.31-0.33c0.08-0.13,0.14-0.26,0.17-0.39h0.05
		c0.01,0.22,0.02,0.41,0.03,0.57c0.01,0.16,0.05,0.31,0.12,0.47h0.35c0.11-0.01,0.25-0.03,0.4-0.06c0.15-0.02,0.3-0.05,0.45-0.09
		s0.3-0.08,0.44-0.12c0.14-0.04,0.25-0.08,0.33-0.12v-0.35l-0.7-0.1C31.88,177.56,31.87,177.45,31.87,177.34 M30.45,176.99
		c-0.02,0.07-0.05,0.15-0.09,0.23c-0.04,0.09-0.09,0.17-0.16,0.24c-0.07,0.08-0.16,0.14-0.26,0.19c-0.1,0.06-0.22,0.08-0.36,0.08
		c-0.22,0-0.38-0.07-0.51-0.21c-0.12-0.14-0.18-0.34-0.18-0.6c0-0.17,0.02-0.31,0.07-0.43c0.04-0.12,0.12-0.21,0.24-0.29
		c0.11-0.08,0.27-0.13,0.48-0.17c0.2-0.03,0.46-0.05,0.78-0.06V176.99z M35.19,170.81h-0.34c-0.14,0.01-0.3,0.03-0.48,0.06
		c-0.18,0.02-0.36,0.05-0.54,0.08c-0.18,0.03-0.35,0.07-0.5,0.11c-0.16,0.04-0.28,0.08-0.36,0.12v0.38l0.77,0.08v6.16
		c-0.22,0.05-0.45,0.14-0.67,0.24v0.38h2.8v-0.38c-0.22-0.11-0.45-0.19-0.67-0.24V170.81z M44.47,177.42
		c-0.02-0.17-0.04-0.34-0.07-0.5c-0.03-0.16-0.05-0.31-0.08-0.44h-0.42l-0.54,1.29H41.4v-2.63h1.24l0.45,0.8h0.32
		c0.03-0.35,0.05-0.73,0.05-1.14c0-0.41-0.02-0.77-0.05-1.1h-0.32l-0.45,0.78H41.4v-2.48h1.89l0.47,1.2h0.42
		c0.05-0.28,0.1-0.59,0.13-0.91c0.03-0.32,0.06-0.64,0.07-0.94h-5.33v0.39c0.11,0.07,0.25,0.13,0.4,0.18
		c0.15,0.05,0.3,0.09,0.43,0.12v5.73c-0.16,0.03-0.3,0.07-0.45,0.12c-0.14,0.05-0.27,0.11-0.38,0.17v0.38h5.48
		c0-0.15-0.01-0.31-0.01-0.49C44.5,177.76,44.49,177.59,44.47,177.42 M48.59,175.88c-0.19-0.14-0.39-0.26-0.61-0.37
		c-0.22-0.11-0.42-0.22-0.61-0.33c-0.19-0.11-0.34-0.22-0.47-0.35c-0.13-0.12-0.19-0.27-0.19-0.44c0-0.15,0.05-0.28,0.16-0.4
		c0.1-0.12,0.26-0.18,0.46-0.18c0.11,0,0.21,0,0.29,0.01c0.09,0.01,0.17,0.03,0.25,0.07l0.43,1.03h0.34
		c0.07-0.2,0.15-0.43,0.23-0.67c0.08-0.25,0.13-0.48,0.16-0.69c-0.24-0.1-0.51-0.18-0.83-0.24c-0.31-0.06-0.65-0.09-1.02-0.09
		c-0.26,0-0.51,0.03-0.73,0.1c-0.23,0.07-0.42,0.15-0.58,0.27c-0.16,0.11-0.29,0.25-0.39,0.42c-0.09,0.17-0.14,0.35-0.14,0.55
		c0,0.28,0.06,0.52,0.19,0.72c0.13,0.2,0.28,0.37,0.47,0.51c0.19,0.15,0.39,0.27,0.61,0.38c0.22,0.11,0.42,0.22,0.61,0.32
		c0.19,0.11,0.34,0.23,0.47,0.35c0.12,0.13,0.19,0.28,0.19,0.46c0,0.2-0.08,0.36-0.24,0.48c-0.16,0.11-0.34,0.17-0.54,0.17
		c-0.08,0-0.17,0-0.26-0.01c-0.09-0.01-0.17-0.04-0.25-0.1l-0.5-1.11h-0.35c-0.11,0.2-0.22,0.42-0.32,0.67
		c-0.1,0.25-0.16,0.5-0.17,0.74c0.25,0.12,0.55,0.22,0.89,0.28c0.35,0.07,0.68,0.1,1,0.1c0.63,0,1.14-0.13,1.52-0.4
		c0.38-0.27,0.57-0.63,0.57-1.1c0-0.26-0.06-0.49-0.19-0.68C48.93,176.18,48.77,176.01,48.59,175.88 M52.99,177.71
		c-0.15,0.02-0.29,0.03-0.41,0.03c-0.24,0-0.42-0.08-0.52-0.24c-0.1-0.16-0.16-0.45-0.16-0.87v-2.61h1.34v-0.66H51.9v-1.29h-0.34
		c-0.26,0.05-0.5,0.11-0.71,0.19c-0.21,0.08-0.35,0.14-0.4,0.18v0.82c-0.28,0.07-0.55,0.19-0.81,0.35v0.41h0.81v3.08
		c0,0.51,0.11,0.88,0.32,1.11c0.22,0.23,0.54,0.34,0.98,0.34c0.2,0,0.38-0.02,0.56-0.06c0.18-0.04,0.34-0.09,0.5-0.15
		c0.15-0.06,0.29-0.12,0.41-0.19c0.12-0.07,0.21-0.13,0.27-0.19l-0.07-0.33C53.28,177.66,53.14,177.69,52.99,177.71 M58.36,177.34
		c0-0.11-0.01-0.24-0.01-0.38c0-0.35,0.01-0.68,0.03-1.01c0.02-0.33,0.03-0.69,0.03-1.1c0-0.22-0.03-0.43-0.08-0.63
		c-0.05-0.19-0.15-0.37-0.29-0.51c-0.14-0.14-0.33-0.26-0.57-0.34c-0.24-0.08-0.56-0.13-0.94-0.13c-0.45,0-0.88,0.05-1.29,0.15
		c-0.41,0.1-0.74,0.24-0.99,0.41c0.01,0.12,0.04,0.23,0.07,0.36c0.03,0.12,0.07,0.24,0.11,0.36c0.04,0.12,0.09,0.23,0.14,0.33
		c0.05,0.1,0.1,0.2,0.16,0.28h0.45l0.48-1.22c0.18-0.07,0.37-0.1,0.58-0.1c0.34,0,0.56,0.13,0.66,0.4c0.1,0.27,0.13,0.7,0.07,1.28
		c-0.55,0.03-1.02,0.07-1.41,0.13c-0.39,0.06-0.71,0.15-0.95,0.28c-0.25,0.12-0.43,0.29-0.54,0.48c-0.12,0.2-0.17,0.45-0.17,0.75
		c0,0.22,0.04,0.41,0.12,0.58c0.08,0.17,0.19,0.32,0.33,0.44c0.14,0.12,0.31,0.22,0.5,0.28c0.19,0.07,0.4,0.1,0.62,0.1
		c0.21,0,0.4-0.03,0.57-0.09c0.17-0.06,0.32-0.14,0.44-0.24c0.12-0.1,0.23-0.21,0.31-0.33c0.08-0.13,0.14-0.26,0.17-0.39h0.05
		c0.01,0.22,0.02,0.41,0.03,0.57c0.01,0.16,0.05,0.31,0.12,0.47h0.35c0.11-0.01,0.25-0.03,0.4-0.06c0.15-0.02,0.3-0.05,0.45-0.09
		s0.3-0.08,0.44-0.12c0.14-0.04,0.25-0.08,0.33-0.12v-0.35l-0.7-0.1C58.37,177.56,58.36,177.45,58.36,177.34 M56.94,176.99
		c-0.02,0.07-0.05,0.15-0.09,0.23c-0.04,0.09-0.09,0.17-0.16,0.24c-0.07,0.08-0.16,0.14-0.26,0.19c-0.1,0.06-0.22,0.08-0.36,0.08
		c-0.22,0-0.38-0.07-0.51-0.21c-0.12-0.14-0.18-0.34-0.18-0.6c0-0.17,0.02-0.31,0.07-0.43c0.04-0.12,0.12-0.21,0.24-0.29
		c0.11-0.08,0.27-0.13,0.48-0.17c0.2-0.03,0.46-0.05,0.78-0.06V176.99z M62.67,177.71c-0.15,0.02-0.29,0.03-0.41,0.03
		c-0.24,0-0.42-0.08-0.52-0.24c-0.1-0.16-0.16-0.45-0.16-0.87v-2.61h1.34v-0.66h-1.34v-1.29h-0.34c-0.26,0.05-0.5,0.11-0.71,0.19
		c-0.21,0.08-0.35,0.14-0.4,0.18v0.82c-0.28,0.07-0.55,0.19-0.81,0.35v0.41h0.81v3.08c0,0.51,0.11,0.88,0.32,1.11
		c0.22,0.23,0.54,0.34,0.98,0.34c0.2,0,0.38-0.02,0.56-0.06c0.18-0.04,0.34-0.09,0.5-0.15c0.15-0.06,0.29-0.12,0.4-0.19
		c0.12-0.07,0.21-0.13,0.27-0.19l-0.07-0.33C62.96,177.66,62.82,177.69,62.67,177.71 M67.87,173.84c-0.2-0.22-0.45-0.37-0.75-0.47
		c-0.3-0.09-0.62-0.14-0.97-0.14c-0.8,0-1.43,0.23-1.88,0.68c-0.45,0.45-0.68,1.11-0.68,1.98c0,0.41,0.06,0.77,0.17,1.09
		c0.11,0.32,0.27,0.6,0.49,0.84c0.22,0.23,0.49,0.41,0.81,0.54c0.32,0.13,0.7,0.19,1.11,0.19c0.26,0,0.51-0.03,0.73-0.09
		c0.23-0.06,0.43-0.13,0.6-0.22c0.17-0.09,0.32-0.2,0.44-0.31c0.12-0.12,0.2-0.23,0.26-0.35l-0.19-0.2
		c-0.13,0.11-0.32,0.2-0.56,0.26c-0.24,0.07-0.47,0.1-0.69,0.1c-0.52,0-0.91-0.16-1.18-0.48c-0.27-0.32-0.4-0.74-0.41-1.28h3.11
		c0.09-0.51,0.09-0.94,0.01-1.29C68.21,174.34,68.07,174.06,67.87,173.84 M66.81,175.46h-1.62c0.02-0.33,0.05-0.59,0.1-0.81
		c0.05-0.21,0.11-0.38,0.19-0.51c0.08-0.13,0.17-0.21,0.27-0.26c0.1-0.05,0.22-0.07,0.36-0.07c0.3,0,0.51,0.14,0.61,0.43
		C66.83,174.52,66.86,174.93,66.81,175.46 M77.48,177.17c-0.02-0.17-0.04-0.33-0.06-0.49c-0.02-0.15-0.05-0.28-0.08-0.39h-0.42
		l-0.5,1.42c-0.05,0.06-0.14,0.1-0.27,0.13c-0.13,0.03-0.29,0.05-0.48,0.05c-0.66,0-1.19-0.26-1.57-0.78
		c-0.38-0.52-0.58-1.26-0.58-2.23c0-0.53,0.05-0.99,0.16-1.37c0.11-0.38,0.26-0.69,0.45-0.94c0.19-0.24,0.41-0.42,0.65-0.53
		c0.24-0.11,0.5-0.17,0.78-0.17c0.14,0,0.28,0.01,0.42,0.03c0.13,0.02,0.23,0.05,0.29,0.08l0.56,1.53h0.43
		c0.03-0.12,0.06-0.27,0.09-0.45c0.03-0.18,0.06-0.36,0.08-0.55c0.02-0.19,0.04-0.36,0.05-0.53c0.01-0.17,0.01-0.31,0.01-0.42
		c-0.23-0.11-0.53-0.19-0.89-0.26c-0.36-0.06-0.77-0.1-1.21-0.1c-0.47,0-0.92,0.07-1.35,0.21c-0.43,0.14-0.81,0.36-1.13,0.65
		c-0.32,0.3-0.58,0.68-0.77,1.14c-0.19,0.46-0.29,1.01-0.29,1.66c0,0.65,0.09,1.2,0.26,1.67c0.18,0.46,0.42,0.85,0.74,1.14
		c0.32,0.3,0.71,0.52,1.16,0.66c0.46,0.14,0.96,0.21,1.53,0.21c0.37,0,0.73-0.03,1.09-0.09c0.35-0.06,0.65-0.17,0.89-0.32
		c0-0.13,0-0.29-0.01-0.45C77.5,177.52,77.49,177.35,77.48,177.17 M83.13,173.98c-0.22-0.23-0.5-0.42-0.84-0.55
		c-0.34-0.13-0.75-0.2-1.22-0.2c-0.42,0-0.79,0.06-1.13,0.18c-0.33,0.12-0.61,0.3-0.85,0.53c-0.23,0.23-0.41,0.51-0.54,0.84
		c-0.13,0.33-0.19,0.7-0.19,1.11c0,0.38,0.05,0.74,0.16,1.07c0.11,0.33,0.27,0.61,0.5,0.84c0.22,0.23,0.5,0.42,0.84,0.55
		c0.34,0.13,0.74,0.2,1.2,0.2c0.42,0,0.8-0.06,1.13-0.18c0.33-0.12,0.62-0.3,0.85-0.53c0.23-0.23,0.41-0.51,0.53-0.84
		c0.12-0.33,0.18-0.7,0.18-1.11c0-0.38-0.05-0.74-0.15-1.07C83.51,174.49,83.35,174.21,83.13,173.98 M82.13,176.85
		c-0.04,0.26-0.11,0.47-0.2,0.63c-0.09,0.16-0.19,0.27-0.31,0.34c-0.12,0.07-0.26,0.11-0.41,0.11c-0.26,0-0.47-0.05-0.63-0.15
		c-0.16-0.1-0.29-0.23-0.39-0.41c-0.09-0.18-0.16-0.39-0.2-0.64c-0.04-0.25-0.06-0.53-0.06-0.84c0-0.38,0.02-0.7,0.07-0.96
		c0.04-0.26,0.11-0.47,0.2-0.63c0.09-0.16,0.2-0.27,0.32-0.35c0.13-0.07,0.28-0.11,0.46-0.11c0.24,0,0.43,0.05,0.59,0.15
		c0.16,0.1,0.28,0.23,0.37,0.41c0.09,0.18,0.16,0.39,0.19,0.64c0.04,0.25,0.06,0.53,0.06,0.84
		C82.19,176.27,82.17,176.59,82.13,176.85 M89.81,175.37c0-0.42-0.04-0.77-0.12-1.04c-0.08-0.27-0.19-0.49-0.33-0.65
		c-0.14-0.16-0.32-0.28-0.53-0.34c-0.21-0.06-0.45-0.1-0.71-0.1c-0.41,0-0.75,0.1-1.03,0.31c-0.28,0.21-0.5,0.45-0.64,0.73h-0.01
		v-1.04h-0.34c-0.14,0.01-0.3,0.03-0.47,0.06c-0.17,0.02-0.34,0.05-0.51,0.09c-0.17,0.03-0.32,0.07-0.46,0.11
		c-0.14,0.04-0.26,0.08-0.34,0.12v0.38l0.67,0.08v3.73c-0.28,0.07-0.5,0.16-0.67,0.24v0.38H87v-0.38c-0.09-0.06-0.18-0.11-0.27-0.15
		c-0.08-0.04-0.18-0.07-0.29-0.1v-2.82c0.09-0.28,0.23-0.51,0.42-0.68c0.19-0.17,0.41-0.25,0.66-0.25c0.31,0,0.53,0.12,0.65,0.36
		c0.12,0.24,0.18,0.57,0.18,1v2.39c-0.12,0.04-0.21,0.08-0.3,0.12c-0.08,0.04-0.17,0.08-0.26,0.13v0.38h2.69v-0.38
		c-0.18-0.12-0.4-0.2-0.67-0.24V175.37z M94.23,175.88c-0.19-0.14-0.39-0.26-0.61-0.37c-0.22-0.11-0.42-0.22-0.61-0.33
		c-0.19-0.11-0.34-0.22-0.47-0.35c-0.13-0.12-0.19-0.27-0.19-0.44c0-0.15,0.05-0.28,0.16-0.4c0.1-0.12,0.26-0.18,0.46-0.18
		c0.11,0,0.21,0,0.29,0.01c0.09,0.01,0.17,0.03,0.25,0.07l0.43,1.03h0.34c0.07-0.2,0.15-0.43,0.23-0.67
		c0.08-0.25,0.14-0.48,0.16-0.69c-0.24-0.1-0.51-0.18-0.83-0.24c-0.31-0.06-0.65-0.09-1.02-0.09c-0.26,0-0.51,0.03-0.73,0.1
		c-0.23,0.07-0.42,0.15-0.58,0.27c-0.16,0.11-0.29,0.25-0.38,0.42c-0.09,0.17-0.14,0.35-0.14,0.55c0,0.28,0.06,0.52,0.19,0.72
		c0.13,0.2,0.28,0.37,0.47,0.51c0.19,0.15,0.39,0.27,0.61,0.38c0.22,0.11,0.42,0.22,0.61,0.32c0.19,0.11,0.34,0.23,0.47,0.35
		c0.12,0.13,0.19,0.28,0.19,0.46c0,0.2-0.08,0.36-0.24,0.48c-0.16,0.11-0.34,0.17-0.54,0.17c-0.08,0-0.17,0-0.26-0.01
		c-0.09-0.01-0.17-0.04-0.25-0.1l-0.5-1.11h-0.35c-0.11,0.2-0.22,0.42-0.32,0.67c-0.1,0.25-0.16,0.5-0.17,0.74
		c0.25,0.12,0.55,0.22,0.89,0.28c0.35,0.07,0.68,0.1,1,0.1c0.64,0,1.14-0.13,1.52-0.4c0.38-0.27,0.57-0.63,0.57-1.1
		c0-0.26-0.06-0.49-0.19-0.68C94.57,176.18,94.41,176.01,94.23,175.88 M100.63,173.24h-0.35c-0.12,0.01-0.26,0.03-0.43,0.06
		c-0.16,0.02-0.33,0.05-0.49,0.08c-0.17,0.03-0.32,0.06-0.48,0.11c-0.15,0.04-0.28,0.08-0.38,0.12v0.38l0.66,0.08v2.66
		c-0.11,0.35-0.26,0.61-0.44,0.77c-0.18,0.16-0.37,0.24-0.58,0.24c-0.3,0-0.51-0.12-0.62-0.36c-0.11-0.24-0.17-0.64-0.17-1.2
		c0-0.47,0.01-0.95,0.03-1.44c0.02-0.49,0.03-0.99,0.03-1.49h-0.34c-0.11,0.01-0.24,0.03-0.4,0.06c-0.16,0.02-0.32,0.05-0.49,0.08
		c-0.17,0.03-0.33,0.06-0.49,0.11c-0.16,0.04-0.29,0.08-0.4,0.12v0.38l0.67,0.08c0,0.41-0.01,0.79-0.03,1.16
		c-0.02,0.37-0.03,0.76-0.03,1.19c0,0.42,0.04,0.77,0.11,1.04c0.07,0.27,0.18,0.49,0.32,0.65c0.14,0.16,0.31,0.28,0.51,0.34
		c0.2,0.06,0.43,0.1,0.68,0.1c0.23,0,0.44-0.04,0.63-0.11c0.19-0.07,0.35-0.17,0.49-0.29c0.14-0.12,0.25-0.25,0.34-0.4
		c0.09-0.14,0.15-0.29,0.18-0.43h0.04l0.07,1.21h0.34c0.12-0.01,0.26-0.03,0.41-0.06c0.15-0.02,0.31-0.05,0.46-0.09
		c0.16-0.04,0.3-0.08,0.45-0.12c0.14-0.04,0.26-0.08,0.35-0.12v-0.35l-0.67-0.08V173.24z M103.93,170.81h-0.34
		c-0.14,0.01-0.3,0.03-0.48,0.06c-0.18,0.02-0.36,0.05-0.54,0.08c-0.18,0.03-0.35,0.07-0.5,0.11c-0.16,0.04-0.28,0.08-0.37,0.12
		v0.38l0.77,0.08v6.16c-0.22,0.05-0.45,0.14-0.67,0.24v0.38h2.8v-0.38c-0.22-0.11-0.45-0.19-0.67-0.24V170.81z M108.29,177.71
		c-0.15,0.02-0.29,0.03-0.41,0.03c-0.24,0-0.42-0.08-0.52-0.24c-0.1-0.16-0.16-0.45-0.16-0.87v-2.61h1.34v-0.66h-1.34v-1.29h-0.34
		c-0.26,0.05-0.5,0.11-0.71,0.19c-0.21,0.08-0.35,0.14-0.4,0.18v0.82c-0.28,0.07-0.55,0.19-0.81,0.35v0.41h0.81v3.08
		c0,0.51,0.11,0.88,0.32,1.11c0.22,0.23,0.54,0.34,0.98,0.34c0.2,0,0.38-0.02,0.56-0.06c0.18-0.04,0.34-0.09,0.5-0.15
		c0.15-0.06,0.29-0.12,0.4-0.19c0.12-0.07,0.21-0.13,0.27-0.19l-0.07-0.33C108.58,177.66,108.44,177.69,108.29,177.71
		 M111.33,177.79v-4.56h-0.34c-0.12,0.01-0.26,0.03-0.43,0.06c-0.16,0.02-0.33,0.05-0.5,0.08c-0.17,0.03-0.33,0.06-0.48,0.11
		c-0.15,0.04-0.28,0.08-0.38,0.12v0.38l0.67,0.08v3.73c-0.13,0.03-0.25,0.07-0.35,0.11c-0.11,0.04-0.21,0.08-0.31,0.14v0.38h2.8
		v-0.38c-0.09-0.06-0.2-0.1-0.3-0.14C111.59,177.86,111.47,177.83,111.33,177.79 M110.58,170.94c-0.25,0-0.46,0.07-0.62,0.2
		c-0.16,0.14-0.24,0.32-0.24,0.56c0,0.23,0.08,0.41,0.24,0.55c0.16,0.13,0.37,0.2,0.62,0.2c0.25,0,0.46-0.07,0.62-0.2
		c0.16-0.14,0.24-0.32,0.24-0.55c0-0.24-0.08-0.42-0.24-0.56C111.05,171.01,110.84,170.94,110.58,170.94 M117.99,175.37
		c0-0.42-0.04-0.77-0.12-1.04c-0.08-0.27-0.19-0.49-0.33-0.65c-0.14-0.16-0.32-0.28-0.53-0.34c-0.21-0.06-0.45-0.1-0.71-0.1
		c-0.41,0-0.75,0.1-1.03,0.31c-0.28,0.21-0.5,0.45-0.64,0.73h-0.01v-1.04h-0.34c-0.14,0.01-0.3,0.03-0.47,0.06
		c-0.17,0.02-0.34,0.05-0.51,0.09c-0.17,0.03-0.32,0.07-0.46,0.11c-0.14,0.04-0.26,0.08-0.34,0.12v0.38l0.67,0.08v3.73
		c-0.28,0.07-0.5,0.16-0.67,0.24v0.38h2.69v-0.38c-0.09-0.06-0.18-0.11-0.27-0.15c-0.09-0.04-0.18-0.07-0.29-0.1v-2.82
		c0.09-0.28,0.23-0.51,0.42-0.68c0.19-0.17,0.41-0.25,0.66-0.25c0.31,0,0.53,0.12,0.65,0.36c0.12,0.24,0.18,0.57,0.18,1v2.39
		c-0.12,0.04-0.21,0.08-0.3,0.12c-0.08,0.04-0.17,0.08-0.26,0.13v0.38h2.68v-0.38c-0.18-0.12-0.4-0.2-0.67-0.24V175.37z
		 M124.57,173.35c-0.03-0.07-0.07-0.14-0.12-0.21c-0.05-0.06-0.1-0.11-0.14-0.15c-0.41,0.14-0.78,0.37-1.09,0.72
		c-0.15-0.14-0.37-0.25-0.66-0.34c-0.29-0.09-0.66-0.14-1.09-0.14c-0.72,0-1.28,0.14-1.7,0.43c-0.42,0.28-0.63,0.68-0.63,1.19
		c0,0.43,0.13,0.77,0.38,1.05c0.25,0.27,0.59,0.46,1.01,0.55c-0.1,0.04-0.2,0.09-0.3,0.15c-0.1,0.06-0.2,0.12-0.28,0.19
		c-0.09,0.07-0.16,0.15-0.21,0.23c-0.05,0.08-0.08,0.17-0.08,0.26c0,0.1,0.02,0.19,0.07,0.27c0.05,0.08,0.11,0.15,0.18,0.2
		c0.07,0.06,0.16,0.11,0.25,0.15c0.09,0.04,0.19,0.08,0.29,0.1c-0.22,0.05-0.41,0.11-0.59,0.18c-0.18,0.07-0.34,0.15-0.47,0.25
		c-0.13,0.1-0.24,0.22-0.31,0.35c-0.07,0.14-0.11,0.3-0.11,0.49c0,0.17,0.05,0.33,0.14,0.49c0.09,0.16,0.23,0.29,0.43,0.42
		c0.2,0.12,0.45,0.22,0.77,0.29c0.31,0.07,0.69,0.11,1.14,0.11c0.38,0,0.73-0.04,1.07-0.12c0.33-0.08,0.62-0.19,0.87-0.33
		c0.25-0.15,0.44-0.32,0.58-0.53c0.14-0.21,0.21-0.45,0.2-0.72c-0.01-0.28-0.1-0.51-0.26-0.69c-0.17-0.18-0.38-0.32-0.63-0.44
		c-0.25-0.11-0.52-0.2-0.81-0.27c-0.29-0.07-0.56-0.13-0.81-0.18c-0.25-0.05-0.46-0.11-0.62-0.18c-0.16-0.07-0.24-0.16-0.24-0.27
		c0-0.06,0.02-0.11,0.05-0.17c0.03-0.06,0.06-0.11,0.09-0.15c0.07,0.01,0.15,0.02,0.24,0.03c0.09,0,0.19,0.01,0.31,0.01
		c0.39,0,0.73-0.04,1.03-0.13c0.29-0.09,0.54-0.21,0.73-0.36c0.19-0.15,0.34-0.33,0.43-0.52c0.1-0.2,0.14-0.41,0.14-0.63
		c0-0.21-0.03-0.39-0.1-0.54c-0.06-0.15-0.13-0.27-0.21-0.37h1.06l0.13-0.24c0-0.05-0.01-0.11-0.03-0.18
		C124.63,173.5,124.6,173.42,124.57,173.35 M120.89,178.12c0.22,0.07,0.43,0.13,0.65,0.18c0.22,0.05,0.42,0.11,0.59,0.18
		c0.18,0.07,0.32,0.16,0.43,0.27c0.11,0.11,0.17,0.26,0.17,0.44c0,0.22-0.09,0.4-0.27,0.56c-0.18,0.16-0.46,0.24-0.84,0.24
		c-0.39,0-0.68-0.09-0.9-0.26c-0.21-0.17-0.32-0.41-0.32-0.72c0-0.19,0.04-0.35,0.11-0.49
		C120.59,178.39,120.71,178.26,120.89,178.12 M122.14,175.69c-0.12,0.19-0.35,0.28-0.68,0.28c-0.35,0-0.58-0.09-0.69-0.27
		c-0.12-0.18-0.18-0.45-0.18-0.8c0-0.37,0.06-0.65,0.18-0.82c0.12-0.18,0.35-0.26,0.69-0.26c0.32,0,0.55,0.09,0.68,0.27
		c0.13,0.18,0.19,0.45,0.19,0.82C122.33,175.24,122.27,175.51,122.14,175.69 M131.54,175.41c0.14,0.08,0.28,0.14,0.44,0.19
		c0.16,0.05,0.32,0.09,0.5,0.1v1.9c-0.03,0.03-0.08,0.06-0.15,0.09c-0.07,0.03-0.15,0.06-0.25,0.09c-0.09,0.03-0.2,0.05-0.3,0.07
		c-0.11,0.02-0.21,0.03-0.31,0.03c-0.32,0-0.61-0.07-0.87-0.22c-0.26-0.15-0.49-0.35-0.68-0.62c-0.19-0.26-0.34-0.58-0.44-0.95
		c-0.1-0.37-0.16-0.77-0.16-1.22c0-0.55,0.06-1.01,0.17-1.39c0.11-0.38,0.27-0.69,0.47-0.93c0.2-0.24,0.42-0.41,0.68-0.52
		c0.26-0.11,0.52-0.16,0.8-0.16c0.15,0,0.3,0.01,0.45,0.03c0.15,0.02,0.26,0.04,0.33,0.08l0.57,1.54h0.42
		c0.04-0.15,0.08-0.31,0.11-0.5c0.03-0.18,0.06-0.36,0.08-0.55c0.02-0.18,0.04-0.35,0.05-0.51c0.01-0.16,0.02-0.29,0.02-0.39
		c-0.23-0.11-0.54-0.2-0.93-0.26c-0.39-0.06-0.81-0.09-1.26-0.09c-0.45,0-0.89,0.07-1.33,0.2c-0.43,0.13-0.82,0.35-1.16,0.64
		c-0.34,0.29-0.61,0.67-0.82,1.13c-0.21,0.46-0.31,1.02-0.31,1.69c0,0.61,0.08,1.14,0.25,1.6c0.17,0.46,0.41,0.84,0.73,1.15
		c0.32,0.31,0.71,0.54,1.17,0.69c0.46,0.15,0.97,0.23,1.55,0.23c0.17,0,0.36-0.02,0.58-0.05c0.22-0.03,0.43-0.08,0.65-0.13
		c0.22-0.05,0.42-0.11,0.62-0.18c0.2-0.07,0.36-0.14,0.5-0.2v-2.27c0.15-0.03,0.28-0.08,0.38-0.13c0.1-0.05,0.18-0.11,0.24-0.17
		v-0.38h-2.77V175.41z M138.42,173.24c-0.18-0.01-0.36,0.03-0.53,0.11c-0.17,0.08-0.32,0.19-0.47,0.32
		c-0.14,0.14-0.26,0.28-0.37,0.45c-0.11,0.16-0.18,0.32-0.24,0.46h-0.04v-1.35h-0.34c-0.11,0.01-0.24,0.03-0.4,0.05
		c-0.16,0.02-0.32,0.05-0.49,0.08c-0.17,0.03-0.33,0.07-0.49,0.11c-0.16,0.04-0.29,0.08-0.4,0.13v0.38l0.67,0.08v3.73
		c-0.11,0.03-0.22,0.06-0.32,0.09c-0.11,0.03-0.22,0.08-0.34,0.15v0.38h2.94v-0.38c-0.13-0.08-0.27-0.13-0.4-0.17
		c-0.14-0.04-0.27-0.06-0.41-0.08v-2.6c0.09-0.22,0.19-0.37,0.29-0.47c0.11-0.09,0.2-0.16,0.28-0.2h1.39v-0.39
		c-0.03-0.16-0.08-0.32-0.13-0.49C138.56,173.46,138.49,173.33,138.42,173.24 M143.86,173.98c-0.22-0.23-0.5-0.42-0.84-0.55
		c-0.34-0.13-0.75-0.2-1.22-0.2c-0.42,0-0.79,0.06-1.12,0.18c-0.33,0.12-0.61,0.3-0.85,0.53c-0.23,0.23-0.41,0.51-0.54,0.84
		c-0.12,0.33-0.19,0.7-0.19,1.11c0,0.38,0.05,0.74,0.16,1.07c0.11,0.33,0.27,0.61,0.5,0.84c0.22,0.23,0.5,0.42,0.84,0.55
		c0.34,0.13,0.74,0.2,1.2,0.2c0.42,0,0.8-0.06,1.13-0.18c0.33-0.12,0.62-0.3,0.85-0.53c0.23-0.23,0.41-0.51,0.53-0.84
		c0.12-0.33,0.18-0.7,0.18-1.11c0-0.38-0.05-0.74-0.15-1.07C144.24,174.49,144.08,174.21,143.86,173.98 M142.85,176.85
		c-0.04,0.26-0.11,0.47-0.2,0.63c-0.09,0.16-0.19,0.27-0.31,0.34c-0.12,0.07-0.26,0.11-0.41,0.11c-0.26,0-0.47-0.05-0.63-0.15
		c-0.16-0.1-0.29-0.23-0.39-0.41c-0.1-0.18-0.16-0.39-0.2-0.64c-0.04-0.25-0.06-0.53-0.06-0.84c0-0.38,0.02-0.7,0.07-0.96
		c0.04-0.26,0.11-0.47,0.2-0.63c0.09-0.16,0.2-0.27,0.32-0.35c0.13-0.07,0.28-0.11,0.46-0.11c0.24,0,0.43,0.05,0.59,0.15
		c0.15,0.1,0.28,0.23,0.37,0.41c0.09,0.18,0.16,0.39,0.19,0.64c0.04,0.25,0.06,0.53,0.06,0.84
		C142.92,176.27,142.9,176.59,142.85,176.85 M150.25,173.24h-0.35c-0.12,0.01-0.26,0.03-0.43,0.06c-0.16,0.02-0.33,0.05-0.49,0.08
		c-0.17,0.03-0.32,0.06-0.48,0.11c-0.15,0.04-0.28,0.08-0.38,0.12v0.38l0.66,0.08v2.66c-0.11,0.35-0.26,0.61-0.44,0.77
		c-0.18,0.16-0.37,0.24-0.58,0.24c-0.3,0-0.51-0.12-0.62-0.36c-0.11-0.24-0.17-0.64-0.17-1.2c0-0.47,0.01-0.95,0.03-1.44
		c0.02-0.49,0.03-0.99,0.03-1.49h-0.34c-0.11,0.01-0.24,0.03-0.4,0.06c-0.16,0.02-0.32,0.05-0.49,0.08
		c-0.17,0.03-0.33,0.06-0.49,0.11c-0.16,0.04-0.29,0.08-0.4,0.12v0.38l0.67,0.08c0,0.41-0.01,0.79-0.03,1.16
		c-0.02,0.37-0.03,0.76-0.03,1.19c0,0.42,0.04,0.77,0.11,1.04c0.07,0.27,0.18,0.49,0.32,0.65c0.14,0.16,0.31,0.28,0.51,0.34
		c0.2,0.06,0.43,0.1,0.68,0.1c0.23,0,0.44-0.04,0.63-0.11c0.19-0.07,0.35-0.17,0.49-0.29c0.14-0.12,0.25-0.25,0.34-0.4
		c0.09-0.14,0.15-0.29,0.18-0.43h0.04l0.07,1.21h0.35c0.12-0.01,0.26-0.03,0.41-0.06c0.15-0.02,0.31-0.05,0.46-0.09
		c0.16-0.04,0.3-0.08,0.45-0.12c0.14-0.04,0.26-0.08,0.35-0.12v-0.35l-0.67-0.08V173.24z M156.44,173.84
		c-0.17-0.21-0.37-0.36-0.61-0.46c-0.24-0.1-0.51-0.15-0.81-0.15c-0.44,0-0.78,0.11-1.03,0.32c-0.25,0.22-0.43,0.49-0.54,0.81h-0.01
		v-1.14h-0.35c-0.11,0.01-0.24,0.03-0.4,0.05c-0.16,0.02-0.32,0.05-0.49,0.08c-0.17,0.03-0.33,0.07-0.49,0.11
		c-0.16,0.04-0.29,0.08-0.4,0.13v0.38l0.67,0.08v5.75c-0.22,0.05-0.44,0.13-0.67,0.24v0.39h2.8v-0.39
		c-0.12-0.08-0.24-0.13-0.35-0.17c-0.11-0.04-0.22-0.06-0.32-0.08v-1.48c0.15,0.07,0.29,0.13,0.42,0.16
		c0.13,0.03,0.31,0.05,0.54,0.05c0.4,0,0.75-0.06,1.07-0.19c0.31-0.13,0.58-0.31,0.8-0.55c0.22-0.24,0.39-0.53,0.51-0.87
		c0.12-0.34,0.18-0.73,0.18-1.15c0-0.45-0.05-0.83-0.14-1.15C156.73,174.31,156.61,174.05,156.44,173.84 M155.12,177.41
		c-0.18,0.37-0.47,0.56-0.85,0.56c-0.2,0-0.35-0.02-0.48-0.06c-0.12-0.04-0.24-0.1-0.34-0.18v-2.7c0.07-0.34,0.2-0.59,0.38-0.75
		c0.18-0.16,0.38-0.24,0.61-0.24c0.36,0,0.61,0.15,0.74,0.45c0.14,0.3,0.21,0.73,0.21,1.28C155.39,176.5,155.3,177.04,155.12,177.41
		"/>
	<path class="st1" d="M31.68,209.15h3.12v3.18c-0.03,0.04-0.08,0.1-0.15,0.18c-0.07,0.08-0.22,0.21-0.46,0.4
		c-0.24,0.19-0.49,0.36-0.76,0.5c-0.27,0.14-0.63,0.27-1.07,0.39c-0.44,0.12-0.9,0.18-1.37,0.18c-1.33,0-2.45-0.44-3.35-1.33
		c-0.9-0.89-1.35-1.97-1.35-3.25c0-1.28,0.45-2.36,1.35-3.25c0.9-0.89,2.02-1.33,3.35-1.33c0.45,0,0.88,0.06,1.3,0.18
		c0.41,0.12,0.76,0.26,1.03,0.43c0.27,0.17,0.51,0.34,0.71,0.5c0.2,0.17,0.35,0.31,0.45,0.43l0.14,0.17l-0.89,0.89
		c-0.03-0.03-0.06-0.08-0.11-0.14c-0.05-0.06-0.16-0.17-0.33-0.33c-0.17-0.16-0.35-0.29-0.55-0.41c-0.19-0.11-0.45-0.22-0.76-0.32
		c-0.31-0.1-0.64-0.15-0.99-0.15c-0.92,0-1.71,0.32-2.35,0.96c-0.64,0.64-0.96,1.42-0.96,2.34c0,0.92,0.32,1.71,0.96,2.35
		c0.64,0.64,1.42,0.96,2.35,0.96c0.31,0,0.6-0.03,0.88-0.09c0.28-0.06,0.51-0.13,0.69-0.22c0.18-0.09,0.33-0.18,0.47-0.27
		c0.13-0.09,0.23-0.16,0.29-0.22l0.09-0.09v-1.4h-1.72V209.15z"/>
	<path class="st1" d="M37.08,213.85v-8.9h3.75c0.82,0,1.51,0.26,2.05,0.79c0.54,0.53,0.81,1.18,0.81,1.95c0,0.36-0.06,0.7-0.19,1.02
		c-0.12,0.32-0.27,0.57-0.45,0.75c-0.17,0.18-0.35,0.34-0.52,0.48c-0.17,0.14-0.32,0.23-0.45,0.28l-0.18,0.08l2.04,3.56h-1.53
		l-1.91-3.43h-2.04v3.43H37.08z M41.87,208.73c0.28-0.28,0.42-0.63,0.42-1.04c0-0.42-0.14-0.76-0.42-1.04
		c-0.28-0.28-0.63-0.42-1.04-0.42h-2.35v2.92h2.35C41.24,209.15,41.59,209.01,41.87,208.73"/>
	<path class="st1" d="M46.82,212.65c-0.9-0.89-1.35-1.97-1.35-3.25c0-1.28,0.45-2.36,1.35-3.25c0.9-0.89,2.02-1.33,3.35-1.33
		s2.45,0.44,3.35,1.33c0.9,0.89,1.35,1.97,1.35,3.25c0,1.28-0.45,2.36-1.35,3.25c-0.9,0.89-2.02,1.33-3.35,1.33
		S47.73,213.53,46.82,212.65 M47.83,207.06c-0.64,0.64-0.96,1.42-0.96,2.34c0,0.92,0.32,1.71,0.96,2.35
		c0.64,0.64,1.42,0.96,2.35,0.96s1.71-0.32,2.35-0.96c0.64-0.64,0.96-1.42,0.96-2.35c0-0.92-0.32-1.7-0.96-2.34
		c-0.64-0.64-1.42-0.96-2.35-0.96S48.47,206.42,47.83,207.06"/>
	<path class="st1" d="M58.88,212c0.47,0.47,1.02,0.71,1.65,0.71c0.64,0,1.19-0.24,1.65-0.71c0.47-0.48,0.7-1.04,0.7-1.7v-5.35h1.4
		v5.35c0,1.02-0.36,1.89-1.1,2.6c-0.73,0.72-1.62,1.08-2.66,1.08c-1.04,0-1.93-0.36-2.66-1.08c-0.73-0.72-1.1-1.59-1.1-2.6v-5.35
		h1.4v5.35C58.19,210.96,58.42,211.53,58.88,212"/>
	<path class="st1" d="M66.7,204.95h3.56c0.85,0,1.56,0.28,2.13,0.84c0.57,0.56,0.86,1.23,0.86,2.03c0,0.8-0.29,1.47-0.86,2.03
		c-0.57,0.55-1.28,0.83-2.13,0.83H68.1v3.18h-1.4V204.95z M70.26,206.22H68.1v3.18h2.16c0.44,0,0.81-0.15,1.12-0.46
		c0.31-0.3,0.47-0.68,0.47-1.13c0-0.45-0.16-0.83-0.47-1.13C71.07,206.38,70.7,206.22,70.26,206.22"/>
	<path class="st1" d="M82.02,211.31c0-0.27-0.09-0.5-0.26-0.69c-0.17-0.18-0.4-0.33-0.67-0.43c-0.28-0.11-0.58-0.2-0.92-0.29
		c-0.34-0.08-0.67-0.19-1.01-0.31c-0.34-0.12-0.64-0.27-0.92-0.45s-0.5-0.42-0.67-0.74c-0.17-0.32-0.26-0.71-0.26-1.16
		c0-0.69,0.26-1.26,0.79-1.72c0.53-0.46,1.24-0.69,2.14-0.69c0.33,0,0.65,0.04,0.95,0.12c0.3,0.08,0.56,0.18,0.76,0.29
		c0.2,0.11,0.38,0.22,0.53,0.33c0.15,0.11,0.26,0.2,0.33,0.28l0.1,0.12l-0.89,0.89c-0.02-0.02-0.04-0.04-0.07-0.08
		c-0.03-0.04-0.1-0.1-0.21-0.19c-0.11-0.09-0.23-0.16-0.35-0.23c-0.13-0.07-0.29-0.13-0.5-0.18c-0.21-0.05-0.42-0.08-0.65-0.08
		c-0.46,0-0.83,0.11-1.11,0.34c-0.28,0.23-0.42,0.49-0.42,0.8c0,0.27,0.09,0.5,0.26,0.69c0.17,0.19,0.4,0.33,0.67,0.44
		c0.28,0.11,0.58,0.2,0.92,0.29c0.34,0.08,0.67,0.19,1.01,0.31c0.34,0.12,0.64,0.27,0.92,0.44c0.28,0.17,0.5,0.42,0.67,0.74
		c0.17,0.32,0.26,0.71,0.26,1.16c0,0.79-0.28,1.43-0.84,1.92c-0.56,0.5-1.34,0.75-2.33,0.75c-0.41,0-0.79-0.05-1.16-0.15
		c-0.37-0.1-0.67-0.21-0.9-0.35c-0.24-0.13-0.44-0.27-0.62-0.41c-0.17-0.14-0.3-0.25-0.38-0.34l-0.12-0.16l0.89-0.89
		c0.02,0.03,0.04,0.06,0.08,0.11c0.04,0.05,0.13,0.13,0.27,0.25c0.14,0.12,0.29,0.22,0.45,0.31c0.16,0.09,0.38,0.17,0.64,0.24
		c0.27,0.07,0.55,0.11,0.85,0.11c0.55,0,0.99-0.13,1.3-0.4C81.86,212.04,82.02,211.7,82.02,211.31"/>
	<rect x="85.32" y="204.95" class="st1" width="1.4" height="8.9"/>
	<polygon class="st1" points="95.42,204.95 96.82,204.95 96.82,213.85 95.62,213.85 90.66,207.43 90.66,213.85 89.26,213.85 
		89.26,204.95 90.46,204.95 95.42,211.38 	"/>
	<path class="st1" d="M103.57,204.82c0.45,0,0.88,0.06,1.3,0.18c0.41,0.12,0.76,0.26,1.03,0.43c0.27,0.17,0.51,0.34,0.71,0.5
		c0.2,0.17,0.35,0.31,0.45,0.43l0.14,0.17l-0.89,0.89c-0.02-0.03-0.06-0.08-0.11-0.14c-0.05-0.06-0.16-0.17-0.33-0.33
		c-0.17-0.16-0.35-0.29-0.55-0.41c-0.19-0.11-0.45-0.22-0.76-0.32c-0.31-0.1-0.64-0.15-0.99-0.15c-0.92,0-1.71,0.32-2.35,0.96
		c-0.64,0.64-0.96,1.42-0.96,2.34c0,0.92,0.32,1.71,0.96,2.35c0.64,0.64,1.42,0.96,2.35,0.96c0.35,0,0.68-0.05,1-0.15
		c0.32-0.1,0.58-0.21,0.79-0.35c0.21-0.14,0.39-0.27,0.55-0.41c0.16-0.13,0.28-0.25,0.36-0.34l0.1-0.16l0.89,0.89
		c-0.03,0.05-0.08,0.11-0.15,0.2c-0.07,0.08-0.22,0.22-0.45,0.43c-0.23,0.2-0.48,0.38-0.74,0.54c-0.26,0.16-0.61,0.3-1.03,0.43
		c-0.42,0.13-0.86,0.19-1.31,0.19c-1.33,0-2.45-0.44-3.35-1.33c-0.9-0.89-1.35-1.97-1.35-3.25c0-1.28,0.45-2.36,1.35-3.25
		C101.11,205.27,102.23,204.82,103.57,204.82"/>
	<polygon class="st1" points="110.43,212.58 115.45,212.58 115.45,213.85 109.03,213.85 109.03,204.95 115.33,204.95 115.33,206.22 
		110.43,206.22 110.43,208.58 114.31,208.58 114.31,209.85 110.43,209.85 	"/>
	<path class="st1" d="M121.04,204.95h1.08v8.9h-1.4v-6.74h-1.59v-0.96c0.53-0.06,0.94-0.19,1.22-0.38
		C120.63,205.58,120.86,205.31,121.04,204.95"/>
	<path class="st1" d="M127.21,210.93c-0.77,0-1.45-0.3-2.04-0.91c-0.59-0.61-0.89-1.32-0.89-2.15c0-0.83,0.31-1.55,0.93-2.15
		c0.62-0.6,1.37-0.9,2.25-0.9c0.88,0,1.63,0.3,2.25,0.9c0.62,0.6,0.93,1.32,0.93,2.15c0,0.34-0.06,0.68-0.18,1.02
		c-0.12,0.34-0.24,0.59-0.36,0.76l-0.17,0.25l-2.54,3.94h-1.4l1.98-3.06C127.76,210.89,127.5,210.93,127.21,210.93 M126.11,206.57
		c-0.37,0.36-0.55,0.8-0.55,1.3c0,0.51,0.18,0.94,0.55,1.3c0.37,0.36,0.82,0.54,1.35,0.54c0.53,0,0.99-0.18,1.35-0.54
		c0.37-0.36,0.55-0.79,0.55-1.3c0-0.51-0.18-0.94-0.55-1.3c-0.37-0.36-0.82-0.54-1.35-0.54
		C126.93,206.03,126.47,206.21,126.11,206.57"/>
	<path class="st1" d="M134.96,210.93c-0.77,0-1.45-0.3-2.04-0.91c-0.59-0.61-0.89-1.32-0.89-2.15c0-0.83,0.31-1.55,0.93-2.15
		c0.62-0.6,1.37-0.9,2.25-0.9c0.88,0,1.63,0.3,2.25,0.9c0.62,0.6,0.93,1.32,0.93,2.15c0,0.34-0.06,0.68-0.18,1.02
		c-0.12,0.34-0.24,0.59-0.36,0.76l-0.17,0.25l-2.54,3.94h-1.4l1.98-3.06C135.51,210.89,135.26,210.93,134.96,210.93 M133.86,206.57
		c-0.37,0.36-0.55,0.8-0.55,1.3c0,0.51,0.18,0.94,0.55,1.3c0.37,0.36,0.82,0.54,1.35,0.54c0.53,0,0.99-0.18,1.35-0.54
		c0.37-0.36,0.55-0.79,0.55-1.3c0-0.51-0.18-0.94-0.55-1.3c-0.37-0.36-0.82-0.54-1.35-0.54
		C134.68,206.03,134.23,206.21,133.86,206.57"/>
	<path class="st1" d="M142.72,210.93c-0.77,0-1.45-0.3-2.04-0.91c-0.59-0.61-0.89-1.32-0.89-2.15c0-0.83,0.31-1.55,0.93-2.15
		c0.62-0.6,1.37-0.9,2.25-0.9s1.63,0.3,2.25,0.9c0.62,0.6,0.93,1.32,0.93,2.15c0,0.34-0.06,0.68-0.18,1.02
		c-0.12,0.34-0.24,0.59-0.36,0.76l-0.17,0.25l-2.54,3.94h-1.4l1.98-3.06C143.27,210.89,143.01,210.93,142.72,210.93 M141.62,206.57
		c-0.37,0.36-0.55,0.8-0.55,1.3c0,0.51,0.18,0.94,0.55,1.3c0.37,0.36,0.82,0.54,1.35,0.54c0.53,0,0.99-0.18,1.35-0.54
		c0.37-0.36,0.55-0.79,0.55-1.3c0-0.51-0.18-0.94-0.55-1.3c-0.37-0.36-0.82-0.54-1.35-0.54
		C142.44,206.03,141.99,206.21,141.62,206.57"/>
	<path class="st1" d="M75.76,321.56h-37.3c0-3.17,0.61-6.1,1.82-8.78c1.21-2.68,2.8-4.98,4.76-6.91c1.96-1.93,4.11-3.75,6.46-5.46
		c2.35-1.71,4.69-3.36,7.04-4.95c2.35-1.59,4.49-3.19,6.44-4.8c1.95-1.61,3.52-3.48,4.74-5.59c1.21-2.11,1.82-4.35,1.82-6.73
		c0-3.56-1.33-6.58-3.99-9.05c-2.66-2.47-6.13-3.7-10.41-3.7c-2.21,0-4.19,0.37-5.94,1.12c-1.75,0.75-3.11,1.62-4.08,2.63
		c-0.97,1.01-1.77,2.04-2.42,3.08c-0.65,1.05-1.06,1.95-1.22,2.69l-0.33,1.08l-3.81-1.7c0.05-0.33,0.18-0.79,0.37-1.39
		c0.19-0.59,0.73-1.66,1.61-3.19c0.88-1.53,1.92-2.86,3.1-3.97c1.19-1.12,2.9-2.16,5.15-3.13c2.25-0.97,4.77-1.45,7.56-1.45
		c5.38,0,9.83,1.67,13.35,5.01c3.52,3.34,5.28,7.33,5.28,11.96c0,2.59-0.54,5.01-1.61,7.24c-1.08,2.24-2.47,4.18-4.18,5.84
		c-1.71,1.66-3.64,3.26-5.8,4.82c-2.15,1.56-4.35,3.1-6.58,4.64c-2.24,1.53-4.33,3.07-6.27,4.62c-1.95,1.55-3.67,3.34-5.17,5.38
		c-1.5,2.04-2.5,4.2-3,6.46h32.62V321.56z"/>
	<path class="st1" d="M125.23,269.8c4.61,5.62,6.91,12.98,6.91,22.09c0,9.11-2.3,16.47-6.91,22.08c-4.61,5.62-9.93,8.42-15.98,8.42
		c-6.04,0-11.37-2.81-15.98-8.42c-4.61-5.62-6.91-12.98-6.91-22.08c0-9.11,2.3-16.47,6.91-22.09c4.61-5.62,9.94-8.42,15.98-8.42
		C115.29,261.37,120.62,264.18,125.23,269.8 M96.21,272.72c-3.73,4.75-5.59,11.14-5.59,19.17s1.86,14.42,5.59,19.17
		c3.73,4.75,8.07,7.12,13.04,7.12c4.97,0,9.32-2.37,13.06-7.12c3.74-4.75,5.61-11.14,5.61-19.17s-1.87-14.42-5.61-19.17
		c-3.74-4.75-8.09-7.12-13.06-7.12C104.28,265.6,99.93,267.97,96.21,272.72"/>
	<path class="st1" d="M44.66,337.61v8.9h-1.4v-7.63h-3.24v1.4c0,1.28-0.06,2.35-0.19,3.21c-0.12,0.86-0.31,1.52-0.56,1.96
		c-0.25,0.45-0.53,0.76-0.83,0.93c-0.3,0.17-0.67,0.26-1.1,0.26c-0.15,0-0.31-0.02-0.48-0.05c-0.17-0.03-0.3-0.07-0.4-0.1
		l-0.14-0.04v-1.33c0.25,0.08,0.48,0.12,0.7,0.12c0.24,0,0.45-0.06,0.63-0.18c0.18-0.12,0.34-0.35,0.5-0.69
		c0.16-0.34,0.27-0.84,0.35-1.53c0.07-0.68,0.11-1.54,0.11-2.56v-2.67H44.66z"/>
	<polygon class="st1" points="48.6,345.25 53.63,345.25 53.63,346.52 47.21,346.52 47.21,337.61 53.5,337.61 53.5,338.89 
		48.6,338.89 48.6,341.24 52.49,341.24 52.49,342.51 48.6,342.51 	"/>
	<polygon class="st1" points="54.52,337.61 61.25,337.61 61.25,338.89 58.58,338.89 58.58,346.52 57.19,346.52 57.19,338.89 
		54.52,338.89 	"/>
	<polygon class="st1" points="72.5,337.61 72.5,346.52 71.11,346.52 71.11,342.64 66.72,342.64 66.72,346.52 65.32,346.52 
		65.32,337.61 66.72,337.61 66.72,341.37 71.11,341.37 71.11,337.61 	"/>
	<path class="st1" d="M74.03,346.52l3.69-8.9h1.4l3.69,8.9h-1.46l-0.96-2.35h-3.94l-0.96,2.35H74.03z M78.42,339.2l-1.47,3.69h2.92
		L78.42,339.2z"/>
	<path class="st1" d="M86.87,337.61h3.56c0.85,0,1.56,0.28,2.13,0.84c0.57,0.56,0.86,1.23,0.86,2.03c0,0.8-0.29,1.47-0.86,2.03
		c-0.57,0.56-1.28,0.83-2.13,0.83h-2.16v3.18h-1.4V337.61z M90.43,338.89h-2.16v3.18h2.16c0.44,0,0.81-0.15,1.12-0.46
		c0.31-0.3,0.47-0.68,0.47-1.13c0-0.45-0.16-0.83-0.47-1.13C91.24,339.04,90.86,338.89,90.43,338.89"/>
	<path class="st1" d="M98.88,346.52h-3.43v-8.9h1.4v3.18h2.04c0.85,0,1.56,0.28,2.13,0.84c0.57,0.56,0.86,1.23,0.86,2.03
		s-0.29,1.47-0.86,2.03C100.44,346.24,99.73,346.52,98.88,346.52 M96.85,345.25h2.04c0.44,0,0.81-0.15,1.12-0.46
		c0.31-0.3,0.47-0.68,0.47-1.13c0-0.45-0.16-0.83-0.47-1.13c-0.31-0.31-0.68-0.46-1.12-0.46h-2.04V345.25z M104.42,346.52h-1.4v-8.9
		h1.4V346.52z"/>
	<polygon class="st1" points="114.14,337.61 114.14,346.52 112.74,346.52 112.74,342.64 108.35,342.64 108.35,346.52 106.96,346.52 
		106.96,337.61 108.35,337.61 108.35,341.37 112.74,341.37 112.74,337.61 	"/>
	<polygon class="st1" points="118.08,337.61 118.08,341.94 122.08,337.61 123.86,337.61 120.43,341.3 124.12,346.52 122.4,346.52 
		119.47,342.32 118.08,343.85 118.08,346.52 116.68,346.52 116.68,337.61 	"/>
	<polygon class="st1" points="126.91,345.25 131.94,345.25 131.94,346.52 125.51,346.52 125.51,337.61 131.81,337.61 131.81,338.89 
		126.91,338.89 126.91,341.24 130.79,341.24 130.79,342.51 126.91,342.51 	"/>
	<path class="st1" d="M41.42,354.72c1.96,0,3.59,0.65,4.92,1.95c1.32,1.3,1.99,2.89,1.99,4.76c0,1.88-0.66,3.46-1.99,4.76
		c-1.33,1.3-2.96,1.95-4.91,1.95c-0.66,0-1.3-0.09-1.91-0.27c-0.61-0.18-1.12-0.4-1.53-0.65c-0.41-0.26-0.77-0.51-1.07-0.77
		c-0.31-0.25-0.53-0.48-0.67-0.66l-0.22-0.26l1.3-1.31c0.04,0.05,0.09,0.12,0.17,0.21c0.08,0.09,0.24,0.26,0.5,0.5
		c0.25,0.24,0.53,0.45,0.82,0.63c0.29,0.18,0.67,0.35,1.15,0.5c0.47,0.15,0.97,0.22,1.48,0.22c1.27,0,2.32-0.37,3.15-1.1
		c0.83-0.73,1.37-1.71,1.6-2.91h-6.43v-1.86h6.43c-0.3-1.12-0.86-2.03-1.7-2.75c-0.83-0.72-1.85-1.07-3.06-1.07
		c-0.51,0-1,0.07-1.46,0.21c-0.46,0.14-0.84,0.3-1.14,0.48c-0.3,0.19-0.56,0.38-0.78,0.57c-0.22,0.19-0.39,0.36-0.48,0.49
		l-0.15,0.21l-1.31-1.31c0.05-0.06,0.12-0.15,0.21-0.27c0.09-0.12,0.31-0.32,0.64-0.61c0.33-0.29,0.69-0.54,1.07-0.76
		c0.38-0.22,0.88-0.43,1.49-0.61C40.13,354.81,40.76,354.72,41.42,354.72"/>
	<path class="st1" d="M61.19,354.9v13.06h-2.05v-11.19h-4.75v2.05c0,1.88-0.09,3.45-0.27,4.71c-0.18,1.26-0.46,2.22-0.82,2.88
		c-0.37,0.66-0.77,1.11-1.21,1.36c-0.44,0.25-0.98,0.38-1.61,0.38c-0.22,0-0.46-0.02-0.71-0.07c-0.25-0.05-0.44-0.1-0.58-0.14
		l-0.2-0.06v-1.96c0.37,0.12,0.71,0.18,1.02,0.18c0.36,0,0.67-0.09,0.92-0.27c0.26-0.18,0.5-0.51,0.73-1.01
		c0.23-0.49,0.4-1.24,0.51-2.24c0.11-1,0.16-2.26,0.16-3.76v-3.92H61.19z"/>
	<polygon class="st1" points="76.01,367.96 73.96,367.96 73.96,358.54 66.69,367.96 64.92,367.96 64.92,354.9 66.97,354.9 
		66.97,364.33 74.25,354.9 76.01,354.9 	"/>
	<polygon class="st1" points="78.25,354.9 88.14,354.9 88.14,356.77 84.22,356.77 84.22,367.96 82.17,367.96 82.17,356.77 
		78.25,356.77 	"/>
	<polygon class="st1" points="100.91,354.9 100.91,367.96 98.86,367.96 98.86,362.27 92.43,362.27 92.43,367.96 90.38,367.96 
		90.38,354.9 92.43,354.9 92.43,360.41 98.86,360.41 98.86,354.9 	"/>
	<path class="st1" d="M105.88,366.19c-1.32-1.3-1.98-2.89-1.98-4.76c0-1.88,0.66-3.46,1.98-4.76c1.32-1.3,2.96-1.95,4.91-1.95
		c1.95,0,3.59,0.65,4.91,1.95c1.32,1.3,1.99,2.89,1.99,4.76c0,1.88-0.66,3.46-1.99,4.76c-1.32,1.3-2.96,1.95-4.91,1.95
		C108.84,368.14,107.2,367.49,105.88,366.19 M107.35,357.99c-0.94,0.94-1.41,2.08-1.41,3.44c0,1.35,0.47,2.5,1.41,3.44
		c0.94,0.94,2.09,1.41,3.44,1.41c1.36,0,2.5-0.47,3.44-1.41c0.94-0.94,1.41-2.09,1.41-3.44c0-1.35-0.47-2.5-1.41-3.44
		s-2.09-1.41-3.44-1.41C109.43,356.58,108.29,357.05,107.35,357.99"/>
	<path class="st1" d="M131.77,367.96h-2.05v-9.42l-7.28,9.42h-1.77V354.9h2.05v9.43l7.28-9.43h1.77V367.96z M125.34,351.54
		c0.25,0.25,0.56,0.38,0.93,0.38c0.37,0,0.68-0.12,0.93-0.37c0.25-0.25,0.37-0.56,0.37-0.94h1.39c0,0.75-0.25,1.37-0.76,1.87
		c-0.51,0.5-1.16,0.75-1.94,0.75c-0.78,0-1.43-0.25-1.94-0.75c-0.51-0.5-0.76-1.12-0.76-1.87h1.4
		C124.97,350.98,125.09,351.29,125.34,351.54"/>
	<polygon class="st1" points="42.02,377.5 42.02,384.92 40.86,384.92 40.86,381.68 37.2,381.68 37.2,384.92 36.03,384.92 
		36.03,377.5 37.2,377.5 37.2,380.63 40.86,380.63 40.86,377.5 	"/>
	<polygon class="st1" points="45.3,383.85 49.49,383.85 49.49,384.92 44.14,384.92 44.14,377.5 49.38,377.5 49.38,378.56 
		45.3,378.56 45.3,380.52 48.53,380.52 48.53,381.58 45.3,381.58 	"/>
	<path class="st1" d="M50.02,383.85h0.42c0.03-0.03,0.08-0.08,0.14-0.14c0.06-0.07,0.16-0.22,0.3-0.46c0.14-0.24,0.27-0.5,0.39-0.79
		c0.11-0.29,0.21-0.68,0.31-1.17c0.09-0.5,0.14-1.02,0.14-1.57v-2.23h4.82v6.36h0.9v2.65h-1.17v-1.59h-5.09v1.59h-1.16V383.85z
		 M52.88,379.72c0,0.55-0.04,1.07-0.13,1.56c-0.09,0.49-0.19,0.88-0.32,1.18c-0.12,0.3-0.25,0.56-0.37,0.78
		c-0.12,0.22-0.23,0.38-0.32,0.47l-0.13,0.13h3.76v-5.3h-2.49V379.72z"/>
	<path class="st1" d="M61.99,384.92h-3.18v-7.42h3.02c0.6,0,1.11,0.2,1.54,0.59c0.42,0.4,0.64,0.85,0.64,1.37
		c0,0.3-0.06,0.57-0.18,0.82c-0.12,0.25-0.24,0.42-0.36,0.52l-0.19,0.15c0.03,0.01,0.07,0.04,0.12,0.07
		c0.05,0.03,0.14,0.1,0.27,0.21c0.13,0.11,0.24,0.23,0.34,0.36c0.09,0.13,0.18,0.3,0.26,0.51c0.08,0.21,0.12,0.43,0.12,0.65
		c0,0.59-0.23,1.1-0.68,1.53C63.24,384.7,62.67,384.92,61.99,384.92 M61.83,378.5h-1.85v2.01h1.85c0.29,0,0.53-0.1,0.72-0.29
		c0.19-0.19,0.29-0.43,0.29-0.72c0-0.29-0.1-0.53-0.29-0.72C62.36,378.6,62.12,378.5,61.83,378.5 M59.98,383.91h2.01
		c0.34,0,0.63-0.12,0.87-0.35c0.23-0.23,0.35-0.52,0.35-0.87c0-0.35-0.12-0.63-0.35-0.87c-0.23-0.23-0.52-0.35-0.87-0.35h-2.01
		V383.91z"/>
	<polygon class="st1" points="72.37,384.92 71.2,384.92 71.2,379.57 67.07,384.92 66.07,384.92 66.07,377.5 67.23,377.5 
		67.23,382.85 71.37,377.5 72.37,377.5 	"/>
	<polygon class="st1" points="78.14,384.92 78.14,382.21 77.4,381.42 74.97,384.92 73.53,384.92 76.61,380.57 73.75,377.5 
		75.23,377.5 78.14,380.63 78.14,377.5 79.31,377.5 79.31,380.63 82.23,377.5 83.71,377.5 80.85,380.57 83.92,384.92 82.49,384.92 
		80.05,381.42 79.31,382.21 79.31,384.92 	"/>
	<polygon class="st1" points="91.39,384.92 90.23,384.92 90.23,379.57 86.09,384.92 85.09,384.92 85.09,377.5 86.25,377.5 
		86.25,382.85 90.39,377.5 91.39,377.5 	"/>
	<polygon class="st1" points="97.38,381.1 100.24,377.49 101.25,377.49 101.25,384.92 100.08,384.92 100.08,379.51 97.38,382.9 
		94.68,379.51 94.68,384.92 93.51,384.92 93.51,377.49 94.52,377.49 	"/>
	<path class="st1" d="M104.07,383.91c-0.75-0.74-1.13-1.64-1.13-2.71c0-1.07,0.38-1.97,1.13-2.71c0.75-0.74,1.68-1.11,2.79-1.11
		c1.11,0,2.04,0.37,2.79,1.11c0.75,0.74,1.13,1.64,1.13,2.71c0,1.07-0.38,1.97-1.13,2.71c-0.75,0.74-1.68,1.11-2.79,1.11
		C105.75,385.02,104.82,384.65,104.07,383.91 M104.9,379.25c-0.53,0.53-0.8,1.18-0.8,1.95s0.27,1.42,0.8,1.96
		c0.53,0.53,1.18,0.8,1.96,0.8c0.77,0,1.42-0.27,1.96-0.8c0.53-0.53,0.8-1.19,0.8-1.96s-0.27-1.42-0.8-1.95
		c-0.53-0.53-1.19-0.8-1.96-0.8C106.09,378.45,105.44,378.72,104.9,379.25"/>
	<path class="st1" d="M115.98,377.39c0.38,0,0.74,0.05,1.08,0.15c0.34,0.1,0.63,0.22,0.86,0.36c0.23,0.14,0.42,0.28,0.59,0.42
		c0.17,0.14,0.29,0.26,0.37,0.36l0.11,0.14l-0.74,0.75c-0.02-0.03-0.05-0.07-0.09-0.12c-0.04-0.05-0.13-0.14-0.27-0.27
		c-0.14-0.13-0.29-0.24-0.46-0.34c-0.16-0.1-0.37-0.18-0.63-0.26c-0.26-0.08-0.53-0.12-0.82-0.12c-0.77,0-1.42,0.27-1.96,0.8
		c-0.53,0.53-0.8,1.18-0.8,1.95c0,0.77,0.27,1.42,0.8,1.96c0.53,0.54,1.19,0.8,1.96,0.8c0.29,0,0.57-0.04,0.83-0.12
		s0.48-0.18,0.66-0.29c0.17-0.11,0.33-0.23,0.46-0.34c0.13-0.11,0.23-0.21,0.3-0.29l0.08-0.13l0.75,0.75
		c-0.03,0.04-0.07,0.1-0.13,0.16c-0.06,0.07-0.18,0.19-0.38,0.35c-0.19,0.17-0.4,0.32-0.62,0.45c-0.22,0.13-0.51,0.25-0.86,0.35
		c-0.35,0.11-0.72,0.16-1.09,0.16c-1.11,0-2.04-0.37-2.79-1.11c-0.75-0.74-1.13-1.64-1.13-2.71c0-1.07,0.38-1.97,1.13-2.71
		C113.93,377.76,114.86,377.39,115.98,377.39"/>
	<polygon class="st1" points="119.68,377.5 125.29,377.5 125.29,378.56 123.07,378.56 123.07,384.92 121.91,384.92 121.91,378.56 
		119.68,378.56 	"/>
	<polygon class="st1" points="132.87,384.92 131.71,384.92 131.71,379.57 127.57,384.92 126.57,384.92 126.57,377.5 127.73,377.5 
		127.73,382.85 131.87,377.5 132.87,377.5 	"/>
	<polygon class="st2" points="38.04,444.59 38.7,444.59 40.02,448.67 41.39,444.59 42.22,444.59 40.4,449.88 39.69,449.88 
		38.36,445.85 37.04,449.88 36.32,449.88 34.5,444.59 35.33,444.59 36.71,448.67 	"/>
	<polygon class="st2" points="46.08,444.59 46.74,444.59 48.06,448.67 49.44,444.59 50.27,444.59 48.45,449.88 47.73,449.88 
		46.41,445.85 45.09,449.88 44.37,449.88 42.55,444.59 43.38,444.59 44.76,448.67 	"/>
	<polygon class="st2" points="54.13,444.59 54.79,444.59 56.11,448.67 57.48,444.59 58.31,444.59 56.49,449.88 55.78,449.88 
		54.45,445.85 53.14,449.88 52.41,449.88 50.6,444.59 51.42,444.59 52.8,448.67 	"/>
	<path class="st2" d="M58.63,449.83c-0.1-0.1-0.15-0.23-0.15-0.4c0-0.16,0.05-0.29,0.15-0.4c0.1-0.1,0.23-0.15,0.4-0.15
		c0.17,0,0.3,0.05,0.4,0.15c0.1,0.1,0.15,0.23,0.15,0.4c0,0.16-0.05,0.29-0.15,0.4c-0.1,0.1-0.23,0.15-0.4,0.15
		C58.86,449.98,58.73,449.93,58.63,449.83"/>
	<polygon class="st2" points="61.84,448.39 61.84,449.88 61.07,449.88 61.07,442.16 61.84,442.16 61.84,447.4 64.49,444.59 
		65.42,444.59 63.38,446.73 65.64,449.88 64.76,449.88 62.89,447.29 	"/>
	<path class="st2" d="M67.79,446.85l2.04-0.33c0-0.39-0.12-0.71-0.37-0.95c-0.25-0.24-0.57-0.37-0.95-0.37
		c-0.28,0-0.54,0.06-0.79,0.19c-0.25,0.13-0.42,0.26-0.54,0.39l-0.17,0.19l-0.5-0.5c0.02-0.03,0.05-0.07,0.09-0.11
		c0.04-0.04,0.12-0.12,0.25-0.24c0.13-0.11,0.26-0.21,0.4-0.3c0.14-0.09,0.32-0.17,0.55-0.24c0.23-0.07,0.46-0.11,0.7-0.11
		c0.6,0,1.1,0.2,1.5,0.59c0.4,0.39,0.59,0.88,0.59,1.45v3.36h-0.77v-0.72c-0.01,0.02-0.04,0.05-0.07,0.09
		c-0.03,0.04-0.1,0.1-0.2,0.2c-0.11,0.09-0.22,0.18-0.34,0.25c-0.12,0.07-0.28,0.14-0.48,0.2c-0.2,0.06-0.4,0.09-0.62,0.09
		c-0.53,0-0.97-0.16-1.33-0.47c-0.36-0.31-0.54-0.67-0.54-1.07c0-0.44,0.13-0.8,0.4-1.07C66.91,447.11,67.29,446.93,67.79,446.85
		 M68.12,449.27c0.5,0,0.91-0.16,1.23-0.49c0.32-0.33,0.48-0.75,0.48-1.27v-0.33l-1.82,0.33c-0.66,0.13-0.99,0.44-1,0.94
		c0,0.24,0.1,0.43,0.29,0.59C67.5,449.19,67.77,449.27,68.12,449.27"/>
	<rect x="72.41" y="442.16" class="st2" width="0.77" height="7.72"/>
	<path class="st2" d="M75.03,443.17c-0.1-0.1-0.14-0.21-0.14-0.35c0-0.14,0.05-0.26,0.14-0.35c0.09-0.1,0.21-0.14,0.35-0.14
		s0.26,0.05,0.35,0.14c0.09,0.09,0.14,0.21,0.14,0.35c0,0.14-0.05,0.26-0.14,0.35c-0.1,0.09-0.21,0.14-0.35,0.14
		S75.13,443.27,75.03,443.17 M75,444.59h0.77v5.29H75V444.59z"/>
	<path class="st2" d="M78.31,444.59v0.77c0.01-0.02,0.04-0.05,0.06-0.09c0.03-0.04,0.1-0.11,0.2-0.22c0.11-0.1,0.22-0.19,0.34-0.27
		c0.12-0.08,0.28-0.15,0.48-0.21c0.2-0.06,0.4-0.09,0.62-0.09c0.64,0,1.16,0.21,1.56,0.62c0.4,0.41,0.6,0.96,0.6,1.64v3.14h-0.78
		v-3.14c0-0.46-0.13-0.83-0.4-1.12c-0.27-0.28-0.61-0.42-1.03-0.42c-0.47,0-0.86,0.16-1.18,0.5c-0.32,0.33-0.47,0.75-0.47,1.26v2.92
		h-0.77v-5.29H78.31z"/>
	<polygon class="st2" points="84.75,448.39 84.75,449.88 83.98,449.88 83.98,442.16 84.75,442.16 84.75,447.4 87.39,444.59 
		88.33,444.59 86.29,446.73 88.55,449.88 87.67,449.88 85.8,447.29 	"/>
	<path class="st2" d="M90.7,446.85l2.04-0.33c0-0.39-0.12-0.71-0.37-0.95c-0.25-0.24-0.57-0.37-0.95-0.37
		c-0.28,0-0.54,0.06-0.79,0.19c-0.25,0.13-0.42,0.26-0.54,0.39l-0.17,0.19l-0.49-0.5c0.02-0.03,0.05-0.07,0.09-0.11
		c0.04-0.04,0.12-0.12,0.25-0.24c0.13-0.11,0.26-0.21,0.4-0.3c0.14-0.09,0.32-0.17,0.55-0.24c0.23-0.07,0.46-0.11,0.7-0.11
		c0.6,0,1.1,0.2,1.5,0.59c0.4,0.39,0.6,0.88,0.6,1.45v3.36h-0.77v-0.72c-0.01,0.02-0.04,0.05-0.07,0.09c-0.03,0.04-0.1,0.1-0.2,0.2
		c-0.11,0.09-0.22,0.18-0.34,0.25c-0.12,0.07-0.28,0.14-0.48,0.2c-0.2,0.06-0.4,0.09-0.62,0.09c-0.53,0-0.97-0.16-1.33-0.47
		c-0.36-0.31-0.54-0.67-0.54-1.07c0-0.44,0.13-0.8,0.4-1.07C89.82,447.11,90.2,446.93,90.7,446.85 M91.03,449.27
		c0.5,0,0.91-0.16,1.23-0.49c0.32-0.33,0.48-0.75,0.48-1.27v-0.33l-1.82,0.33c-0.66,0.13-0.99,0.44-1,0.94
		c0,0.24,0.1,0.43,0.29,0.59C90.41,449.19,90.68,449.27,91.03,449.27"/>
	<rect x="94.93" y="446.24" class="st2" width="3.69" height="0.72"/>
	<path class="st2" d="M102.71,444.47v0.77h-0.33c-0.46,0-0.84,0.16-1.17,0.47c-0.32,0.32-0.48,0.73-0.48,1.23v2.92h-0.77v-5.29h0.77
		v0.72c0.02-0.02,0.04-0.05,0.07-0.09c0.03-0.04,0.1-0.1,0.2-0.2c0.11-0.09,0.22-0.18,0.35-0.25c0.12-0.07,0.29-0.14,0.49-0.2
		c0.21-0.06,0.42-0.09,0.65-0.09H102.71z"/>
	<path class="st2" d="M108.43,447.52l-4.3-0.01c0.03,0.48,0.23,0.89,0.59,1.24c0.36,0.35,0.79,0.52,1.28,0.52
		c0.33,0,0.64-0.07,0.92-0.22c0.28-0.15,0.48-0.29,0.6-0.44l0.19-0.21l0.5,0.49c-0.02,0.03-0.05,0.07-0.09,0.12
		c-0.04,0.05-0.13,0.14-0.27,0.26c-0.14,0.12-0.29,0.23-0.45,0.33c-0.16,0.1-0.37,0.18-0.62,0.26c-0.25,0.08-0.51,0.12-0.78,0.12
		c-0.72,0-1.34-0.27-1.86-0.8c-0.52-0.54-0.78-1.19-0.78-1.95c0-0.76,0.26-1.41,0.77-1.95c0.51-0.54,1.12-0.8,1.82-0.8
		c0.72,0,1.32,0.25,1.81,0.75c0.48,0.5,0.73,1.13,0.73,1.9L108.43,447.52z M107.14,445.66c-0.33-0.31-0.72-0.47-1.19-0.47
		c-0.46,0-0.87,0.16-1.21,0.49c-0.34,0.33-0.55,0.71-0.61,1.16h3.58C107.66,446.37,107.47,445.97,107.14,445.66"/>
	<path class="st2" d="M111.02,446.85l2.04-0.33c0-0.39-0.12-0.71-0.37-0.95c-0.25-0.24-0.57-0.37-0.95-0.37
		c-0.28,0-0.54,0.06-0.79,0.19c-0.25,0.13-0.42,0.26-0.54,0.39l-0.17,0.19l-0.49-0.5c0.02-0.03,0.05-0.07,0.09-0.11
		c0.04-0.04,0.12-0.12,0.25-0.24c0.13-0.11,0.26-0.21,0.4-0.3c0.14-0.09,0.32-0.17,0.55-0.24c0.23-0.07,0.46-0.11,0.7-0.11
		c0.6,0,1.1,0.2,1.5,0.59c0.4,0.39,0.6,0.88,0.6,1.45v3.36h-0.77v-0.72c-0.01,0.02-0.04,0.05-0.07,0.09c-0.03,0.04-0.1,0.1-0.2,0.2
		c-0.11,0.09-0.22,0.18-0.34,0.25c-0.12,0.07-0.28,0.14-0.48,0.2c-0.2,0.06-0.4,0.09-0.62,0.09c-0.53,0-0.97-0.16-1.33-0.47
		c-0.36-0.31-0.54-0.67-0.54-1.07c0-0.44,0.13-0.8,0.4-1.07C110.14,447.11,110.52,446.93,111.02,446.85 M111.35,449.27
		c0.5,0,0.91-0.16,1.23-0.49c0.32-0.33,0.48-0.75,0.48-1.27v-0.33l-1.82,0.33c-0.66,0.13-0.99,0.44-1,0.94
		c0,0.24,0.1,0.43,0.29,0.59C110.73,449.19,111,449.27,111.35,449.27"/>
	<rect x="115.64" y="442.16" class="st2" width="0.77" height="7.72"/>
	<path class="st2" d="M118.73,444.04v-1.22h0.72v1.77h1.16v0.72h-1.16v3.14c0,0.55,0.24,0.83,0.72,0.82c0.12,0,0.24-0.01,0.35-0.04
		c0.12-0.03,0.2-0.05,0.27-0.07l0.1-0.04v0.72c-0.22,0.11-0.47,0.17-0.75,0.16c-0.46,0-0.81-0.13-1.07-0.4
		c-0.26-0.27-0.38-0.65-0.38-1.14v-3.14h-1v-0.72h0.61C118.58,444.59,118.73,444.4,118.73,444.04"/>
	<path class="st2" d="M123.36,450.65l0.27-0.77l-2.15-5.29h0.83l1.71,4.3l1.71-4.3h0.83l-2.43,6.06c-0.22,0.56-0.45,0.96-0.7,1.19
		c-0.25,0.23-0.57,0.35-0.95,0.35c-0.12,0-0.23-0.01-0.34-0.03c-0.11-0.02-0.19-0.04-0.25-0.06l-0.08-0.02v-0.72
		c0.18,0.07,0.37,0.11,0.55,0.11C122.83,451.47,123.16,451.2,123.36,450.65"/>
	<path class="st2" d="M126.86,449.83c-0.1-0.1-0.15-0.23-0.15-0.4c0-0.16,0.05-0.29,0.15-0.4c0.1-0.1,0.23-0.15,0.4-0.15
		c0.17,0,0.3,0.05,0.4,0.15c0.1,0.1,0.15,0.23,0.15,0.4c0,0.16-0.05,0.29-0.15,0.4c-0.1,0.1-0.23,0.15-0.4,0.15
		C127.09,449.98,126.96,449.93,126.86,449.83"/>
	<path class="st2" d="M132,444.47v0.77h-0.33c-0.46,0-0.84,0.16-1.17,0.47c-0.32,0.32-0.49,0.73-0.49,1.23v2.92h-0.77v-5.29h0.77
		v0.72c0.02-0.02,0.04-0.05,0.07-0.09c0.03-0.04,0.1-0.1,0.2-0.2c0.11-0.09,0.22-0.18,0.35-0.25c0.12-0.07,0.29-0.14,0.49-0.2
		c0.21-0.06,0.42-0.09,0.65-0.09H132z"/>
	<path class="st2" d="M136.9,449.88v-0.72c-0.01,0.02-0.04,0.05-0.06,0.09c-0.03,0.04-0.1,0.1-0.2,0.2
		c-0.11,0.1-0.22,0.18-0.34,0.25c-0.12,0.07-0.28,0.14-0.48,0.2c-0.2,0.06-0.4,0.09-0.62,0.09c-0.62,0-1.13-0.21-1.54-0.64
		c-0.41-0.43-0.61-0.99-0.61-1.67v-3.08h0.77v3.08c0,0.46,0.14,0.84,0.43,1.15c0.29,0.3,0.64,0.45,1.06,0.45
		c0.45,0,0.83-0.16,1.14-0.5c0.31-0.33,0.46-0.75,0.46-1.26v-2.92h0.77v5.29H136.9z"/>
	<polygon class="st2" points="50.8,466.06 55.38,466.06 55.38,466.83 49.97,466.83 49.97,459.12 55.26,459.12 55.26,459.89 
		50.8,459.89 50.8,462.42 54.38,462.42 54.38,463.19 50.8,463.19 	"/>
	<rect x="56.75" y="459.12" class="st2" width="0.77" height="7.72"/>
	<path class="st2" d="M59.37,460.13c-0.09-0.1-0.14-0.21-0.14-0.35s0.05-0.26,0.14-0.35c0.1-0.1,0.21-0.14,0.35-0.14
		c0.14,0,0.26,0.05,0.35,0.14c0.1,0.09,0.14,0.21,0.14,0.35s-0.05,0.26-0.14,0.35c-0.09,0.09-0.21,0.14-0.35,0.14
		C59.58,460.27,59.46,460.22,59.37,460.13 M59.34,461.54h0.77v5.29h-0.77V461.54z"/>
	<path class="st2" d="M62.37,460.99v-1.22h0.72v1.77h1.16v0.72h-1.16v3.14c0,0.55,0.24,0.83,0.72,0.82c0.12,0,0.24-0.01,0.35-0.04
		c0.12-0.03,0.21-0.05,0.27-0.07l0.1-0.04v0.72c-0.22,0.11-0.47,0.17-0.75,0.16c-0.46,0-0.81-0.13-1.07-0.4
		c-0.26-0.27-0.38-0.65-0.38-1.14v-3.14h-1v-0.72h0.61C62.22,461.54,62.37,461.36,62.37,460.99"/>
	<path class="st2" d="M70.3,464.48l-4.3-0.01c0.03,0.48,0.23,0.89,0.59,1.24c0.36,0.35,0.79,0.52,1.28,0.52
		c0.33,0,0.64-0.07,0.92-0.22c0.28-0.15,0.48-0.29,0.6-0.44l0.19-0.21l0.5,0.49c-0.02,0.03-0.05,0.07-0.09,0.12
		c-0.04,0.05-0.13,0.14-0.27,0.26c-0.14,0.12-0.29,0.23-0.45,0.33c-0.16,0.1-0.37,0.18-0.62,0.26c-0.25,0.08-0.51,0.12-0.78,0.12
		c-0.72,0-1.34-0.27-1.86-0.8c-0.52-0.54-0.78-1.19-0.78-1.95c0-0.76,0.26-1.41,0.77-1.95c0.52-0.54,1.12-0.81,1.82-0.81
		c0.72,0,1.32,0.25,1.81,0.75c0.48,0.5,0.73,1.13,0.73,1.9L70.3,464.48z M69.01,462.62c-0.33-0.31-0.72-0.47-1.19-0.47
		s-0.87,0.16-1.21,0.49c-0.34,0.33-0.55,0.71-0.61,1.16h3.58C69.53,463.33,69.33,462.93,69.01,462.62"/>
	<path class="st2" d="M74.15,459.12h3.08c0.68,0,1.25,0.22,1.7,0.66c0.45,0.44,0.68,0.99,0.68,1.65c0,0.33-0.06,0.63-0.17,0.9
		c-0.11,0.27-0.24,0.49-0.4,0.64c-0.15,0.16-0.31,0.29-0.47,0.39c-0.16,0.11-0.29,0.18-0.4,0.22l-0.17,0.05l1.82,3.2h-0.94
		l-1.71-3.08h-2.2v3.08h-0.83V459.12z M77.24,459.89h-2.25v3.08h2.25c0.47,0,0.84-0.14,1.12-0.42c0.28-0.28,0.42-0.65,0.42-1.12
		s-0.14-0.85-0.42-1.12C78.08,460.03,77.71,459.89,77.24,459.89"/>
	<path class="st2" d="M85.94,464.48l-4.3-0.01c0.03,0.48,0.23,0.89,0.59,1.24c0.36,0.35,0.79,0.52,1.28,0.52
		c0.33,0,0.64-0.07,0.92-0.22c0.28-0.15,0.48-0.29,0.6-0.44l0.19-0.21l0.5,0.49c-0.02,0.03-0.05,0.07-0.09,0.12
		c-0.04,0.05-0.13,0.14-0.27,0.26c-0.14,0.12-0.29,0.23-0.45,0.33c-0.16,0.1-0.37,0.18-0.62,0.26c-0.25,0.08-0.51,0.12-0.78,0.12
		c-0.72,0-1.34-0.27-1.86-0.8c-0.52-0.54-0.78-1.19-0.78-1.95c0-0.76,0.26-1.41,0.77-1.95c0.51-0.54,1.12-0.81,1.82-0.81
		c0.72,0,1.32,0.25,1.81,0.75c0.48,0.5,0.73,1.13,0.73,1.9L85.94,464.48z M84.65,462.62c-0.33-0.31-0.72-0.47-1.19-0.47
		c-0.46,0-0.87,0.16-1.21,0.49c-0.35,0.33-0.55,0.71-0.61,1.16h3.58C85.17,463.33,84.98,462.93,84.65,462.62"/>
	<path class="st2" d="M88.53,463.8l2.04-0.33c0-0.39-0.12-0.71-0.37-0.95c-0.25-0.24-0.57-0.37-0.95-0.37
		c-0.28,0-0.54,0.06-0.79,0.19c-0.25,0.13-0.42,0.26-0.54,0.39l-0.17,0.19l-0.49-0.5c0.02-0.03,0.05-0.07,0.09-0.11
		c0.04-0.04,0.12-0.12,0.25-0.24c0.13-0.11,0.26-0.21,0.4-0.3c0.14-0.09,0.32-0.17,0.55-0.24c0.23-0.07,0.46-0.11,0.7-0.11
		c0.6,0,1.1,0.2,1.5,0.59c0.4,0.39,0.6,0.88,0.6,1.45v3.36h-0.77v-0.72c-0.01,0.02-0.04,0.05-0.07,0.09c-0.03,0.04-0.1,0.1-0.2,0.2
		c-0.11,0.1-0.22,0.18-0.34,0.25c-0.12,0.07-0.28,0.14-0.48,0.2c-0.2,0.06-0.4,0.09-0.62,0.09c-0.53,0-0.97-0.16-1.33-0.47
		c-0.36-0.31-0.54-0.67-0.54-1.07c0-0.44,0.13-0.8,0.4-1.07C87.65,464.06,88.03,463.88,88.53,463.8 M88.86,466.22
		c0.5,0,0.91-0.16,1.23-0.49c0.32-0.33,0.48-0.75,0.48-1.27v-0.33l-1.82,0.33c-0.66,0.13-0.99,0.44-1,0.94
		c0,0.24,0.1,0.43,0.29,0.59C88.25,466.15,88.52,466.22,88.86,466.22"/>
	<rect x="93.16" y="459.12" class="st2" width="0.77" height="7.72"/>
	<polygon class="st2" points="98.99,466.06 103.57,466.06 103.57,466.83 98.17,466.83 98.17,459.12 103.46,459.12 103.46,459.89 
		98.99,459.89 98.99,462.42 102.57,462.42 102.57,463.19 98.99,463.19 	"/>
	<path class="st2" d="M108.08,462.15l-0.55,0.55c-0.03-0.04-0.07-0.09-0.13-0.15c-0.06-0.06-0.18-0.14-0.39-0.24
		c-0.2-0.1-0.42-0.15-0.65-0.15c-0.29,0-0.53,0.08-0.72,0.23c-0.18,0.15-0.27,0.33-0.27,0.54c0,0.21,0.1,0.38,0.3,0.51
		c0.2,0.13,0.44,0.23,0.72,0.31c0.28,0.08,0.56,0.17,0.84,0.26c0.28,0.1,0.52,0.26,0.72,0.48c0.2,0.22,0.3,0.51,0.3,0.86
		c0,0.46-0.17,0.84-0.52,1.14c-0.35,0.3-0.82,0.45-1.4,0.45c-0.25,0-0.49-0.03-0.71-0.1c-0.22-0.06-0.4-0.14-0.55-0.23
		c-0.14-0.09-0.27-0.18-0.37-0.27c-0.11-0.09-0.18-0.17-0.23-0.23l-0.07-0.1l0.55-0.55c0.01,0.02,0.03,0.05,0.06,0.08
		c0.02,0.03,0.08,0.09,0.17,0.18c0.09,0.09,0.18,0.17,0.28,0.24c0.1,0.07,0.23,0.13,0.39,0.19c0.16,0.05,0.32,0.08,0.48,0.08
		c0.37,0,0.66-0.08,0.86-0.25c0.2-0.16,0.3-0.37,0.3-0.63c0-0.22-0.1-0.4-0.3-0.54c-0.2-0.14-0.44-0.25-0.72-0.33
		c-0.28-0.08-0.56-0.17-0.84-0.27c-0.28-0.1-0.52-0.25-0.72-0.47c-0.2-0.21-0.3-0.49-0.3-0.83c0-0.4,0.17-0.75,0.5-1.04
		c0.34-0.3,0.76-0.45,1.26-0.45c0.2,0,0.4,0.02,0.6,0.07c0.2,0.05,0.36,0.11,0.48,0.18c0.13,0.07,0.24,0.14,0.34,0.21
		c0.1,0.07,0.17,0.13,0.21,0.18L108.08,462.15z"/>
	<path class="st2" d="M110.12,460.99v-1.22h0.72v1.77h1.16v0.72h-1.16v3.14c0,0.55,0.24,0.83,0.72,0.82c0.12,0,0.24-0.01,0.35-0.04
		c0.12-0.03,0.2-0.05,0.27-0.07l0.1-0.04v0.72c-0.22,0.11-0.47,0.17-0.75,0.16c-0.46,0-0.81-0.13-1.07-0.4
		c-0.26-0.27-0.38-0.65-0.38-1.14v-3.14h-1v-0.72h0.61C109.97,461.54,110.12,461.36,110.12,460.99"/>
	<path class="st2" d="M114.75,463.8l2.04-0.33c0-0.39-0.12-0.71-0.37-0.95c-0.25-0.24-0.57-0.37-0.95-0.37
		c-0.28,0-0.54,0.06-0.79,0.19c-0.25,0.13-0.42,0.26-0.54,0.39l-0.17,0.19l-0.49-0.5c0.02-0.03,0.05-0.07,0.09-0.11
		c0.04-0.04,0.12-0.12,0.25-0.24c0.13-0.11,0.26-0.21,0.4-0.3c0.14-0.09,0.32-0.17,0.55-0.24c0.23-0.07,0.46-0.11,0.7-0.11
		c0.6,0,1.1,0.2,1.5,0.59c0.4,0.39,0.6,0.88,0.6,1.45v3.36h-0.77v-0.72c-0.01,0.02-0.04,0.05-0.07,0.09c-0.03,0.04-0.1,0.1-0.2,0.2
		c-0.11,0.1-0.22,0.18-0.34,0.25c-0.12,0.07-0.28,0.14-0.48,0.2c-0.2,0.06-0.4,0.09-0.62,0.09c-0.53,0-0.97-0.16-1.33-0.47
		c-0.36-0.31-0.54-0.67-0.54-1.07c0-0.44,0.13-0.8,0.4-1.07C113.86,464.06,114.25,463.88,114.75,463.8 M115.07,466.22
		c0.5,0,0.91-0.16,1.23-0.49c0.32-0.33,0.48-0.75,0.48-1.27v-0.33l-1.82,0.33c-0.66,0.13-0.99,0.44-1,0.94
		c0,0.24,0.1,0.43,0.29,0.59C114.46,466.15,114.73,466.22,115.07,466.22"/>
	<path class="st2" d="M119.81,460.99v-1.22h0.72v1.77h1.16v0.72h-1.16v3.14c0,0.55,0.24,0.83,0.72,0.82c0.12,0,0.24-0.01,0.35-0.04
		c0.12-0.03,0.2-0.05,0.27-0.07l0.1-0.04v0.72c-0.22,0.11-0.47,0.17-0.75,0.16c-0.46,0-0.81-0.13-1.07-0.4
		c-0.26-0.27-0.38-0.65-0.38-1.14v-3.14h-1v-0.72h0.61C119.66,461.54,119.81,461.36,119.81,460.99"/>
	<path class="st2" d="M127.74,464.48l-4.3-0.01c0.03,0.48,0.23,0.89,0.59,1.24c0.36,0.35,0.79,0.52,1.28,0.52
		c0.33,0,0.64-0.07,0.92-0.22c0.28-0.15,0.49-0.29,0.6-0.44l0.19-0.21l0.5,0.49c-0.02,0.03-0.05,0.07-0.09,0.12
		c-0.04,0.05-0.13,0.14-0.27,0.26c-0.14,0.12-0.29,0.23-0.45,0.33c-0.16,0.1-0.37,0.18-0.62,0.26c-0.25,0.08-0.51,0.12-0.78,0.12
		c-0.72,0-1.34-0.27-1.86-0.8c-0.52-0.54-0.78-1.19-0.78-1.95c0-0.76,0.26-1.41,0.77-1.95c0.51-0.54,1.12-0.81,1.82-0.81
		c0.72,0,1.32,0.25,1.81,0.75c0.48,0.5,0.73,1.13,0.73,1.9L127.74,464.48z M126.45,462.62c-0.33-0.31-0.72-0.47-1.19-0.47
		c-0.46,0-0.87,0.16-1.21,0.49c-0.35,0.33-0.55,0.71-0.61,1.16h3.58C126.97,463.33,126.78,462.93,126.45,462.62"/>
	<path class="st2" d="M45.64,481.64H42l-0.88,2.15h-0.88l3.2-7.72h0.77l3.2,7.72h-0.88L45.64,481.64z M45.31,480.87l-1.49-3.64
		l-1.49,3.64H45.31z"/>
	<path class="st2" d="M52.36,483.46v-0.66c-0.01,0.02-0.04,0.05-0.06,0.09c-0.03,0.04-0.1,0.11-0.2,0.22
		c-0.11,0.1-0.22,0.19-0.35,0.27c-0.13,0.08-0.29,0.15-0.5,0.21c-0.21,0.06-0.42,0.09-0.65,0.09c-0.67,0-1.25-0.26-1.74-0.77
		c-0.49-0.51-0.74-1.14-0.74-1.87c0-0.74,0.25-1.36,0.74-1.88c0.49-0.52,1.07-0.77,1.74-0.77c0.23,0,0.44,0.03,0.64,0.09
		c0.2,0.06,0.37,0.13,0.5,0.22c0.13,0.09,0.25,0.18,0.34,0.27c0.09,0.09,0.16,0.16,0.21,0.22l0.06,0.09v-0.77h0.77v4.96
		c0,0.74-0.25,1.37-0.76,1.88c-0.5,0.51-1.12,0.76-1.84,0.76c-0.28,0-0.55-0.04-0.8-0.12c-0.25-0.08-0.46-0.17-0.62-0.27
		c-0.16-0.11-0.3-0.21-0.43-0.32c-0.12-0.11-0.21-0.2-0.27-0.28L48.34,485l0.5-0.5c0.01,0.02,0.04,0.05,0.07,0.09
		c0.03,0.04,0.11,0.11,0.22,0.22c0.11,0.1,0.23,0.19,0.35,0.27c0.12,0.08,0.28,0.15,0.47,0.21c0.19,0.06,0.39,0.09,0.6,0.09
		c0.5,0,0.93-0.18,1.28-0.55C52.18,484.46,52.36,484.01,52.36,483.46 M49.4,479.67c-0.35,0.37-0.52,0.83-0.52,1.37
		c0,0.54,0.17,0.99,0.52,1.37c0.35,0.37,0.74,0.56,1.19,0.56c0.48,0,0.89-0.19,1.24-0.55c0.35-0.37,0.52-0.83,0.52-1.37
		c0-0.55-0.17-1-0.52-1.37c-0.35-0.37-0.76-0.55-1.24-0.55C50.15,479.11,49.75,479.29,49.4,479.67"/>
	<path class="st2" d="M59.57,481.43l-4.3-0.01c0.03,0.48,0.23,0.89,0.59,1.24c0.36,0.35,0.79,0.52,1.28,0.52
		c0.33,0,0.64-0.07,0.92-0.22c0.28-0.15,0.48-0.29,0.6-0.44l0.19-0.21l0.5,0.49c-0.02,0.03-0.05,0.07-0.09,0.12
		c-0.04,0.05-0.13,0.14-0.27,0.26c-0.14,0.12-0.29,0.23-0.45,0.33c-0.16,0.1-0.37,0.18-0.62,0.26c-0.25,0.08-0.51,0.12-0.78,0.12
		c-0.72,0-1.34-0.27-1.86-0.8c-0.52-0.54-0.78-1.19-0.78-1.95c0-0.76,0.26-1.41,0.77-1.95c0.51-0.54,1.12-0.8,1.82-0.8
		c0.72,0,1.32,0.25,1.81,0.75c0.48,0.5,0.73,1.13,0.73,1.9L59.57,481.43z M58.28,479.57c-0.33-0.31-0.72-0.47-1.19-0.47
		c-0.46,0-0.87,0.16-1.21,0.49c-0.34,0.33-0.55,0.71-0.61,1.16h3.58C58.8,480.28,58.61,479.89,58.28,479.57"/>
	<path class="st2" d="M61.77,478.5v0.77c0.01-0.02,0.04-0.05,0.06-0.09c0.03-0.04,0.1-0.11,0.2-0.22c0.11-0.1,0.22-0.19,0.34-0.27
		c0.12-0.08,0.28-0.15,0.48-0.21c0.2-0.06,0.4-0.09,0.62-0.09c0.64,0,1.16,0.21,1.56,0.62c0.4,0.41,0.6,0.96,0.6,1.64v3.14h-0.78
		v-3.14c0-0.46-0.13-0.83-0.4-1.12c-0.27-0.28-0.61-0.42-1.03-0.42c-0.47,0-0.86,0.16-1.18,0.5c-0.32,0.33-0.47,0.75-0.47,1.26v2.92
		H61v-5.29H61.77z"/>
	<path class="st2" d="M67.78,483.09c-0.52-0.54-0.78-1.19-0.78-1.95c0-0.76,0.26-1.41,0.78-1.95c0.52-0.54,1.14-0.8,1.86-0.8
		c0.41,0,0.8,0.09,1.15,0.27c0.36,0.18,0.61,0.35,0.77,0.53l0.23,0.25l-0.55,0.55c-0.01-0.02-0.04-0.05-0.06-0.09
		c-0.03-0.04-0.09-0.11-0.19-0.22c-0.1-0.1-0.21-0.19-0.32-0.27c-0.11-0.08-0.26-0.15-0.45-0.21c-0.18-0.06-0.37-0.09-0.58-0.09
		c-0.51,0-0.94,0.2-1.32,0.59c-0.37,0.39-0.56,0.88-0.56,1.45c0,0.57,0.19,1.06,0.56,1.45c0.37,0.39,0.81,0.59,1.32,0.59
		c0.31,0,0.6-0.07,0.88-0.22c0.28-0.15,0.48-0.29,0.6-0.44l0.18-0.21l0.55,0.5c-0.02,0.03-0.05,0.07-0.1,0.12
		c-0.04,0.05-0.14,0.14-0.28,0.26c-0.14,0.12-0.29,0.23-0.45,0.33c-0.16,0.1-0.36,0.18-0.61,0.26c-0.25,0.08-0.5,0.12-0.76,0.12
		C68.93,483.9,68.3,483.63,67.78,483.09"/>
	<path class="st2" d="M74.22,484.56l0.27-0.77l-2.15-5.29h0.83l1.71,4.3l1.71-4.3h0.83l-2.43,6.06c-0.22,0.56-0.45,0.96-0.7,1.19
		c-0.25,0.23-0.57,0.35-0.95,0.35c-0.12,0-0.23-0.01-0.34-0.03c-0.11-0.02-0.19-0.04-0.25-0.06L72.68,486v-0.72
		c0.18,0.07,0.37,0.11,0.55,0.11C73.69,485.39,74.02,485.11,74.22,484.56"/>
	<path class="st2" d="M80.96,483.1c-0.53-0.53-0.79-1.18-0.79-1.96c0-0.77,0.26-1.43,0.79-1.96c0.53-0.53,1.16-0.8,1.91-0.8
		c0.75,0,1.39,0.27,1.91,0.8c0.52,0.53,0.79,1.19,0.79,1.96c0,0.77-0.26,1.43-0.79,1.96c-0.52,0.53-1.16,0.8-1.91,0.8
		C82.12,483.9,81.48,483.63,80.96,483.1 M84.23,482.59c0.38-0.39,0.57-0.87,0.57-1.45c0-0.57-0.19-1.05-0.57-1.45
		c-0.38-0.39-0.83-0.59-1.36-0.59c-0.53,0-0.98,0.2-1.36,0.59c-0.38,0.39-0.57,0.87-0.57,1.44c0,0.57,0.19,1.05,0.57,1.44
		c0.38,0.4,0.83,0.6,1.36,0.6C83.4,483.18,83.85,482.98,84.23,482.59"/>
	<path class="st2" d="M89.26,478.5v0.72h-1.27v4.57h-0.77v-4.57h-0.83v-0.72h0.83v-0.99c0-0.49,0.13-0.87,0.38-1.14
		c0.25-0.27,0.6-0.4,1.05-0.4c0.13,0,0.26,0.01,0.39,0.04c0.13,0.03,0.23,0.06,0.29,0.09l0.09,0.04v0.72
		c-0.22-0.11-0.46-0.17-0.72-0.17c-0.48,0-0.72,0.28-0.72,0.83v0.99H89.26z"/>
	<polygon class="st2" points="99.89,477.51 96.8,481.58 93.72,477.51 93.72,483.79 92.89,483.79 92.89,476.07 93.61,476.07 
		96.8,480.26 100,476.07 100.71,476.07 100.71,483.79 99.89,483.79 	"/>
	<path class="st2" d="M103.1,483.1c-0.52-0.53-0.79-1.18-0.79-1.96c0-0.77,0.26-1.43,0.79-1.96c0.53-0.53,1.16-0.8,1.91-0.8
		c0.75,0,1.39,0.27,1.91,0.8c0.52,0.53,0.79,1.19,0.79,1.96c0,0.77-0.26,1.43-0.79,1.96c-0.52,0.53-1.16,0.8-1.91,0.8
		C104.26,483.9,103.63,483.63,103.1,483.1 M106.37,482.59c0.38-0.39,0.57-0.87,0.57-1.45c0-0.57-0.19-1.05-0.57-1.45
		c-0.38-0.39-0.83-0.59-1.36-0.59c-0.53,0-0.98,0.2-1.36,0.59c-0.38,0.39-0.57,0.87-0.57,1.44c0,0.57,0.19,1.05,0.57,1.44
		c0.38,0.4,0.83,0.6,1.36,0.6C105.54,483.18,105.99,482.98,106.37,482.59"/>
	<path class="st2" d="M112.29,479.11l-0.55,0.55c-0.03-0.04-0.07-0.09-0.13-0.15c-0.06-0.06-0.18-0.14-0.39-0.24
		c-0.2-0.1-0.42-0.15-0.65-0.15c-0.29,0-0.53,0.08-0.72,0.23c-0.18,0.15-0.27,0.33-0.27,0.54c0,0.21,0.1,0.38,0.3,0.51
		c0.2,0.13,0.44,0.23,0.72,0.31c0.28,0.08,0.56,0.17,0.84,0.26c0.28,0.1,0.52,0.26,0.72,0.49c0.2,0.22,0.3,0.51,0.3,0.86
		c0,0.46-0.17,0.83-0.52,1.14c-0.35,0.3-0.82,0.45-1.4,0.45c-0.25,0-0.49-0.03-0.71-0.1c-0.22-0.06-0.4-0.14-0.55-0.23
		c-0.14-0.09-0.27-0.18-0.37-0.27c-0.11-0.09-0.18-0.17-0.23-0.23l-0.07-0.1l0.55-0.55c0.01,0.02,0.03,0.05,0.06,0.08
		c0.02,0.03,0.08,0.1,0.17,0.18c0.09,0.09,0.18,0.17,0.28,0.24c0.1,0.07,0.23,0.13,0.39,0.19c0.16,0.05,0.32,0.08,0.48,0.08
		c0.37,0,0.66-0.08,0.86-0.25c0.2-0.16,0.3-0.37,0.3-0.63c0-0.22-0.1-0.4-0.3-0.54c-0.2-0.14-0.44-0.25-0.72-0.33
		c-0.28-0.08-0.56-0.17-0.84-0.27c-0.28-0.1-0.52-0.25-0.72-0.47c-0.2-0.21-0.3-0.49-0.3-0.83c0-0.4,0.17-0.75,0.5-1.04
		c0.34-0.3,0.76-0.45,1.26-0.45c0.2,0,0.4,0.02,0.6,0.07c0.2,0.05,0.36,0.11,0.48,0.18c0.13,0.07,0.24,0.14,0.34,0.21
		c0.1,0.07,0.17,0.13,0.21,0.18L112.29,479.11z"/>
	<path class="st2" d="M114.22,483.09c-0.52-0.54-0.78-1.19-0.78-1.95c0-0.76,0.26-1.41,0.78-1.95c0.52-0.54,1.14-0.8,1.86-0.8
		c0.41,0,0.8,0.09,1.15,0.27c0.36,0.18,0.61,0.35,0.77,0.53l0.23,0.25l-0.55,0.55c-0.01-0.02-0.04-0.05-0.06-0.09
		c-0.03-0.04-0.09-0.11-0.19-0.22c-0.1-0.1-0.21-0.19-0.32-0.27c-0.12-0.08-0.26-0.15-0.45-0.21c-0.18-0.06-0.38-0.09-0.58-0.09
		c-0.51,0-0.94,0.2-1.32,0.59c-0.37,0.39-0.56,0.88-0.56,1.45c0,0.57,0.19,1.06,0.56,1.45c0.37,0.39,0.81,0.59,1.32,0.59
		c0.31,0,0.6-0.07,0.88-0.22c0.28-0.15,0.48-0.29,0.6-0.44l0.18-0.21l0.55,0.5c-0.02,0.03-0.05,0.07-0.1,0.12
		c-0.04,0.05-0.14,0.14-0.28,0.26c-0.14,0.12-0.29,0.23-0.45,0.33c-0.16,0.1-0.36,0.18-0.61,0.26c-0.25,0.08-0.5,0.12-0.76,0.12
		C115.36,483.9,114.74,483.63,114.22,483.09"/>
	<path class="st2" d="M119.9,483.1c-0.52-0.53-0.79-1.18-0.79-1.96c0-0.77,0.26-1.43,0.79-1.96c0.53-0.53,1.16-0.8,1.91-0.8
		c0.75,0,1.39,0.27,1.91,0.8c0.52,0.53,0.79,1.19,0.79,1.96c0,0.77-0.26,1.43-0.79,1.96c-0.52,0.53-1.16,0.8-1.91,0.8
		C121.06,483.9,120.42,483.63,119.9,483.1 M123.17,482.59c0.38-0.39,0.57-0.87,0.57-1.45c0-0.57-0.19-1.05-0.57-1.45
		c-0.38-0.39-0.83-0.59-1.36-0.59c-0.53,0-0.98,0.2-1.36,0.59c-0.38,0.39-0.57,0.87-0.57,1.44c0,0.57,0.19,1.05,0.57,1.44
		c0.38,0.4,0.83,0.6,1.36,0.6C122.34,483.18,122.79,482.98,123.17,482.59"/>
	<polygon class="st2" points="128.69,478.5 129.36,478.5 130.67,482.58 132.05,478.5 132.88,478.5 131.06,483.79 130.34,483.79 
		129.02,479.76 127.7,483.79 126.98,483.79 125.16,478.5 125.99,478.5 127.37,482.58 	"/>
</g>
</svg>
