<?xml version="1.0" encoding="utf-8"?>
<!-- Generator: Adobe Illustrator 24.0.1, SVG Export Plug-In . SVG Version: 6.00 Build 0)  -->
<svg version="1.1" id="Layer_1" xmlns="http://www.w3.org/2000/svg" xmlns:xlink="http://www.w3.org/1999/xlink" x="0px" y="0px"
	 viewBox="0 0 21.31 24.57" style="enable-background:new 0 0 21.31 24.57;" xml:space="preserve">
<style type="text/css">
	.st0{fill:none;stroke:#37444C;stroke-width:2;stroke-miterlimit:10;}
</style>
<path class="st0" d="M18.46,8.15V3.2c0-1.21-0.98-2.2-2.2-2.2c-1.21,0-2.2,0.98-2.2,2.2v1.63c-2.3-0.86-4.87-0.81-7.14,0.14V3.2
	c0-1.21-0.98-2.2-2.2-2.2c-1.21,0-2.2,0.98-2.2,2.2v5.47c-0.6,0.94-1.03,2.96-1.27,5.01c-0.08,0.69-0.15,1.39-0.19,2.05
	c-0.08,1.29-0.09,2.44-0.02,3.15c0.22,2.14,1.14,0.22,2.78,1.86c3.78,3.78,9.91,3.78,13.69,0c1.62-1.62,2.54,0.34,2.77-1.77
	c0.08-0.77-0.16-4.2-0.27-5.54c-0.05-0.72,0.11,0.75,0,0C19.73,11.26,19.2,9.15,18.46,8.15z"/>
<circle class="st0" cx="6.89" cy="11.09" r="1.78"/>
<circle class="st0" cx="14.89" cy="11.09" r="1.78"/>
<polygon class="st0" points="9.83,17.27 10.68,16.43 11.52,17.27 "/>
</svg>
