<?xml version="1.0" encoding="utf-8"?>
<!-- Generator: Adobe Illustrator 24.0.1, SVG Export Plug-In . SVG Version: 6.00 Build 0)  -->
<svg version="1.1" id="Layer_1" xmlns="http://www.w3.org/2000/svg" xmlns:xlink="http://www.w3.org/1999/xlink" x="0px" y="0px"
	 viewBox="0 0 20.35 21.97" style="enable-background:new 0 0 20.35 21.97;" xml:space="preserve">
<style type="text/css">
	.st0{fill:none;stroke:#37444C;stroke-width:2;stroke-miterlimit:10;}
</style>
<path class="st0" d="M16.42,20.97H3.93C2.31,20.97,1,19.66,1,18.05V5.97h18.35v12.07C19.35,19.66,18.04,20.97,16.42,20.97z"/>
<polyline class="st0" points="5.19,10.45 5.19,1 15.16,1 15.16,10.45 "/>
</svg>
