<?xml version="1.0" encoding="utf-8"?>
<!-- Generator: Adobe Illustrator 24.0.1, SVG Export Plug-In . SVG Version: 6.00 Build 0)  -->
<svg version="1.1" id="Layer_1" xmlns="http://www.w3.org/2000/svg" xmlns:xlink="http://www.w3.org/1999/xlink" x="0px" y="0px"
	 viewBox="0 0 28.3 21.33" style="enable-background:new 0 0 28.3 21.33;" xml:space="preserve">
<style type="text/css">
	.st0{fill:none;stroke:#37444C;stroke-width:2;stroke-miterlimit:10;}
</style>
<polygon class="st0" points="26.08,7.14 14.15,13.16 2.22,7.14 14.15,1.12 "/>
<line class="st0" x1="26.08" y1="7.14" x2="26.08" y2="14.37"/>
<path class="st0" d="M21.54,9.34v8.53c0,0-5.18,2.45-7.39,2.46c-2.25,0.01-7.58-2.46-7.58-2.46V9.34"/>
<path class="st0" d="M21.54,17.87c0,0-3.53,2.46-7.39,2.46c-4.03,0-7.58-2.46-7.58-2.46"/>
</svg>
