<?xml version="1.0" encoding="utf-8"?>
<!-- Generator: Adobe Illustrator 24.0.1, SVG Export Plug-In . SVG Version: 6.00 Build 0)  -->
<svg version="1.1" id="Layer_1" xmlns="http://www.w3.org/2000/svg" xmlns:xlink="http://www.w3.org/1999/xlink" x="0px" y="0px"
	 viewBox="0 0 25.03 25.03" style="enable-background:new 0 0 25.03 25.03;" xml:space="preserve">
<style type="text/css">
	.st0{fill:none;stroke:#37444C;stroke-width:2;stroke-miterlimit:10;}
</style>
<ellipse transform="matrix(0.7071 -0.7071 0.7071 0.7071 -4.1485 10.0154)" class="st0" cx="10.02" cy="10.02" rx="7.86" ry="10.04"/>
<path class="st0" d="M23.32,23.32c0,0-1.58-1.58-2.79-2.79c-0.85-0.85-6.69-1.78-6.69-1.78"/>
<path class="st0" d="M24.32,24.32c-1.04-1.04-3.2-3.2-3.79-3.79c-0.85-0.85-1.78-6.69-1.78-6.69"/>
<line class="st0" x1="17.11" y1="17.11" x2="4.56" y2="4.56"/>
<line class="st0" x1="15.48" y1="4.56" x2="4.56" y2="15.48"/>
<line class="st0" x1="17.11" y1="9.47" x2="9.47" y2="17.11"/>
<line class="st0" x1="10.56" y1="2.92" x2="2.92" y2="10.56"/>
</svg>
