<?xml version="1.0" encoding="utf-8"?>
<!-- Generator: Adobe Illustrator 24.0.1, SVG Export Plug-In . SVG Version: 6.00 Build 0)  -->
<svg version="1.1" id="Layer_1" xmlns="http://www.w3.org/2000/svg" xmlns:xlink="http://www.w3.org/1999/xlink" x="0px" y="0px"
	 viewBox="0 0 22 22" style="enable-background:new 0 0 22 22;" xml:space="preserve">
<style type="text/css">
	.st0{fill:none;stroke:#37444C;stroke-width:2;stroke-miterlimit:10;}
</style>
<circle class="st0" cx="11" cy="11" r="10"/>
<path class="st0" d="M19.64,16.03C16.74,11.98,11,11,11,11S8.99,6.27,11,1"/>
<path class="st0" d="M21,11c-3.22-4.73-10-5-10-5"/>
<path class="st0" d="M7.26,14.02c0,0-3.29-5.5-1.14-11.75"/>
<path class="st0" d="M2.5,16.27C7.18,15.05,11,11,11,11"/>
<path class="st0" d="M6.13,19.73C11.09,18.57,16,13,16,13"/>
</svg>
