<svg xmlns="http://www.w3.org/2000/svg" width="200" height="124" viewBox="0 0 200 124">
  <metadata><?xpacket begin="﻿" id="W5M0MpCehiHzreSzNTczkc9d"?>
<x:xmpmeta xmlns:x="adobe:ns:meta/" x:xmptk="Adobe XMP Core 5.6-c140 79.160451, 2017/05/06-01:08:21        ">
   <rdf:RDF xmlns:rdf="http://www.w3.org/1999/02/22-rdf-syntax-ns#">
      <rdf:Description rdf:about=""/>
   </rdf:RDF>
</x:xmpmeta>
                                                                                                    
                                                                                                    
                                                                                                    
                                                                                                    
                                                                                                    
                                                                                                    
                                                                                                    
                                                                                                    
                                                                                                    
                                                                                                    
                                                                                                    
                                                                                                    
                                                                                                    
                                                                                                    
                                                                                                    
                                                                                                    
                                                                                                    
                                                                                                    
                                                                                                    
                                                                                                    
                           
<?xpacket end="w"?></metadata>
<defs>
    <style>
      .cls-1 {
        fill: #37444c;
        fill-rule: evenodd;
      }
    </style>
  </defs>
  <path class="cls-1" d="M1447.01,3337.62h-1.18l0.76-5.52h-0.51a0.742,0.742,0,0,0-.77.76l-0.41,2.9a2.319,2.319,0,0,1-.7,1.42,1.936,1.936,0,0,1-1.33.53l0.17-1.19a0.607,0.607,0,0,0,.44-0.19,0.947,0.947,0,0,0,.25-0.57l0.4-2.9a1.194,1.194,0,0,1,.24-0.63,1.751,1.751,0,0,1,.4-0.38,1.92,1.92,0,0,1,.54-0.26l0.02-.08a1.16,1.16,0,0,1-.39-0.26,1.077,1.077,0,0,1-.24-0.39,1.562,1.562,0,0,1-.03-0.63l0.35-2.63a0.743,0.743,0,0,0-.07-0.58,0.471,0.471,0,0,0-.4-0.19l0.17-1.19a1.471,1.471,0,0,1,1.19.53,1.786,1.786,0,0,1,.29,1.43l-0.35,2.63a0.706,0.706,0,0,0,.08.58,0.587,0.587,0,0,0,.47.19h0.34l0.74-5.27h1.18l-0.74,5.27h0.34a0.766,0.766,0,0,0,.79-0.77l0.35-2.63a2.314,2.314,0,0,1,.72-1.43,1.942,1.942,0,0,1,1.34-.53l-0.17,1.19a0.613,0.613,0,0,0-.45.19,1.046,1.046,0,0,0-.26.58l-0.35,2.63a1.61,1.61,0,0,1-.22.64,1.465,1.465,0,0,1-.36.38,1.434,1.434,0,0,1-.45.26l-0.02.08a1.268,1.268,0,0,1,.47.26,1.017,1.017,0,0,1,.38,1.01l-0.41,2.9a0.8,0.8,0,0,0,.09.57,0.471,0.471,0,0,0,.4.19l-0.17,1.19a1.471,1.471,0,0,1-1.19-.53,1.693,1.693,0,0,1-.31-1.42l0.41-2.9a0.562,0.562,0,0,0-.58-0.76h-0.5Zm12.8,0,1.18-3.65-0.37-8.24h1.26l0.03,5.44h0.11c0.28-.96.53-1.86,0.77-2.72s0.5-1.76.78-2.72h1.26l-3.84,11.89h-1.18Zm13.98,0h-1.18l1.65-11.89h1.18l-0.74,5.27h0.42a0.766,0.766,0,0,0,.79-0.77l0.35-2.63a2.314,2.314,0,0,1,.72-1.43,1.942,1.942,0,0,1,1.34-.53l-0.17,1.19a0.613,0.613,0,0,0-.45.19,1.046,1.046,0,0,0-.26.58l-0.35,2.63a1.469,1.469,0,0,1-.22.64,1.628,1.628,0,0,1-.35.38,1.608,1.608,0,0,1-.46.26l-0.02.08a1.4,1.4,0,0,1,.48.26,1.193,1.193,0,0,1,.3.39,1.088,1.088,0,0,1,.07.62l-0.41,2.9a0.747,0.747,0,0,0,.1.57,0.441,0.441,0,0,0,.39.19l-0.17,1.19a1.471,1.471,0,0,1-1.19-.53,1.693,1.693,0,0,1-.31-1.42l0.41-2.9a0.556,0.556,0,0,0-.57-0.76h-0.59Zm17.35-11.62a1.717,1.717,0,0,1,.32,1.43l-1.18,8.5a2.249,2.249,0,0,1-.73,1.42,2.042,2.042,0,0,1-1.41.53,1.58,1.58,0,0,1-1.27-.53,1.726,1.726,0,0,1-.3-1.42l1.18-8.5a2.314,2.314,0,0,1,.72-1.43,2,2,0,0,1,1.4-.53A1.567,1.567,0,0,1,1491.14,3326Zm-2.04,9.93,1.18-8.5c0.06-.51-0.13-0.77-0.58-0.77a0.744,0.744,0,0,0-.77.77l-1.18,8.5a0.713,0.713,0,0,0,.08.57,0.578,0.578,0,0,0,.48.19A0.764,0.764,0,0,0,1489.1,3335.93Zm15.42-5.61a1.51,1.51,0,0,1-.2.63,1.392,1.392,0,0,1-.32.38,1.142,1.142,0,0,1-.42.26v0.09a0.852,0.852,0,0,1,.42.27,1.127,1.127,0,0,1,.27.41,1.326,1.326,0,0,1,.04.68l-0.36,2.63a2.356,2.356,0,0,1-.71,1.43,2.033,2.033,0,0,1-1.41.52h-1.85l1.65-11.89h1.68a1.561,1.561,0,0,1,1.27.52,1.752,1.752,0,0,1,.32,1.43Zm-2.62,1.95-0.59,4.16h0.67a0.757,0.757,0,0,0,.79-0.76l0.36-2.63a0.725,0.725,0,0,0-.09-0.58,0.557,0.557,0,0,0-.47-0.19h-0.67Zm1.82-4.59c0.06-.51-0.13-0.76-0.58-0.76h-0.5l-0.57,4.16h0.5a0.744,0.744,0,0,0,.78-0.76Zm10.91,9.94h-1.18l1.65-11.89h1.18l-0.74,5.27h0.42a0.766,0.766,0,0,0,.79-0.77l0.35-2.63a2.314,2.314,0,0,1,.72-1.43,1.942,1.942,0,0,1,1.34-.53l-0.17,1.19a0.576,0.576,0,0,0-.44.19,1.05,1.05,0,0,0-.27.58l-0.35,2.63a1.469,1.469,0,0,1-.22.64,1.628,1.628,0,0,1-.35.38,1.608,1.608,0,0,1-.46.26l-0.01.08a1.352,1.352,0,0,1,.47.26,1.193,1.193,0,0,1,.3.39,1.088,1.088,0,0,1,.07.62l-0.41,2.9a0.747,0.747,0,0,0,.1.57,0.441,0.441,0,0,0,.39.19l-0.17,1.19a1.471,1.471,0,0,1-1.19-.53,1.764,1.764,0,0,1-.31-1.42l0.41-2.9a0.553,0.553,0,0,0-.57-0.76h-0.59Zm13.3,0h-1.26l2.92-11.89h1.6l-0.39,11.89h-1.27l0.12-2.72h-1.09Zm2.11-9.17h-0.08l-1.15,5.27h0.93Zm6.21,48.73-0.59.88a35.152,35.152,0,0,1-10.42,10.31,32,32,0,0,1-6.39,3.1,29.223,29.223,0,0,1-3.34.98c-0.5.12-.99,0.21-1.45,0.29-0.06-.67-0.1-1.39-0.12-2.18a42.787,42.787,0,0,1,.25-5.78,45.33,45.33,0,0,1,1.08-5.94c0.97,0.17,1.85.34,2.67,0.51s1.66,0.37,2.48.57c0.96,0.24,1.75.46,2.34,0.65l0.17,0.05h4.3l0.82-2.46c0.48-1.46,1.02-2.85,1.54-4.2,0.24-.64.49-1.28,0.72-1.91,0.25-.65.5-1.3,0.76-1.95,0.5-1.3,1.02-2.64,1.47-3.96,0.5-1.41.97-2.81,1.44-4.21l0.68-2.01a33.186,33.186,0,0,1,1.96-4.81l1.31-4.25-11.55-6.22-2.59,2.35a67.086,67.086,0,0,0-9.29,10.39c-0.5.66-.95,1.36-1.39,2.03-0.19.29-.39,0.59-0.62,0.94-0.17.3-.35,0.6-0.53,0.89-0.42.7-.86,1.42-1.23,2.14a53.152,53.152,0,0,0-3.01,6.44c-0.25.64-.5,1.31-0.76,2.06a40.538,40.538,0,0,0-5.18,1.45l-0.98.34,1.09,4.58,1-.1c0.75-.08,1.54-0.13,2.35-0.16a56.323,56.323,0,0,0-.94,5.67c-0.01.09-.01,0.18-0.02,0.27l-2.83-1.98-0.84,1.04c-0.52.65-1.02,1.25-1.51,1.79-0.24.23-.47,0.48-0.7,0.72a16.9,16.9,0,0,1-1.21,1.18,31.361,31.361,0,0,1-4.08,3.14c-0.66.41-1.28,0.78-1.89,1.11,0.15-1.54.33-3.1,0.52-4.64,0.46-3.87,1.05-7.96,1.76-12.15,0.65-3.94,1.44-7.98,2.33-12.01,0.87-4.06,1.95-8.07,2.99-11.8l0.3-1.08-8.37-2.63-1.05-.27-0.1-.03v0.01l-0.02-.01-0.31,1.21c-0.75,2.67-1.38,5.02-1.91,7.13-0.74,2.44-1.57,4.89-2.48,7.3-0.29.77-.6,1.53-0.92,2.3-0.16.4-.33,0.81-0.47,1.17-0.19.42-.37,0.85-0.56,1.27-0.32.73-.64,1.47-0.97,2.19-1.19,2.5-2.31,4.68-3.44,6.67-1.36,2.37-2.67,4.42-4,6.3a49.02,49.02,0,0,1-4.61,5.68,34.2,34.2,0,0,1-5.38,4.61,23.22,23.22,0,0,1-2.12,1.27,12.07,12.07,0,0,1-.95-3.26,11.261,11.261,0,0,1,.14-3.7,13.367,13.367,0,0,1,.46-1.57l1.67-2.94-4.23-3.2-7.16,7.51-0.09.09c0.45-1.37.93-2.77,1.44-4.19,0.69-1.92,1.47-3.91,2.32-5.91,0.82-1.99,1.75-3.92,2.62-5.71l0.47-.96-4.48-2.71a39.621,39.621,0,0,0,1.39-5.86l0.25-2.45-9-8.28-3.34,3.35c-3.13,3.13-5.73,5.8-8.25,8.66a99.006,99.006,0,0,0-7.61,9.61,58.268,58.268,0,0,0-6.08,11.23,48.333,48.333,0,0,0-2.62,9.55c-0.26.1-.52,0.21-0.78,0.31-1.6.63-3.29,1.24-5.05,1.83-0.9.31-1.85,0.62-2.89,0.95,0.4-3.86.89-7.9,1.49-12.03,0.91-6.42,2.05-12.82,3.38-19.03,1.46-6.73,3.06-12.78,4.88-18.48,1.12-3.44,2.13-6.26,3.18-8.86,1.24-3.07,2.49-5.82,3.82-8.41l0.68-1.08-10.53-5.2-0.96-.39-0.14-.07-0.51,1.15a122.9,122.9,0,0,0-6.4,17.1l-0.24.58c-0.38.91-.75,1.82-1.13,2.72-1.14,2.73-2.38,5.48-3.58,8.15l-0.81,1.8c-1.49,3.23-3.01,6.35-4.69,9.8-1.49,3.02-3.11,6.04-4.67,8.96l-0.34.65c-0.25.44-.49,0.88-0.73,1.33-0.61,1.12-1.23,2.28-1.9,3.39-1,1.68-1.92,3.19-2.78,4.58-1.07,1.59-2.07,3.03-3.04,4.39-0.66.88-1.27,1.66-1.85,2.38,0.4-2.24.88-4.65,1.47-7.44,1.27-5.8,2.78-12.01,4.78-19.54,1.64-6.19,3.42-12.56,5.44-19.49,1.98-6.78,3.96-13.3,5.87-19.35l0.33-1.06-11.57-4.33-0.17.56-0.06-.03-0.47,1.69c-1.07,3.32-2.3,6.68-3.49,9.94l-0.29.8c-1.46,4.08-3.11,8.16-4.53,11.68-1.37,3.39-2.86,6.81-4.3,10.12l-0.6,1.39c-1.75,3.93-3.56,7.76-5.27,11.36-1.75,3.7-3.69,7.4-5.56,10.98l-0.24.45c-0.9,1.71-1.83,3.47-2.79,5.16-1.05,1.81-2.11,3.61-3.16,5.33-1.21,1.91-2.47,3.75-3.43,5.12-0.51.72-1.06,1.45-1.65,2.22,0.48-2.38.99-4.79,1.51-7.2,1.68-7.59,3.49-14.89,5.39-21.69,2.06-7.42,4.33-14.52,6.73-21.1a154.652,154.652,0,0,1,8.69-19.8l0.57-1.05-11.1-5.68-0.52,1.04a168.154,168.154,0,0,0-8.81,21.64c-2.34,7.05-4.44,14.3-6.39,22.16-1.79,7.15-3.4,14.49-4.92,22.43-1.58,8.26-2.8,15.69-3.74,22.7l-0.1.77,7.6,4.39,0.62-.68a49.382,49.382,0,0,0,4.39-5.71l0.17-.25c1.18-1.82,2.31-3.53,3.34-5.3,0.96-1.52,1.87-3.07,2.75-4.58l0.54-.93c0.8-1.31,1.58-2.66,2.33-3.96l0.88-1.52c1.07-1.78,2.15-3.62,3.2-5.47l3.19-5.46c1.36-2.33,2.69-4.73,3.98-7.04,0.73-1.33,1.47-2.65,2.22-3.98,0.31-.55.62-1.12,0.94-1.68-1.03,4.65-1.89,8.83-2.64,12.84-0.73,3.99-1.26,7.27-1.67,10.34a67.81,67.81,0,0,0-.71,11.06l0.02,0.62,6.62,4.05,0.61-.4a12.608,12.608,0,0,0,2.8-2.59l0.22-.25c0.62-.79,1.24-1.63,1.89-2.58,1.2-1.81,2.18-3.34,3.08-4.89,0.95-1.55,1.89-3.13,2.84-4.79,0.88-1.45,1.81-3.02,2.8-4.76l5.69-9.39c1.14-1.86,2.26-3.77,3.34-5.62l0.9-1.53c-0.69,4.46-1.28,8.97-1.77,13.47-0.79,7.43-1.26,13.81-1.49,20.07l-0.03.63,6.44,4.51,0.64-.37c1.79-1.07,3.44-2.1,4.81-2.97,1.52-.97,3.11-2,4.71-3.08,0.91-.61,1.83-1.25,2.79-1.93l6.46,4.81,5.03,1.63,1.38-2.37a78.056,78.056,0,0,1,5.9-8.65c0.65-.82,1.31-1.63,2-2.46l-0.79,3.12,7.7,5.07,4.6,2.37,2.16-3.67c0.24-.39.47-0.79,0.7-1.19,0.12,0.43.25,0.86,0.39,1.28,0.17,0.49.35,0.98,0.56,1.47,0.1,0.26.22,0.51,0.35,0.78l0.24,0.48c0.06,0.11.12,0.22,0.25,0.43l0.23,0.35,5.04,1.66,0.39-.16a6.323,6.323,0,0,0,.68-0.33l0.77-.46c0.35-.22.68-0.44,1.01-0.67,0.7-.5,1.34-0.99,1.84-1.38,1.37-1.12,2.38-2,3.25-2.85a73.41,73.41,0,0,0,5.7-6.07,101.448,101.448,0,0,0,6.78-8.92c-0.07.52-.13,1.04-0.19,1.55-0.58,4.76-.97,8.81-1.22,12.75l-0.04.6,5.77,4.74,0.61-.22a3.442,3.442,0,0,0,.51-0.22l0.11-.05c0.13-.06.23-0.12,0.34-0.18l0.11-.05c0.24-.13.46-0.26,0.68-0.39l0.12-.06c0.57-.35,1.03-0.64,1.43-0.92,1.01-.7,1.83-1.32,2.58-1.95a45.484,45.484,0,0,0,4.47-4.32,56.584,56.584,0,0,0,3.68-4.68c0.4-.53.76-1.08,1.12-1.61l0.56-.84c0.19-.3.37-0.59,0.55-0.88,0.3-.47.59-0.94,0.9-1.41-0.14,1.81-.19,3.64-0.15,5.45,0.04,1.33.12,2.51,0.23,3.62,0.07,0.61.14,1.22,0.24,1.86l0.15,0.93c0.07,0.34.12,0.61,0.23,1.08l0.69,2.99,7.27,1.7,0.96-.14a6.18,6.18,0,0,0,.66-0.15l0.7-.2c0.39-.11.76-0.24,1.13-0.36,0.69-.24,1.39-0.51,2.15-0.83a39.7,39.7,0,0,0,4.03-2,40.458,40.458,0,0,0,7.16-5.17,41.08,41.08,0,0,0,9.98-13.94l0.43-.97Zm-90.87-10.72a54.111,54.111,0,0,1-1.47,5.51c-0.64,1.98-1.39,3.98-2.23,5.96-0.53,1.27-1.11,2.54-1.71,3.77-0.08.12-.16,0.24-0.25,0.36-0.11.15-.22,0.31-0.32,0.45a92.543,92.543,0,0,1-6.27,7.7l-0.83.87-1.17,1.1c-0.53.47-1.02,0.92-1.55,1.32-0.1.08-.2,0.16-0.3,0.23a37.477,37.477,0,0,1,1.95-6.89,46.609,46.609,0,0,1,5.02-9.23,91.863,91.863,0,0,1,6.84-8.63C1443.79,3368.18,1444.55,3367.35,1445.38,3366.46Zm72.83,4.18c0.4-.85.81-1.66,1.25-2.44,0.28-.56.61-1.09,0.95-1.66,0.17-.28.34-0.56,0.5-0.84,0.19-.27.37-0.56,0.56-0.84,0.36-.55.7-1.07,1.09-1.59a52.17,52.17,0,0,1,3.57-4.44c-0.34,1.74-.72,3.32-1.15,4.78a27.7,27.7,0,0,1-1.99,5.03,18.372,18.372,0,0,1-1.26,1.96h-0.18q-1.425-.015-2.85.03C1518.54,3370.63,1518.37,3370.64,1518.21,3370.64Zm5.08,41.22-1.66-.28-4.42-.63c-1.88-.24-3.78-0.47-5.8-0.69-3.41-.37-7.08-0.7-11.57-1.03-7.55-.54-15.31-0.87-23.06-0.98-7.49-.1-15.23-0.01-23,0.29-7.56.27-15.27,0.75-22.91,1.43-2.84.22-5.72,0.53-8.51,0.82-0.96.1-1.93,0.2-2.92,0.31l-3.43.42c-2.6.31-5.3,0.63-7.92,1.02-8.1,1.09-15.97,2.49-22.61,3.72a453.412,453.412,0,0,0-44.41,10.93l-1.07.32,2.19,8.14,1.09-.26a443.251,443.251,0,0,1,43.93-8.37c6.55-.86,14.3-1.82,22.21-2.45,2.54-.24,5.15-0.42,7.66-0.58,1.16-.08,2.31-0.15,3.43-0.24l2.96-.15c2.68-.14,5.46-0.28,8.19-0.35a414.931,414.931,0,0,1,44.46.79c7.43,0.54,14.84,1.28,22.03,2.21,4.29,0.56,7.75,1.08,10.89,1.6,1.86,0.31,3.67.64,5.37,0.96l2.64,0.52,3.04,0.67c-0.27.35-.54,0.66-0.8,0.96a34.552,34.552,0,0,1-2.48,2.53c-0.92.87-1.92,1.72-2.76,2.43-0.87.71-1.84,1.47-2.95,2.32l-0.79.59,1.67,3.16,0.94-.34c1.34-.49,2.54-0.95,3.68-1.42,1.09-.46,2.38-1.01,3.64-1.63a39.657,39.657,0,0,0,3.64-1.98c0.58-.34,1.18-0.73,1.86-1.22l0.08-.06c0.28-.21.56-0.42,0.83-0.64,0.11-.09.24-0.2,0.36-0.31l0.29-.26a4.624,4.624,0,0,0,.53-0.57l0.2-.24,0.5-3.04,1.7-14.23-1.28-2.86Z" transform="translate(-1340 -3318)"/>
</svg>
