<svg xmlns="http://www.w3.org/2000/svg" width="338.08" height="279.1"
	 viewBox="0 0 169.04 139.55">
<style type="text/css">
	.st0{opacity:0.18;}
	.st1{fill:#37444C;}
</style>
<g>
	<g class="st0">
		<path class="st1" d="M98.88,99.34c2.52-0.53,5.98,0,8.96-0.53c0,1-1.52,1-2.46,1.46c-1.05,0-2.52,0-3.98,0
			C100.35,100.8,98.88,100.8,98.88,99.34z M118.8,98.28c0,0,0,1.52,1,1.52c0.47-1.52,0.47-4.45-1.52-4.98
			C117.81,95.82,118.28,97.34,118.8,98.28z M108.84,86.85c1.46-1,2.52-1.46,2.99-2.52c1-0.94,1.52-1.99,0.47-2.93
			c-0.94,0-0.94,1.46-1.46,1.99c-1.46,0.94-2.52,2.46-3.98,2.93c-1,0.53-2.52,0.53-1.99,1.99
			C105.86,88.85,107.85,87.38,108.84,86.85z M66.01,83.87c-0.47,1,0.47,1.99,1.52,2.46c0.47,1.05,0.94,1.99,1.99,1.99h0.94
			c0-0.47,0-0.94,0-0.94C68.47,86.85,68.47,83.87,66.01,83.87z M113.36,85.39c0,0,0.47,0.47,0.94,0c1.05-1.52,2.52-2.52,2.52-4.51
			c0.53-2.99-1-5.98-1.99-7.97c-1.99-1-3.46-2.52-3.98-4.98c-1,0-1,1-1,1.99c1,2.46,2.99,3.52,4.98,4.98c0,2.52,1,4.51,1,6.5
			C115.35,82.87,113.36,83.4,113.36,85.39z M62.03,64.41c0.47,0,0.47-0.47,0.47-0.47c0-1,1.05-1,1.05-1c0.47-1.46,0-3.46,1.99-3.46
			c1.46,1.46,0.94,4.45,2.93,4.92c-1.99,1.52-1.99,3.52-2.93,5.51c-1.05,1.99-2.52,3.52-3.52,4.98c0,1-0.47,1.46-1,1.99
			c0,2.52-0.53,3.98-0.53,6.5c0.53,0.94,1.99,1.99,3.05,1.46c0-1.46-1.05-1.46-1.52-2.99c0-7.5,5.51-10.43,6.97-16.93
			c0-0.53,0-0.53,0-0.53v-1.46c-0.53-1.99-1-4.51-2.52-5.45c-0.47,0-1.46,0-1.46,0c-1.46,0-2.52,1.99-2.99,1.46
			c0.47-1.99,1.99-2.52,3.52-3.46c3.46-0.53,4.92,0.94,6.91,1.99c1.99,0.94,3.05,4.45,5.04,4.92c1.46,0,2.46-0.94,3.46-1.46
			c1.46-0.53,1.99-1,2.99-1.99c0,0,1,1,1.52,0.53c0.47-1.05,1.46-1.52,2.46-1.99c0-0.53,1-0.53,1.52-1.52
			c0.47-0.47,1.46-2.99,0.47-3.52c-1,0-0.47,1.05-0.47,1.05c-0.53,0.94-1.05,0.94-1.05,0.94c-0.47,1.52-1.46,3.05-2.46,2.52
			c1-1.46,1.99-2.99,2.46-4.51c-0.47-2.46-2.46-3.98-3.98-4.92c-0.94-0.53-1.99-1.05-2.93-1.52l-1.05-1.52c0,0-1.46,0-1.99-0.47
			c0-1.52-0.94-1.52-0.94-2.99c-0.53-2.99,2.46-5.98,3.98-8.5c0,0,0.47-0.94,0.47-0.47c-0.47,1-1,2.46-1.52,3.52
			c-0.47,0.94-1.99,2.93,0,3.46c0.53-0.53,0-1.99,0.53-2.99c1-1,2.52-1.99,2.99-3.98c1,0,1.52-0.47,1.52-1.52c0,0-1.05,0.53-1.52,0
			c1-1.99,3.52-3.46,6.97-2.46c0,0,0.53,1.52,0.53,2.46c-2.52-0.94-3.52,1.99-5.51,3.05c0.47,0.94-0.47,1.46,0,2.93
			c-1.52,0-1,1.52-1.52,1.99c0.53,1.99,2.52,3.52,5.04,2.52c-0.53-1.46-3.05-1-3.52-2.52c0.47-1.46,1-1.99,1-3.46
			c1.46-1,1.46-2.99,3.46-2.99c1.52,0.47,0.53,2.99,3.05,2.46c0.47-2.46,0-5.98-1.52-7.44c-1.52-0.53-2.99-1-5.51-0.53
			c-1.99,1.05-3.46,2.52-4.92,5.04l-1.52,0.47c-0.47,1.52-1.52,1.99-1.99,2.99c-0.47,1-1.99,2.99-1.99,2.99c-1,2.99,0,4.45,1,5.51
			c0,0.94,0.53,1.46,1,2.46c2.99,1,5.98,2.46,7.97,4.98c1,2.99-0.47,3.98-2.46,5.98c-1.52,1.99-3.05,3.46-5.51,3.46
			c-2.46-2.93-6.45-6.91-11.95-5.98c0,0-1.52,1.05-2.46,1.05c0,0.94-1.99,0.94-1.52,2.46c-1-0.47-1,0.47-1,0.47s-0.53,1.05-1,1.05
			C60.04,61.95,60.5,63.94,62.03,64.41z M55.05,80.35c-0.53-0.94-2.99-0.94-2.99,0.53C52.07,81.87,55.05,81.41,55.05,80.35z
			 M106.32,67.93c-0.47,1,0,2.99,0.53,4.45c-1,1.52-1.99,3.05-4.51,3.05c-1.46-1.52-1.99-3.98-0.94-5.98
			c-1.52-0.53-1.52,0.47-1.99,1.46c-0.53,2.52,0.47,4.51,1.99,5.98C106.32,78.36,110.84,71.44,106.32,67.93z M122.26,71.44
			c0.53,0.94,2.52,0.94,2.52-0.53C124.25,69.92,122.26,70.39,122.26,71.44z M102.87,60.96c-1.46,0.53-1.46,2.99-1.99,4.98
			c-1,1-1.99,1.52-2.52,2.99c0.53,0.53,0.53,0.53,1.52,0.53c0.47-1.52,1-3.05,2.46-3.52C102.34,63.94,104.33,62.42,102.87,60.96z
			 M101.4,68.92c0.47-1,1.46-1.46,1.46-2.99C102.87,65.94,100.35,68.92,101.4,68.92z M111.36,66.41c0,0,0.47-0.47,1.46-0.47
			s0.53,1.99,1.99,1.99c0,0,0-0.47,0.53-0.47c0-1.05,0-1.52,0-2.52c0-1-1.52-2.52-1.52-2.52c-1-0.94-1.99-0.94-2.46-0.47
			c0,1.52,1.99,1.52,1.99,2.46C112.3,64.94,110.31,65.47,111.36,66.41z M106.32,64.94c0,1-0.47,1-0.47,2.52c0.47,0,0.47,0,0.47,0
			c0.53-1.05,1.52-1.52,1.99-2.52c0.53-1,3.05-1.46,2.52-2.99C108.32,61.95,107.85,63.94,106.32,64.94z M48.55,65.47
			c0.53,0.94,3.05,0.47,3.05-0.53C51.07,64.41,48.08,63.94,48.55,65.47z M91.44,42.5c0,1.99,1.99,1.99,3.46,1.99
			c1,1.52,1.99,3.05,2.99,3.52c0.47,0.47,1.52,1,1.99,1c1,1.46,2.46,2.52,3.52,3.46c0,2.52,1.99,4.51,1.46,7.03
			c0,1.46-1.46,2.93-1.46,4.92h0.94c0.53-1.46,1.52-1.99,1.99-2.93c0.53-2.52,0-3.98-0.47-5.98c-0.47-1.52-1-3.05-1.52-3.98
			c-0.47-0.53-1.46-1.05-1.99-1.99c-0.47-0.53-1.46-1.05-1.99-1.52c-1.46-1-3.46-1.99-3.98-3.98C94.37,44.02,93.9,42.5,91.44,42.5z
			 M67.01,51c-1-1.99-1.99-5.98,0-7.97c0.53-0.53,0.53,0.53,0.53,0.53c0.47,0.94,1.46,1.46,1.99,2.46c0.94,1.52,0.94,2.99,1.46,4.98
			c0,0.53-0.53,0.53-0.53,0.53C70,51.99,70,51.99,70,51.99C69,51.52,68,51.52,67.01,51z M69,50c0-1.52-0.53-2.46-1.46-2.99
			C67.01,48.01,68,49.53,69,50z M117.81,50.47c0.47-1.46,3.98-0.94,2.99-2.93c-1.99,0.47-3.98,0.47-4.51,2.46L117.81,50.47z
			 M103.39,46.01c-1.52-1.99-3.05-3.52-4.51-5.51c0.53-1.99,0-4.45,2.52-4.45c0.94,0,0.47,1,0.94,1.99
			c1.05,1.52,1.05,3.52,1.52,5.98c0,0.47,1,1,0.47,1.52l-0.47,0.47C103.86,46.01,103.39,46.48,103.39,46.01z M101.4,40.51
			c0-0.94,0-1.46,0-1.46C100.35,39.57,100.88,40.51,101.4,40.51z M56.05,42.03c0.47-1.52-2.46-2.46-2.46-1
			C54.06,42.03,55.58,42.5,56.05,42.03z M70.99,32.07c-1-1.52-1.99-4.98-1.46-7.5c1.46-0.47,1.99,0,2.93,1.05
			c0.53,0.94,1.05,2.46,1.05,3.46c0,0-0.53,1.46-1.05,2.52C72.46,32.07,72.46,32.54,70.99,32.07z M70.99,27.62
			c0.53,0.94,0.53,2.46,0.53,2.46C71.99,29.61,71.99,28.09,70.99,27.62z M110.84,28.55c-1.99-0.94-3.98,0-3.98,1.99
			c0.53,0,0.53,0.53,0.53,0.53C108.32,29.61,110.31,29.61,110.84,28.55z M83.94,25.1c-1-1.46-1-3.46-1-5.98
			c1-0.53,1.46-1.46,1.99-2.52c1,0,0.53-1.99,1.99-1.99c1.46,0.53,1,3.05,1,5.04c-0.47,1.99-1.99,3.46-2.99,5.45
			C84.41,25.1,84.41,25.1,83.94,25.1z M84.41,21.64c0.53,0,0.53,0,0.53,0c1-1.05,1.46-1.99,1.46-3.52
			C85.47,18.59,84.41,19.65,84.41,21.64z M122.26,96.29c0.53,5.04-0.94,9.96-4.45,11.95c-2.46-0.94-3.98,0.53-6.97,0
			c-1,0-0.53,1.52-1,1.99c-1,0.53-2.46,1.05-3.98,0.53c-0.47-0.53-0.47-1.46-1-1.99c-1.99-0.53-4.51,0-5.45-1c0-1,0.94-1,1.99-1
			c-2.52-0.53-5.98-0.53-9.02,0c1.05,1,3.98,0,5.51,0.53c-0.47,1.46-3.52,1.46-5.51,0.94h-1.46c-1.46-0.47-1,1.05-1.99,0.53
			c-1-1,0.53-1.99,1.46-1.99c-0.47-0.53-1.46-1-1.46-1c-0.53,0.47-0.53,1-1.46,1.52c-3.05,0.94-7.5,0.94-10.49,1.46
			c-1,0-0.53,1.46-1.99,1c-1.46,0-1.99-1-2.99-1c-1.99,0.53-3.52-0.53-5.98-0.53c-2.99,0-6.45,1.05-9.49,0.53c-0.94-0.53,0-1,0-1.99
			c-1.46-1-1.46-2.99-2.93-3.98c0-3.46-1.05-5.98-1.52-8.5l0.47-0.94c1.52-1.05,3.98-0.53,6.5-0.53c0,0,1.46-1,1-2.52
			c1,0,1.52,0.53,2.46,0.53c0.53,1.46,1.52,1.99,2.52,2.99c2.52-0.47,3.98,1,5.45,0c0.53-1.52-0.94-1.52-1.46-2.46
			c-0.53-0.53-1-1.05-1.99-1.52c-0.53-1.52-2.99-1.52-3.46-3.52c2.93-0.94,3.46,1.99,5.45,3.05c1.46,1.46,2.99,2.93,4.51,3.98
			c1.46,0.47,3.46,0,5.45,0c1,0.47,2.52,0.47,2.52,1.46c-1.99,0.53-3.52,0-5.51,0.53c-1.52,0.47-2.46,1.99-3.52,0.94
			c1.05,3.52,3.98,6.5,3.05,11.48c4.45,0,7.97-1.52,11.95-1.99c0-0.47,0-1,0-1c-3.52-1-7.03,1-10.49,0.53
			c-0.53-1.05,1-1.05,1.99-1.05c1.99-0.47,4.98-0.94,6.97-1.46c-1.52-1-2.99,0-4.98,0c0-1.46-0.53-1.46-0.53-2.52
			c1.52-0.47,3.98-0.47,5.98-0.94c1.05,0.47,1.99,1.46,3.05,1.46c0.47,1.46-0.53,2.52-0.53,3.98c0.53,1,1.46-0.53,1.99,0
			c0-1-1-2.52,0-2.99c1.46,0,1,2.46,1.99,2.99c0,0,0.53,0,1,0c0.47-0.53,0-1,0.47-1.46c3.98,0,7.5,0.94,10.49,0
			c0.53,0,0-1.52,0.53-1.52c0.94-0.47,0.47,0.47,1.46,0c0.53-0.47,1-1.52,1-2.46c1-0.53,1-1.52,1.52-2.52
			c-1.05-0.53-1.99,0.53-3.05,0.53c-3.46,0-6.91,0-9.43-1.05c-1.99,0-3.46,0.53-4.98,1.52c-1.52,0-2.99-1-3.98,0
			c-0.47-0.47-1-1-1.99-1.52c-1.52,0.53-1.99,0-3.52,0c-0.47-0.94,0.53-1.46,0.53-1.46c-0.53-1.99-3.46-2.52-2.99-4.51
			c2.46,0,2.46,2.52,4.45,3.05c0.53,0.47,1.05,0.47,1.05,1.46c1.46,0,2.93,0.53,3.98,1c0,0,0.47-2.46,0-3.52
			c0.94,0,0.94-0.47,1.99-0.47c0.47,0,0.47-0.47,1.46-0.47c1.99-1.99,4.98-3.52,5.45-7.03c-2.46-0.47-4.45,1.99-7.44,1.99
			c-1.46-3.98,2.52-7.97,1.99-11.95c0-1.46,0-3.98-1.46-4.92c0,0-0.53,0.47-0.53,1.46c-1.46-0.53-1.99,0-3.46,1
			c0,0-0.53,0.47-1.05,0.47c-0.47,0.53-0.94,1.05-1.99,1.52c-2.93,1.99-7.97,4.45-10.43,6.97c0.47,1.46-0.47,2.99,0,3.46
			c0.47,2.52,3.52,1.99,4.45,3.98c-0.94,0-2.93-0.47-3.98-0.94l-0.47-0.53c0,0-0.47-0.53-1-1.46c-1-1.05-1-3.52,0-5.98
			c1.46-1.05,2.99-1.99,4.51-3.05l1.46-0.47c0.53,0,0.53-0.47,0.53-0.47c1.46-1.05,2.46-1.05,2.46-1.05c1-0.94,1.99-1.46,2.46-1.99
			c0.53-0.47,1.05-0.47,1.05-0.47c0.47-0.47,0.94-0.47,1.46-1c1.46-1.46,2.99-3.46,4.51-3.46c0.94,0,1.46,1.46,2.46,2.46
			c0,0,0.47,1.52,0.47,2.46c1.05,5.04-1.99,7.97-1.99,11.95c1.52,0,2.52-0.94,3.98-1.46c1.05-0.53,1.99-1.46,3.52-1
			c1,1.52-0.47,3.52,0,4.98c-1.99,1.46-2.46,3.46-4.45,4.98c0,0-1.05,0-1.52,0.47v0.53c-0.47,0-1,0-1,0c-1,1-1.99,1.99-2.52,2.99
			c2.52,0,3.52-1.52,5.98-1c0.53-0.53,1.05-1.46,1.52-1.99c4.45-0.53,7.5-2.99,10.96-4.98c0.53-1,1.99-2.46,2.99-1.52
			c0,1.05-0.47,1.99-1.99,1.99c-1,1.05-1.52,1.52-2.99,1.99c3.46,1.05,7.97-2.93,10.96-0.94c1-0.53,1.52-1.52,2.46-1.05
			C120.8,90.31,121.79,93.36,122.26,96.29z M62.03,106.25c-1,0-1.99,0-1.99,0.53C61.03,107.3,61.56,106.78,62.03,106.25z
			 M61.56,101.8c2.93,0,5.45-0.47,8.44-0.47c0-1.99-3.52,0-3.98-1.05c0-1.99,2.99-0.94,3.52-2.46c0-1.52-1.52-0.47-2.52-0.47
			c-2.52,0-4.51,0.47-4.98-1.05v-0.94c1.52,0,2.99,0.94,3.98,0c-1,0-1.52-0.53-2.99-0.53c0,0-0.53-1.99-1.46-1.99
			c0,0.53,0.47,0.53,0.47,1.46c0,0-1,1.05-1.99,1.05c-1-0.53-2.46-1.52-3.98-1.05c-0.47,0-1.99,0-1.99,0
			c1.52,0.53,1.99,1.05,1.99,1.05c2.99-0.53,4.45,2.46,5.51,3.46c-0.53,0.53-0.53,1.46-0.53,1.46c-1.46-0.47-1.99-2.93-3.46-1.99
			c1.46,1.05,1.99,2.52,2.93,3.98c0,1.05-0.94,1.05,0,1.52c3.05,0,6.5-0.47,9.49,0c0-1-1-1-1-1c-1.46,0-2.99,0-2.99,0
			C64.49,102.79,61.56,103.32,61.56,101.8z M72.98,100.8c-0.53-1-0.53-2.99-1.99-2.52c1,3.05,1,6.5,2.99,8.5
			C74.45,104.26,73.51,102.79,72.98,100.8z M101.4,104.78c0,0-1.99-0.53-2.52,0.53C99.88,104.78,101.4,105.78,101.4,104.78z
			 M110.84,91.37c-1.99,0.47-3.46,0.94-4.98,1.46c0,0-0.47-1-1.52-1c-0.47,0.47-1.46,0.47-1.46,1.99
			C105.86,94.82,108.84,92.83,110.84,91.37z M108.32,107.3c-0.47,0-0.94,0-1.46,0c0,0.47,0,2.46,1,2.46
			C108.32,109.3,108.32,108.24,108.32,107.3z M110.84,99.8c-1.46-0.47-1.46,1.52-2.52,2.46c0,0.53,1.05,0.53,0.53,1.52
			c-1,0-1,1.52-1.99,1.99c1,0,1,0.47,1.46,1c0.53-1-0.47-1,0-1.99c0.53-1,1.05-1.46,1.05-2.99
			C109.37,101.8,110.31,100.8,110.84,99.8z M111.83,96.29c0,0-1,1.05,0,1.52C111.83,97.81,112.83,96.82,111.83,96.29z M114.29,90.84
			c-0.47,0-0.94,0-1.46,0c0,0.53,0,1,0,1.46c-1,0.53-2.52,1.52-3.46,1.99c-1.52,0.53,1.99-0.47,2.46,0
			C112.3,92.83,113.82,92.3,114.29,90.84z M119.33,90.84c-1.05,0.53-1.99,0.53-3.05,1c-0.47,1.52,1.05,1,1.05,2.46
			c0,1.05,0,1.99,0,3.05c-1.99,2.46-0.53,6.91,0.94,8.91c1.05-1.46,1.99-2.93,2.52-5.45C121.32,97.34,120.27,93.36,119.33,90.84z"/>
	</g>
	<g>
		<g>
			<g>
				<g>
					<path class="st1" d="M101.4,104.26h-0.53l0,0c-1.46,1.52-3.98,2.52-6.5,2.52c-3.98-0.53-8.91-1.99-14.41-4.98
						c-4.98-3.52-8.96-4.45-11.95-4.98h-1c-2.99,0-4.98,1.46-6.5,2.99l-0.47-0.47c1.99-1.99,4.45-3.52,8.44-3.52c0,0,0.53,0,1.05,0
						l0,0c3.46,0,6.91,1.52,11.43,4.45c8.5,5.04,14.94,6.5,18.93,3.98c0,0,0.47-0.47,1-0.47L101.4,104.26z"/>
				</g>
			</g>
			<g>
				<g>
					<path class="st1" d="M115.35,100.27c-1.99,1.52-4.51,2.52-7.03,2.52c-0.47,0-0.94-0.53-1.46-0.53c0,0-0.53,0-1,0
						c-3.52-0.47-7.5-1.99-11.48-4.45c-8.44-4.98-13.95-5.98-17.4-3.98c-0.53,0.47-0.53,0.47-1,1c0,0-0.47,0-1,0
						c0.53-0.53,0.53-1,0.53-1c3.98-2.99,10.43-3.52,19.39,2.46c8.96,5.04,15.94,6.5,19.92,3.52L115.35,100.27z"/>
				</g>
			</g>
			<g>
				<g>
					<path class="st1" d="M107.38,102.26c0,0,0,0-0.53,0c-1.46,1.52-3.46,1.99-5.98,1.99l0,0c0,0,0,0-0.53,0h-0.47
						c-3.52-0.47-7.97-1.99-12.95-5.45c-4.51-2.52-7.97-3.98-10.96-3.98c0,0-0.47,0-1,0c-1.99-0.53-3.98,0-5.45,1l0,0
						c-0.53,0.47-1.05,0.47-1.52,1h-1c0.53-0.53,1-0.53,1.46-1c1.52-1.52,3.98-2.46,7.5-1.99c0.47,0,0.47,0,0.47,0
						c3.52,0.47,7.03,1.52,11.02,3.98c7.97,4.98,14.41,6.97,18.4,4.45c0.47,0,0.47-0.47,0.47-0.47L107.38,102.26z"/>
				</g>
			</g>
		</g>
	</g>
	<g>
		<g>
			<path class="st1" d="M95.43,43.03l-3.05-4.98c0.53-0.47,1.05-0.47,1.52-0.47l-2.99-5.51c0,0,0.53,0,1,0l0,0l-3.52-6.45
				l-3.46,6.45l0,0h1.46l-2.93,5.51c0.47,0,0.47,0,0.94,0.47l-2.46,4.98c1.52,1,3.52,1,5.51,1v1.99h1.99v-1.99
				C91.44,44.02,93.43,44.02,95.43,43.03z"/>
		</g>
	</g>
	<g>
		<path class="st1" d="M33.71,64.85c2-2.52,2.24-6.12,1.4-6.48c-0.32-0.24-1,0.32-2.04,1.64c-1,1.32-2,2.92-3,4.72
			c1.16-0.12,1.84-0.16,2.08-0.04c0.6,0.28,1.32,1.16,2.08,2.6l2.16,4.08c0.68,1.28,1.28,1.92,1.76,1.92c0.52,0,1.16-0.48,1.96-1.44
			c0.68-0.8,1.08-1,1.2-0.56c0.12,0.28,0,0.88-0.32,1.8c-0.76,2.08-1.96,4.16-2.76,4.92c-0.8,0.72-1.92,1.4-3.36,2.08
			c-1.44,0.68-2.64,1-3.64,1c-0.72,0-1.44-0.72-2.16-2.12c-0.72-1.4-1.44-3.16-2.16-5.28c-0.68-2.12-1.12-3.4-1.32-3.84
			c-1,2-1.68,4.84-2,8.56c0-0.04,0-0.04-0.04-0.08c-0.04,0.4-0.12,0.68-0.2,0.8c-0.16,0.24-0.64,0.6-1.44,1.08
			c-0.76,0.48-1.4,0.72-1.88,0.72c-0.88,0-2.12-0.84-3.76-2.56c-1.6-1.72-2.4-2.92-2.4-3.6c0.04-0.92,0.2-2,0.56-3.28
			c0.2-1.12,0.32-2.12,0.32-3c-1.08,1.28-1.92,2.6-2.56,3.96c-0.6,1.32-0.8,2.24-0.6,2.68c0.16,0.28,1,0.84,1,1.04
			c0,0.84-0.92,1.84-2.76,3.08c-1.8,1.2-3.32,1.8-4.56,1.8c-0.84,0-1.92-0.76-3.16-2.28c-1.24-1.56-1.92-2.64-2.04-3.28L0,74.05
			v-0.04c0.28-0.48,0.64-1.12,1.16-1.88c0.52-0.8,1.4-1.92,2.56-3.36c1.16-1.44,2.4-2.72,3.68-3.88c0.68-0.64,2.28-1.4,3.08-1.4
			c0.68,0,1.92,0.4,3.8,1.2c-1.52-4.96-6.04-6.36-7.24-4.12c-0.96,1.72-0.24,3.48-0.84,3.28c-0.4,0-0.84-0.64-1.32-1.92
			s-0.64-2.24-0.52-2.84c0.2-0.68,1.44-1.96,3.8-3.8c2.36-1.84,3.88-2.76,4.6-2.76c1.12,0,2.04,1.2,2.8,3.6
			c0.76,2.4,1.2,5.24,1.24,8.48l1.2-3.36l1.52-4.28c0.16-0.48-0.28-0.76-0.28-1.04c0-0.2,0.4-0.68,1.24-1.44s1.48-1.12,1.92-1.12
			c0.6,0,1.72,0.32,3.36,1c1.64,0.68,2.52,1.12,2.68,1.32c0.36,0.36,0.44,1,0.28,1.92c-0.28,1.76-0.68,2.8-0.88,3.24l-1.44,4.68
			c0.16-0.04,0.28-0.08,0.4-0.08c2.64-4.84,4.36-7.84,5.16-9c1.4-2.04,2.48-3.04,3.32-2.92c0.96,0.12,2.76,0.52,4.72,1.28
			c1.96,0.68,3.4,1.84,2.96,2.96c-1.52,3.72-4.36,6.32-8.56,7.84C33.59,65.93,33.19,65.53,33.71,64.85z"/>
		<path class="st1" d="M64.16,63.77v0.28c0,0.52-0.36,2.08-1.12,4.64c0,0.04-0.12,0.48-0.24,0.76c-2.16,8.04-3.64,13.12-4.4,15.24
			c-0.48,1.44-1.76,2.84-3.88,4.24c-2.12,1.4-4.08,2.08-5.88,2.08c-1,0-2.36-0.68-4.04-2.04c-1.64-1.32-2.48-2.68-2.48-4.04
			c0-1.88,1.64-3.88,3.88-5.32c-1.96-0.92-3.88-2.68-4.36-4.08c-0.08-0.16-0.12-0.28-0.12-0.4v-0.2v-0.04v-0.32
			c0.08-0.84,1.04-3.64,2.92-8.48c0.6-2.04-1.6-1.28-1.6-1.92c0-0.36,0.6-1,1.84-1.84s2.24-1.28,2.96-1.28
			c0.52,0,1.32,0.16,2.32,0.52s1.84,0.68,2.44,1.04c0.48,0.28,0.68,0.88,0.64,1.24v0.32c0,0.84-0.32,2.16-0.96,4
			c-1.04,3.64-1.6,5.84-1.68,6.64c0,0.52,0.2,0.8,0.56,0.8c0.48,0,1.32-1.36,2.52-4.12c0.04-0.28,0.28-0.8,0.28-0.92
			c1.08-2.92,1.8-4.88,2.2-5.88c0.16-0.48-0.28-0.72-0.28-1c0-0.2,0.4-0.68,1.2-1.44c0.84-0.76,1.48-1.12,1.92-1.12
			c0.52,0,1.32,0.16,2.32,0.48c1.04,0.28,1.84,0.6,2.4,0.88C64,62.77,64.2,63.33,64.16,63.77z M49.48,84.45
			c1.08-2.36,2.12-5.12,3.12-8.2c-2,2.6-3.4,3.92-4.24,3.92h-0.08c-1.28,2.4-1.96,4.56-2.08,6.44c-0.04,0.96,0.16,1.44,0.56,1.44
			C47.52,88.05,48.4,86.85,49.48,84.45z"/>
		<path class="st1" d="M85.4,76.45c0,0.44-1.16,1.64-2.32,2.56c-0.6,0.48-1.4,0.96-2.36,1.4c-0.92,0.44-1.72,0.64-2.32,0.64
			c-1.68,0-3.2-2.72-4.52-8.2c-0.44,1.08-0.76,2.08-0.96,3.04c-0.16,1.24-0.24,2.24-0.24,3.04c0,0.28-0.48,0.68-1.4,1.28
			c-0.92,0.56-1.6,0.84-2.12,0.84h-0.04h-0.04c-0.92,0-2.04-0.68-3.4-2.04c-1.36-1.36-2.04-2.36-2.04-3.04
			c0-1.16,0.36-2.84,1.12-4.96l1.8-4.92c0.6-2.08-1.56-1.2-1.56-1.92c0-0.36,0.6-1,1.84-1.84s2.2-1.28,2.96-1.28
			c0.52,0,1.28,0.16,2.28,0.52s1.84,0.68,2.48,1.04c0.48,0.28,0.68,0.88,0.68,1.24l-0.04,0.32c0,0.44-0.4,2-1.16,4.64
			c0,0.08-0.08,0.44-0.16,0.64c0.96-2.08,2.08-4,3.4-5.76c1.32-1.76,2.44-2.64,3.32-2.64c0.6,0,1.68,0.44,3.24,1.36
			c1.56,0.88,2.36,1.56,2.36,2.04c0,0.44-0.52,1.36-1.56,2.72c-1.04,1.36-1.72,2.04-2.08,2.04c-1,0.04,0.36-2.12-0.16-2.64
			c-0.4-0.4-3.56-0.2-6.52,2.92c2.52-0.36,4.04-0.44,4.48-0.16c0.44,0.2,1.04,1.28,1.84,3.24c0.8,1.96,1.4,3.04,1.8,3.28
			C84.68,76.25,85.4,75.77,85.4,76.45z"/>
		<path class="st1" d="M100.28,77.01c-2.68,2.72-5.12,4.08-7.24,4.08c-1.36,0-2.84-0.64-4.4-1.92c-1.56-1.28-2.44-2.64-2.64-4.04
			c-0.24-1.64,0.16-3.56,1.2-5.84c1.08-2.28,2.36-4.24,3.84-5.84c1.48-1.6,2.76-2.4,3.8-2.4c0.68,0,1.76,0.2,3.24,0.64
			c1.4,0.4,1.96,0.8,1.64,1.2c-1.56,2.08-2.88,5.12-3.52,7.72c-0.96,3.92-1.2,7.44,0,7.44c0.44,0,0.96-0.8,1.6-2.4
			c0.68-1.64,1.24-3.68,1.76-6.12c0.52-2.48,0.76-4.76,0.76-6.84c0-1.24,0.24-1.44,0.52-1.36c2.52,0.28,4.32,1.8,4.32,2.16
			c0.28,0.76,0.24,2.16-0.12,4.24C104.56,71.17,102.96,74.25,100.28,77.01z"/>
		<path class="st1" d="M121.32,63.73l1.2,0.72c0.52,0.32,0.92,0.56,1.12,0.72c0.48,0.28,1,0.96,1,1.72c0,1.88-0.48,3.76-1.48,5.6
			c-1,1.8-2.2,3.32-3.6,4.52c-2.76,2.4-5.92,4.04-7.88,4.04c-1.4,0-2.8-0.6-4.28-1.84c-1.48-1.24-2.28-2.6-2.48-4
			c-0.2-1.8,0.44-4.76,2-8.84c1-3.08,2.64-6.32,4.88-9.68c0.72-1.16,2-2.16,3.88-3.08s3.68-1.4,5.32-1.4c1,0,2.24,0.52,3.8,1.6
			c1.56,1.04,2.36,2.04,2.36,3C127.16,60.33,120.16,63.01,121.32,63.73z M121.28,57.65c1.28-2.6,1.56-3.88,0.88-3.88
			c-1.6,0-4.04,4.76-7.28,14.32c-1.56,4.68-1.48,9.8-0.12,9.64c0.52,0,1.2-0.88,2.04-2.64c0.84-1.8,1.24-3.48,1.24-5.12
			c0-1.4-0.52-2.52-0.96-2.88c-0.44-0.36-0.68-1.08-0.2-1.68C118.56,62.81,120.04,60.21,121.28,57.65z"/>
		<path class="st1" d="M146.07,76.45c0,0.44-1.16,1.64-2.32,2.56c-0.6,0.48-1.4,0.96-2.36,1.4c-0.92,0.44-1.72,0.64-2.32,0.64
			c-1.68,0-3.2-2.72-4.52-8.2c-0.44,1.08-0.76,2.08-0.96,3.04c-0.16,1.24-0.24,2.24-0.24,3.04c0,0.28-0.48,0.68-1.4,1.28
			c-0.92,0.56-1.6,0.84-2.12,0.84h-0.04h-0.04c-0.92,0-2.04-0.68-3.4-2.04c-1.36-1.36-2.04-2.36-2.04-3.04
			c0-1.16,0.36-2.84,1.12-4.96l1.8-4.92c0.6-2.08-1.56-1.2-1.56-1.92c0-0.36,0.6-1,1.84-1.84s2.2-1.28,2.96-1.28
			c0.52,0,1.28,0.16,2.28,0.52s1.84,0.68,2.48,1.04c0.48,0.28,0.68,0.88,0.68,1.24l-0.04,0.32c0,0.44-0.4,2-1.16,4.64
			c0,0.08-0.08,0.44-0.16,0.64c0.96-2.08,2.08-4,3.4-5.76c1.32-1.76,2.44-2.64,3.32-2.64c0.6,0,1.68,0.44,3.24,1.36
			c1.56,0.88,2.36,1.56,2.36,2.04c0,0.44-0.52,1.36-1.56,2.72c-1.04,1.36-1.72,2.04-2.08,2.04c-1,0.04,0.36-2.12-0.16-2.64
			c-0.4-0.4-3.56-0.2-6.52,2.92c2.52-0.36,4.04-0.44,4.48-0.16c0.44,0.2,1.04,1.28,1.84,3.24c0.8,1.96,1.4,3.04,1.8,3.28
			C145.35,76.25,146.07,75.77,146.07,76.45z"/>
		<path class="st1" d="M169.03,64.21c0,0.52-0.36,2.08-1.12,4.64c-0.92,2.72-1.36,4.76-1.36,6.08c0,2.72,2.28,1.08,2.28,2.16
			c0,0.52-0.64,1.32-1.92,2.4c-1.28,1.08-2.6,1.6-3.96,1.6c-0.76,0-1.72-0.48-2.8-1.44c-1.08-1-1.88-1.92-2.36-2.8
			c-0.88,1.12-1.8,2.08-2.8,2.92s-1.72,1.24-2.2,1.24c-1.48,0-2.96-0.64-4.4-1.92c-1.44-1.28-2.16-2.4-2.16-3.36
			c0-1.64,0.36-3.4,1.04-5.24c0.68-1.88,1.48-3.48,2.4-4.8c1.88-2.68,3.88-4.64,4.72-4.64c1.48,0,3,0.2,4.48,0.64
			c1.52,0.44,2.6,1,3.2,1.72l0.08,0.12c0.68-1.4,1.12-2.12,1.4-2.12c0.56,0,1.36,0.12,2.44,0.4s1.88,0.56,2.4,0.84
			c0.48,0.28,0.68,0.84,0.64,1.28V64.21z M157.28,74.29c0.76-1.64,1.6-3.6,2.44-5.88c0.16-0.36,0.32-0.92,0.64-2.32
			c0.36-1.4,0.32-2.4-0.32-2.4c-0.88,0-1.92,1.4-3.12,4.16c-1.24,2.92-1.88,5.32-1.92,7.28c-0.04,1.08,0.2,1.6,0.68,1.6
			C155.96,76.73,156.52,75.93,157.28,74.29z"/>
	</g>
	<g>
		<path class="st1" d="M71.58,40.51h-2.77v-0.34c0.13-0.06,0.27-0.11,0.4-0.16c0.14-0.05,0.27-0.08,0.41-0.12v-3.67l0.03-0.47
			c-0.15,0.05-0.3,0.08-0.46,0.1s-0.33,0.02-0.5,0.02l-0.04-0.3c0.28-0.07,0.59-0.18,0.92-0.3c0.33-0.13,0.64-0.28,0.92-0.45h0.27
			v5.08c0.13,0.03,0.27,0.07,0.4,0.12c0.13,0.05,0.27,0.1,0.4,0.16V40.51z"/>
		<path class="st1" d="M72.67,36.65c0-0.27,0.05-0.52,0.14-0.74c0.1-0.22,0.23-0.42,0.4-0.58c0.17-0.16,0.38-0.29,0.62-0.38
			c0.24-0.09,0.51-0.14,0.8-0.14c0.31,0,0.59,0.05,0.83,0.16c0.25,0.1,0.45,0.25,0.62,0.44c0.17,0.19,0.3,0.41,0.39,0.68
			s0.13,0.57,0.13,0.89c0,0.5-0.08,0.95-0.22,1.37c-0.15,0.42-0.36,0.79-0.63,1.1c-0.27,0.32-0.6,0.58-0.98,0.78
			c-0.38,0.2-0.8,0.32-1.26,0.37l-0.18-0.34c0.61-0.16,1.09-0.45,1.42-0.86c0.33-0.42,0.54-0.93,0.62-1.54
			c-0.1,0.13-0.23,0.24-0.4,0.33c-0.17,0.08-0.38,0.13-0.64,0.13c-0.23,0-0.44-0.03-0.64-0.1s-0.38-0.17-0.53-0.32
			c-0.15-0.14-0.27-0.32-0.36-0.52C72.72,37.16,72.67,36.92,72.67,36.65z M73.87,36.6c0,0.15,0.02,0.3,0.05,0.44
			c0.04,0.14,0.09,0.26,0.16,0.37c0.07,0.11,0.15,0.19,0.26,0.25c0.1,0.06,0.22,0.09,0.36,0.09c0.16,0,0.3-0.03,0.42-0.09
			c0.12-0.06,0.22-0.15,0.28-0.25c0.01-0.07,0.02-0.15,0.02-0.26c0.01-0.1,0.01-0.2,0.01-0.3c0-0.21-0.02-0.41-0.04-0.6
			c-0.03-0.19-0.08-0.35-0.14-0.5c-0.06-0.14-0.15-0.25-0.25-0.34c-0.1-0.08-0.23-0.13-0.38-0.13c-0.27,0-0.46,0.11-0.58,0.32
			C73.93,35.84,73.87,36.17,73.87,36.6z"/>
		<path class="st1" d="M99.62,36.68h-0.27c-0.03-0.08-0.07-0.17-0.11-0.28c-0.04-0.11-0.08-0.22-0.12-0.34s-0.08-0.23-0.12-0.35
			s-0.07-0.22-0.09-0.32c0.19-0.16,0.42-0.3,0.72-0.42s0.64-0.18,1.06-0.18c0.29,0,0.55,0.04,0.76,0.11
			c0.21,0.07,0.39,0.18,0.53,0.31c0.14,0.13,0.25,0.29,0.31,0.46c0.07,0.18,0.1,0.37,0.1,0.57c0,0.33-0.08,0.63-0.22,0.92
			s-0.33,0.56-0.55,0.82s-0.45,0.49-0.7,0.7c-0.25,0.22-0.48,0.41-0.68,0.59l-0.42,0.28v0.03l0.49-0.05h1.38l0.39-0.9h0.27
			c0.02,0.13,0.03,0.28,0.05,0.45c0.02,0.17,0.04,0.34,0.05,0.52c0.02,0.17,0.03,0.34,0.04,0.5s0.02,0.28,0.02,0.38h-3.66v-0.51
			c0.14-0.12,0.3-0.27,0.47-0.43c0.18-0.16,0.35-0.34,0.54-0.54c0.18-0.19,0.36-0.4,0.54-0.62c0.18-0.22,0.33-0.44,0.47-0.67
			c0.14-0.23,0.25-0.46,0.33-0.69c0.08-0.23,0.12-0.46,0.12-0.69c0-0.29-0.08-0.53-0.24-0.72s-0.38-0.28-0.67-0.28
			c-0.09,0-0.17,0.01-0.24,0.02s-0.15,0.03-0.24,0.06L99.62,36.68z"/>
		<path class="st1" d="M103.19,37.71c0-0.48,0.05-0.9,0.16-1.26c0.1-0.36,0.25-0.66,0.43-0.9c0.18-0.24,0.4-0.43,0.66-0.55
			c0.25-0.12,0.53-0.18,0.83-0.18c0.64,0,1.15,0.24,1.52,0.72c0.37,0.48,0.56,1.21,0.56,2.17c0,0.48-0.05,0.9-0.16,1.26
			c-0.1,0.36-0.25,0.66-0.44,0.9c-0.19,0.24-0.42,0.43-0.68,0.55c-0.26,0.12-0.55,0.18-0.86,0.18c-0.33,0-0.61-0.07-0.86-0.2
			c-0.25-0.13-0.46-0.32-0.64-0.57c-0.17-0.25-0.3-0.55-0.39-0.91C103.24,38.57,103.19,38.17,103.19,37.71z M104.39,37.71
			c0,0.38,0.01,0.72,0.04,1.02c0.02,0.3,0.07,0.56,0.13,0.77c0.06,0.21,0.15,0.37,0.25,0.48c0.1,0.11,0.24,0.17,0.4,0.17
			c0.19,0,0.34-0.04,0.46-0.14c0.12-0.09,0.22-0.23,0.29-0.43c0.07-0.2,0.12-0.45,0.15-0.75c0.03-0.31,0.04-0.68,0.04-1.12
			c0-0.38-0.01-0.72-0.03-1.03c-0.02-0.3-0.06-0.56-0.12-0.77c-0.06-0.21-0.15-0.37-0.26-0.48c-0.11-0.11-0.27-0.17-0.46-0.17
			c-0.17,0-0.31,0.05-0.42,0.14c-0.11,0.09-0.2,0.23-0.27,0.43c-0.07,0.2-0.11,0.45-0.14,0.76S104.39,37.27,104.39,37.71z"/>
	</g>
	<g>
		<path class="st1" d="M60.7,108.16c-0.07,0.06-0.15,0.12-0.25,0.19c-0.09,0.07-0.19,0.14-0.3,0.21c-0.1,0.07-0.21,0.14-0.31,0.2
			c-0.1,0.06-0.2,0.12-0.29,0.16l-0.15-0.18l0.54-0.88l-1.85-2.19l-0.96,0.38l-0.15-0.18c0.06-0.08,0.13-0.17,0.21-0.27
			c0.08-0.1,0.17-0.19,0.25-0.28c0.09-0.09,0.17-0.18,0.26-0.26s0.16-0.15,0.22-0.2l0.34,0.4c0.2-0.02,0.43-0.08,0.68-0.17
			c0.25-0.09,0.51-0.2,0.78-0.34c0.27-0.14,0.54-0.3,0.81-0.49c0.27-0.18,0.53-0.38,0.78-0.6c-0.05-0.09-0.1-0.19-0.14-0.3
			c-0.04-0.11-0.07-0.22-0.09-0.33l0.17-0.15l2.23,2.63l-0.17,0.15c-0.15-0.06-0.3-0.15-0.45-0.26l-2.6,2.2L60.7,108.16z
			 M59.66,106.93l2.61-2.21l-0.62-0.74c-0.37,0.28-0.71,0.53-1.02,0.73c-0.31,0.2-0.6,0.37-0.85,0.5c-0.26,0.13-0.49,0.23-0.69,0.3
			c-0.2,0.07-0.37,0.12-0.51,0.14L59.66,106.93z"/>
		<path class="st1" d="M65.93,107.86c-0.13,0.12-0.27,0.25-0.41,0.38c-0.15,0.13-0.29,0.24-0.43,0.34l-0.18-0.17l0.29-0.7
			l-0.82-0.77L63.37,108l0.53,0.5l0.51-0.15l0.14,0.13c-0.12,0.16-0.26,0.32-0.43,0.5c-0.17,0.18-0.33,0.33-0.48,0.47l-0.14-0.13
			l0.13-0.53l-0.53-0.5l-1.07,1.13l0.85,0.8l0.75-0.34l0.18,0.17c-0.04,0.07-0.09,0.14-0.14,0.22c-0.05,0.08-0.11,0.16-0.18,0.24
			c-0.06,0.08-0.13,0.16-0.19,0.24c-0.07,0.08-0.13,0.15-0.19,0.22l-2.36-2.23l0.16-0.17c0.07,0.02,0.15,0.05,0.24,0.08
			c0.08,0.04,0.16,0.08,0.24,0.13l2.33-2.47c-0.05-0.07-0.09-0.14-0.14-0.23c-0.04-0.08-0.08-0.16-0.1-0.24l0.16-0.17L65.93,107.86z
			"/>
		<path class="st1" d="M64.93,111.92c0.08,0.08,0.15,0.16,0.21,0.25c0.07,0.09,0.12,0.17,0.16,0.26l-0.14,0.18l-1.59-1.21l0.14-0.18
			c0.09,0.01,0.17,0.03,0.26,0.06s0.16,0.06,0.24,0.1l2.06-2.7c-0.06-0.07-0.12-0.14-0.17-0.21c-0.05-0.07-0.09-0.15-0.12-0.22
			l0.14-0.18l0.6,0.46c0.13,0.1,0.28,0.2,0.45,0.31s0.33,0.22,0.46,0.32c0.17,0.13,0.32,0.27,0.46,0.43c0.13,0.16,0.24,0.32,0.3,0.5
			s0.08,0.36,0.06,0.55c-0.02,0.19-0.11,0.38-0.26,0.58c-0.14,0.19-0.3,0.32-0.48,0.4c-0.18,0.08-0.37,0.12-0.56,0.11
			c-0.19,0-0.39-0.05-0.58-0.13c-0.19-0.08-0.38-0.19-0.55-0.32c-0.02-0.01-0.04-0.03-0.08-0.06s-0.07-0.06-0.11-0.09
			c-0.04-0.03-0.08-0.06-0.11-0.09s-0.06-0.05-0.07-0.07L64.93,111.92z M67.29,109.37c-0.06-0.05-0.12-0.08-0.16-0.11
			c-0.04-0.02-0.08-0.04-0.12-0.06l-1.11,1.45c0.02,0.03,0.06,0.07,0.12,0.12c0.06,0.04,0.1,0.08,0.14,0.11
			c0.08,0.06,0.18,0.11,0.28,0.15c0.1,0.03,0.21,0.04,0.31,0.03c0.11-0.01,0.22-0.05,0.33-0.12c0.11-0.07,0.22-0.17,0.32-0.3
			c0.19-0.25,0.28-0.49,0.24-0.7C67.61,109.71,67.49,109.52,67.29,109.37z"/>
		<path class="st1" d="M71.77,111.92c-0.1,0.15-0.21,0.3-0.33,0.46c-0.12,0.15-0.23,0.29-0.35,0.42l-0.21-0.13l0.13-0.75l-0.96-0.58
			l-0.76,1.26l0.63,0.38l0.46-0.26l0.16,0.1c-0.08,0.18-0.19,0.37-0.31,0.57c-0.12,0.21-0.25,0.39-0.38,0.56l-0.16-0.1l0.02-0.54
			l-0.62-0.38l-0.81,1.33l1,0.61l0.67-0.49l0.21,0.13c-0.03,0.07-0.06,0.16-0.09,0.25s-0.08,0.18-0.12,0.27
			c-0.04,0.09-0.09,0.19-0.14,0.28c-0.05,0.09-0.1,0.18-0.14,0.25l-2.78-1.68l0.12-0.19c0.08,0,0.16,0.02,0.25,0.03
			c0.09,0.02,0.18,0.04,0.26,0.07l1.76-2.9c-0.06-0.05-0.12-0.12-0.18-0.19c-0.06-0.07-0.11-0.14-0.15-0.21l0.12-0.2L71.77,111.92z"
			/>
		<path class="st1" d="M70.24,115.88l0.1-0.21c0.09-0.01,0.18-0.01,0.27,0c0.09,0.01,0.17,0.02,0.25,0.05l1.44-3.08
			c-0.07-0.05-0.13-0.11-0.2-0.17c-0.07-0.06-0.12-0.13-0.17-0.2l0.1-0.21l0.88,0.41c0.14,0.06,0.27,0.12,0.4,0.17
			c0.13,0.05,0.27,0.11,0.43,0.18c0.17,0.08,0.34,0.17,0.49,0.27c0.15,0.1,0.27,0.21,0.37,0.34c0.1,0.12,0.16,0.26,0.18,0.42
			c0.02,0.15-0.01,0.32-0.1,0.51c-0.05,0.12-0.12,0.21-0.21,0.29c-0.09,0.08-0.19,0.14-0.3,0.18c-0.11,0.04-0.23,0.06-0.35,0.07
			c-0.12,0-0.25-0.01-0.37-0.04l-0.01,0.02c0.11,0.07,0.21,0.15,0.31,0.25c0.1,0.09,0.18,0.2,0.24,0.32
			c0.06,0.12,0.09,0.25,0.1,0.39c0.01,0.14-0.03,0.29-0.1,0.45c-0.09,0.2-0.21,0.34-0.37,0.44s-0.32,0.16-0.51,0.18
			c-0.19,0.02-0.39,0.01-0.59-0.04c-0.21-0.05-0.41-0.12-0.62-0.21c-0.08-0.04-0.16-0.08-0.25-0.12c-0.09-0.05-0.18-0.09-0.27-0.14
			c-0.09-0.05-0.17-0.09-0.26-0.13c-0.08-0.04-0.15-0.08-0.21-0.11L70.24,115.88z M72.03,116.33c0.23,0.11,0.44,0.12,0.63,0.05
			s0.34-0.22,0.45-0.45c0.06-0.14,0.1-0.26,0.09-0.37c0-0.11-0.03-0.21-0.08-0.3c-0.05-0.09-0.12-0.17-0.22-0.24
			c-0.1-0.07-0.21-0.13-0.33-0.19l-0.29-0.14l-0.65,1.4c0.04,0.04,0.1,0.07,0.15,0.1C71.84,116.24,71.92,116.28,72.03,116.33z
			 M72.63,114.43c0.06,0.03,0.12,0.06,0.19,0.08c0.06,0.02,0.12,0.04,0.18,0.06c0.17,0.01,0.32-0.03,0.47-0.11
			c0.14-0.08,0.25-0.2,0.32-0.35c0.11-0.23,0.13-0.42,0.06-0.59c-0.07-0.16-0.2-0.29-0.39-0.38c-0.08-0.04-0.15-0.07-0.21-0.09
			c-0.06-0.02-0.12-0.04-0.17-0.06l-0.63,1.35L72.63,114.43z"/>
		<path class="st1" d="M75.77,118.22l-1.73-0.57l0.07-0.22c0.08-0.01,0.16-0.02,0.26-0.02c0.1,0,0.18,0,0.26,0.01l1.06-3.23
			c-0.09-0.04-0.17-0.1-0.24-0.15c-0.07-0.06-0.13-0.11-0.17-0.16l0.07-0.22l1.73,0.57L77,114.44c-0.07,0.02-0.14,0.03-0.22,0.04
			c-0.08,0.01-0.16,0-0.23-0.01l-0.45,1.38l1.51,0.5l0.45-1.38c-0.08-0.04-0.15-0.09-0.2-0.14c-0.06-0.05-0.11-0.1-0.15-0.16
			l0.07-0.22l1.73,0.57l-0.07,0.22c-0.08,0.02-0.16,0.03-0.26,0.03c-0.09,0-0.18-0.01-0.27-0.02l-1.06,3.23
			c0.08,0.04,0.16,0.09,0.23,0.15c0.07,0.06,0.13,0.11,0.18,0.17l-0.07,0.22l-1.73-0.57l0.07-0.22c0.07-0.02,0.14-0.03,0.22-0.03
			c0.08-0.01,0.16-0.01,0.24,0l0.49-1.48l-1.51-0.5l-0.49,1.48c0.07,0.04,0.13,0.08,0.19,0.13c0.05,0.05,0.11,0.1,0.16,0.17
			L75.77,118.22z"/>
		<path class="st1" d="M83.39,115.77l-0.04,0.22c-0.06,0.02-0.13,0.04-0.22,0.05c-0.09,0.01-0.19,0.02-0.29,0.02l-0.65,3.33
			c0.1,0.04,0.18,0.08,0.26,0.13c0.07,0.05,0.14,0.09,0.19,0.14l-0.04,0.22l-1.83-0.36l0.04-0.22c0.07-0.02,0.15-0.04,0.23-0.06
			c0.08-0.01,0.17-0.02,0.26-0.03l0.25-1.31l-0.49-0.1c-0.17,0.25-0.34,0.49-0.51,0.72c-0.17,0.23-0.36,0.44-0.58,0.63l-0.28,0.14
			l-1.02-0.2l0.04-0.2l0.29-0.09c0.3-0.22,0.56-0.44,0.76-0.63c0.2-0.2,0.39-0.38,0.56-0.56c-0.1-0.05-0.19-0.12-0.28-0.2
			c-0.09-0.08-0.17-0.18-0.23-0.29c-0.06-0.11-0.1-0.23-0.13-0.37c-0.02-0.14-0.02-0.29,0.01-0.46c0.04-0.23,0.13-0.41,0.26-0.55
			c0.13-0.14,0.28-0.24,0.46-0.31c0.18-0.07,0.38-0.1,0.6-0.1c0.22,0,0.44,0.02,0.67,0.06c0.04,0.01,0.09,0.02,0.16,0.03
			c0.06,0.01,0.13,0.03,0.21,0.05c0.07,0.02,0.15,0.03,0.22,0.05c0.07,0.02,0.14,0.03,0.2,0.04L83.39,115.77z M81.26,117.52
			c0.05,0.01,0.12,0.02,0.2,0.03c0.08,0.01,0.13,0.01,0.17,0.01l0.33-1.66c-0.03-0.01-0.08-0.03-0.14-0.05
			c-0.07-0.02-0.12-0.03-0.17-0.04c-0.11-0.02-0.22-0.03-0.33-0.02c-0.1,0.01-0.2,0.04-0.29,0.09c-0.09,0.05-0.17,0.13-0.23,0.22
			c-0.07,0.1-0.11,0.22-0.14,0.38c-0.06,0.29-0.03,0.53,0.08,0.7C80.84,117.36,81.02,117.47,81.26,117.52z"/>
		<path class="st1" d="M86.82,115.92l0.35,0.17l-2.48,4.8l-0.34-0.18L86.82,115.92z"/>
		<path class="st1" d="M90.59,120.14l-1.79,0.14l-0.02-0.23c0.06-0.04,0.12-0.07,0.2-0.12c0.08-0.04,0.17-0.07,0.28-0.1l-0.26-3.39
			c-0.08-0.01-0.17-0.02-0.25-0.05c-0.09-0.02-0.17-0.05-0.25-0.09l-0.02-0.23l4.29-0.33l0.02,0.23c-0.07,0.05-0.15,0.1-0.23,0.13
			c-0.08,0.03-0.17,0.06-0.25,0.08l0.26,3.39c0.15,0,0.32,0.05,0.5,0.13l0.02,0.23l-1.79,0.14l-0.02-0.23
			c0.04-0.03,0.09-0.07,0.15-0.1s0.14-0.07,0.25-0.1l-0.26-3.4l-1.52,0.12l0.26,3.4c0.08,0.01,0.16,0.03,0.22,0.06
			c0.07,0.02,0.13,0.05,0.2,0.09L90.59,120.14z"/>
		<path class="st1" d="M93.35,117.78c-0.06-0.31-0.08-0.6-0.05-0.88c0.03-0.28,0.11-0.53,0.24-0.75c0.13-0.23,0.3-0.42,0.53-0.57
			c0.22-0.16,0.5-0.27,0.82-0.34c0.32-0.07,0.62-0.07,0.88-0.02c0.27,0.05,0.51,0.16,0.71,0.31c0.21,0.16,0.38,0.35,0.52,0.6
			c0.14,0.24,0.24,0.52,0.31,0.82c0.06,0.31,0.08,0.6,0.05,0.88c-0.03,0.28-0.11,0.53-0.24,0.76s-0.3,0.42-0.53,0.57
			c-0.22,0.16-0.5,0.27-0.82,0.34c-0.32,0.07-0.62,0.07-0.88,0.02c-0.27-0.05-0.51-0.16-0.71-0.31s-0.38-0.35-0.52-0.6
			S93.42,118.09,93.35,117.78z M94.35,117.57c0.05,0.25,0.12,0.48,0.2,0.68s0.18,0.38,0.3,0.51c0.12,0.14,0.25,0.24,0.4,0.3
			c0.15,0.06,0.32,0.07,0.5,0.03c0.17-0.04,0.3-0.11,0.4-0.22c0.1-0.11,0.17-0.25,0.21-0.42c0.04-0.17,0.06-0.36,0.05-0.59
			c-0.01-0.22-0.04-0.46-0.1-0.71c-0.05-0.25-0.12-0.48-0.2-0.68c-0.08-0.21-0.18-0.38-0.29-0.52c-0.11-0.14-0.24-0.24-0.39-0.3
			c-0.15-0.06-0.32-0.07-0.51-0.03c-0.18,0.04-0.32,0.11-0.42,0.23c-0.1,0.11-0.17,0.26-0.21,0.42c-0.04,0.17-0.05,0.36-0.04,0.58
			C94.26,117.09,94.3,117.32,94.35,117.57z"/>
		<path class="st1" d="M100.95,116.63l0.23-0.08c0.04,0.06,0.08,0.12,0.12,0.2c0.04,0.08,0.08,0.17,0.13,0.26
			c0.04,0.09,0.08,0.19,0.12,0.28c0.04,0.09,0.07,0.18,0.09,0.25c-0.11,0.13-0.25,0.24-0.44,0.34c-0.19,0.1-0.39,0.19-0.59,0.26
			c-0.31,0.11-0.61,0.16-0.89,0.17c-0.28,0.01-0.54-0.04-0.78-0.15c-0.24-0.11-0.45-0.27-0.63-0.5c-0.19-0.23-0.34-0.52-0.46-0.89
			c-0.12-0.36-0.17-0.69-0.15-0.98c0.02-0.29,0.09-0.56,0.22-0.79c0.13-0.23,0.3-0.42,0.51-0.58c0.21-0.16,0.46-0.28,0.72-0.37
			c0.25-0.08,0.48-0.14,0.7-0.18c0.21-0.03,0.4-0.04,0.55-0.02c0.02,0.06,0.04,0.14,0.07,0.24c0.03,0.1,0.05,0.2,0.07,0.31
			c0.02,0.11,0.04,0.22,0.06,0.32c0.02,0.11,0.03,0.2,0.04,0.27l-0.24,0.08l-0.6-0.75c-0.04-0.01-0.1,0-0.18,0.01
			c-0.08,0.01-0.16,0.04-0.24,0.06c-0.16,0.05-0.29,0.13-0.41,0.24c-0.12,0.11-0.2,0.25-0.26,0.42c-0.06,0.17-0.08,0.38-0.07,0.61
			c0.01,0.24,0.07,0.5,0.17,0.8c0.18,0.54,0.43,0.92,0.75,1.14c0.32,0.22,0.66,0.27,1.03,0.14c0.11-0.04,0.19-0.07,0.26-0.12
			c0.07-0.04,0.11-0.08,0.13-0.12L100.95,116.63z"/>
		<path class="st1" d="M103.44,112.32c0.07,0.17,0.13,0.34,0.2,0.52c0.06,0.18,0.12,0.36,0.16,0.52l-0.22,0.1l-0.55-0.53l-1.02,0.47
			l0.62,1.33l0.66-0.31l0.05-0.53l0.17-0.08c0.1,0.17,0.2,0.36,0.3,0.58c0.1,0.22,0.19,0.43,0.25,0.62l-0.17,0.08l-0.44-0.32
			l-0.66,0.31l0.65,1.42l1.06-0.49l-0.03-0.83l0.22-0.1c0.05,0.06,0.1,0.13,0.15,0.21c0.05,0.08,0.11,0.17,0.16,0.25
			c0.05,0.09,0.1,0.18,0.15,0.27c0.05,0.09,0.09,0.18,0.13,0.26l-2.95,1.36l-0.1-0.21c0.05-0.06,0.1-0.12,0.16-0.19
			c0.06-0.06,0.13-0.12,0.21-0.18l-1.42-3.08c-0.08,0.02-0.17,0.03-0.26,0.04c-0.09,0.01-0.18,0.01-0.26,0l-0.1-0.21L103.44,112.32z
			 M100.75,112.95c-0.05-0.12-0.05-0.22,0-0.32c0.06-0.1,0.15-0.17,0.28-0.23c0.13-0.06,0.25-0.08,0.36-0.06
			c0.11,0.02,0.19,0.09,0.25,0.2c0.05,0.1,0.04,0.2-0.02,0.29c-0.06,0.1-0.15,0.17-0.28,0.23c-0.13,0.06-0.25,0.08-0.36,0.06
			C100.87,113.11,100.79,113.05,100.75,112.95z M102.08,112.33c-0.05-0.12-0.05-0.22,0.01-0.32c0.06-0.1,0.15-0.18,0.28-0.23
			s0.25-0.08,0.36-0.06c0.11,0.02,0.19,0.09,0.25,0.2c0.05,0.1,0.04,0.2-0.02,0.29c-0.06,0.1-0.15,0.17-0.28,0.23
			c-0.13,0.06-0.25,0.08-0.36,0.06C102.21,112.49,102.13,112.43,102.08,112.33z"/>
		<path class="st1" d="M104.94,112c-0.12,0.05-0.23,0.08-0.35,0.1c-0.12,0.02-0.22,0.03-0.31,0.03l-0.12-0.2l2.96-1.79l0.12,0.2
			c-0.03,0.06-0.08,0.13-0.13,0.2c-0.06,0.07-0.12,0.14-0.2,0.2l1.76,2.9c0.09-0.03,0.17-0.06,0.26-0.07
			c0.09-0.02,0.17-0.03,0.25-0.03l0.12,0.19l-1.58,0.96l-0.12-0.19c0.04-0.07,0.09-0.13,0.14-0.2c0.05-0.07,0.11-0.13,0.16-0.19
			l-1.77-2.92l-0.84,0.51c0.3,0.53,0.54,0.97,0.72,1.34c0.17,0.37,0.3,0.68,0.38,0.94s0.13,0.47,0.14,0.65
			c0.01,0.17,0.01,0.33,0,0.47c-0.01,0.13-0.05,0.25-0.12,0.36c-0.07,0.11-0.15,0.19-0.24,0.25c-0.05,0.01-0.12,0-0.19-0.03
			c-0.07-0.03-0.15-0.07-0.22-0.11c-0.08-0.05-0.15-0.1-0.21-0.16c-0.07-0.06-0.12-0.12-0.17-0.19l0.02-0.28l0.7-0.22
			c-0.01-0.12-0.04-0.26-0.08-0.43c-0.04-0.16-0.1-0.35-0.19-0.57c-0.09-0.22-0.2-0.47-0.34-0.75
			C105.34,112.69,105.16,112.37,104.94,112z"/>
		<path class="st1" d="M108.52,111.72c-0.19-0.25-0.34-0.5-0.43-0.76c-0.1-0.26-0.14-0.52-0.12-0.78c0.01-0.26,0.09-0.51,0.22-0.75
			c0.13-0.24,0.33-0.46,0.58-0.67c0.26-0.2,0.52-0.34,0.78-0.41c0.26-0.07,0.52-0.08,0.78-0.04s0.5,0.15,0.73,0.3
			c0.23,0.15,0.45,0.35,0.64,0.6c0.19,0.25,0.34,0.5,0.43,0.76c0.1,0.26,0.14,0.52,0.12,0.78c-0.01,0.26-0.08,0.51-0.22,0.75
			c-0.13,0.24-0.33,0.46-0.58,0.67c-0.26,0.2-0.52,0.34-0.78,0.41c-0.26,0.07-0.53,0.08-0.78,0.04s-0.5-0.15-0.73-0.3
			C108.93,112.17,108.71,111.97,108.52,111.72z M109.32,111.09c0.16,0.2,0.32,0.38,0.49,0.52c0.17,0.15,0.33,0.26,0.5,0.33
			c0.17,0.07,0.33,0.1,0.49,0.09c0.16-0.01,0.32-0.08,0.46-0.19c0.13-0.11,0.22-0.23,0.26-0.38c0.04-0.14,0.04-0.3,0-0.47
			c-0.04-0.17-0.11-0.35-0.22-0.55c-0.11-0.19-0.24-0.39-0.4-0.59c-0.16-0.2-0.32-0.38-0.48-0.52c-0.17-0.15-0.33-0.26-0.49-0.33
			c-0.16-0.07-0.32-0.1-0.49-0.09c-0.16,0.01-0.32,0.08-0.47,0.2c-0.14,0.11-0.24,0.24-0.28,0.39c-0.04,0.15-0.04,0.31,0,0.48
			c0.04,0.17,0.12,0.35,0.23,0.54C109.03,110.69,109.16,110.89,109.32,111.09z"/>
		<path class="st1" d="M112.13,105.83l1.13-1.14l0.16,0.16c-0.02,0.08-0.05,0.16-0.09,0.24c-0.04,0.08-0.08,0.16-0.12,0.21
			l0.23,1.83c0.16,0.02,0.33,0.05,0.54,0.08c0.2,0.03,0.41,0.05,0.64,0.07c0.22,0.02,0.45,0.04,0.68,0.06
			c0.23,0.02,0.45,0.04,0.67,0.05l0.33-0.08l0.15,0.14l-0.74,0.74l-0.29,0.05c-0.15-0.02-0.32-0.04-0.5-0.07
			c-0.18-0.03-0.36-0.06-0.55-0.1c-0.19-0.04-0.37-0.08-0.55-0.12c-0.18-0.04-0.36-0.08-0.53-0.13l-0.18,0.18l1.11,1.1
			c0.07-0.05,0.15-0.09,0.22-0.12c0.07-0.03,0.14-0.05,0.2-0.06l0.16,0.16l-1.28,1.29l-0.16-0.16c0.03-0.08,0.06-0.17,0.1-0.25
			s0.08-0.15,0.12-0.22l-2.41-2.39c-0.07,0.06-0.15,0.1-0.23,0.14c-0.08,0.04-0.16,0.07-0.24,0.08l-0.16-0.16l1.28-1.29l0.16,0.16
			c-0.01,0.06-0.04,0.13-0.06,0.2s-0.07,0.15-0.11,0.22l1.08,1.07l0.19-0.31l-0.34-1.7c-0.07,0.05-0.14,0.08-0.22,0.12
			c-0.08,0.03-0.15,0.06-0.21,0.07L112.13,105.83z"/>
	</g>
	<g>
		<path class="st1" d="M29.83,47.05c0.1-0.17,0.21-0.34,0.33-0.5c0.12-0.16,0.25-0.3,0.37-0.42l0.39,0.15l-1.34,3.41l-0.39-0.15
			c-0.02-0.16-0.03-0.32-0.02-0.49c0.01-0.17,0.03-0.32,0.05-0.47l-5.79-2.28c-0.09,0.15-0.19,0.28-0.29,0.4
			c-0.11,0.12-0.22,0.23-0.33,0.32l-0.39-0.15l0.51-1.29c0.11-0.27,0.22-0.59,0.33-0.95c0.11-0.36,0.22-0.69,0.34-0.98
			c0.14-0.36,0.32-0.7,0.52-1.02c0.21-0.32,0.45-0.58,0.72-0.78c0.28-0.2,0.59-0.33,0.94-0.38c0.35-0.05,0.73,0.01,1.16,0.17
			c0.4,0.16,0.72,0.37,0.95,0.65c0.23,0.28,0.39,0.58,0.48,0.93c0.09,0.34,0.11,0.7,0.06,1.09c-0.04,0.38-0.14,0.76-0.28,1.13
			c-0.01,0.03-0.04,0.09-0.06,0.16c-0.03,0.07-0.06,0.15-0.1,0.24S27.9,46,27.87,46.08c-0.03,0.08-0.06,0.13-0.08,0.16L29.83,47.05z
			 M24.15,44.18c-0.05,0.14-0.09,0.25-0.11,0.33c-0.02,0.08-0.04,0.17-0.04,0.25l3.11,1.22c0.04-0.05,0.09-0.14,0.14-0.26
			s0.09-0.22,0.12-0.29c0.07-0.18,0.11-0.37,0.12-0.57c0.01-0.2-0.03-0.38-0.11-0.57c-0.08-0.18-0.2-0.36-0.38-0.52
			s-0.4-0.3-0.69-0.41c-0.55-0.21-1-0.24-1.37-0.08C24.59,43.44,24.33,43.74,24.15,44.18z"/>
		<path class="st1" d="M28.53,35.2c-0.12,0.14-0.23,0.25-0.34,0.34c-0.11,0.09-0.23,0.17-0.34,0.25l-0.37-0.2l1.25-2.35l0.37,0.2
			c0.01,0.1,0.01,0.22,0,0.37c-0.02,0.15-0.04,0.3-0.08,0.47l3.21,4.09c0.55,0.69,0.9,1.29,1.07,1.82c0.17,0.52,0.11,0.95-0.16,1.3
			c-0.08,0.02-0.19,0.04-0.32,0.03c-0.14,0-0.28-0.01-0.42-0.03c-0.15-0.02-0.28-0.04-0.41-0.07c-0.13-0.03-0.24-0.06-0.32-0.09
			l-0.24-0.48l0.97-0.96c-0.03-0.08-0.08-0.17-0.14-0.26s-0.13-0.18-0.21-0.28l-5.83,0.21c-0.1,0.11-0.2,0.2-0.31,0.29
			c-0.11,0.09-0.22,0.16-0.33,0.23l-0.37-0.2l1.61-3.03l0.37,0.2c0.01,0.26-0.03,0.55-0.11,0.89l3.36,0.03l0.73,0.13l0.01-0.02
			l-0.54-0.54L28.53,35.2z"/>
		<path class="st1" d="M30.34,32.18c-0.24,0.25-0.5,0.44-0.78,0.56l-0.34-0.24l3.36-4.86c0.14,0.1,0.29,0.21,0.45,0.34
			c0.16,0.13,0.32,0.26,0.48,0.4c0.16,0.13,0.3,0.27,0.44,0.4c0.14,0.13,0.27,0.25,0.38,0.37l-0.26,0.37l-1.68-0.33l-1.13,1.63
			l2.06,1.43c0.03-0.06,0.07-0.13,0.11-0.21c0.04-0.08,0.09-0.17,0.14-0.26c0.05-0.09,0.1-0.17,0.15-0.25
			c0.05-0.08,0.1-0.16,0.14-0.22c0.21-0.31,0.45-0.58,0.71-0.81c0.26-0.23,0.53-0.4,0.83-0.5c0.29-0.11,0.6-0.14,0.92-0.1
			c0.32,0.04,0.65,0.17,0.98,0.4c0.32,0.22,0.55,0.48,0.71,0.78c0.15,0.3,0.23,0.61,0.23,0.95c0,0.34-0.06,0.69-0.19,1.06
			c-0.13,0.37-0.33,0.73-0.58,1.09c-0.02,0.03-0.07,0.1-0.16,0.22s-0.18,0.25-0.29,0.4s-0.21,0.3-0.32,0.45
			c-0.11,0.15-0.19,0.27-0.25,0.36l-0.89,1.29l-0.34-0.24c0.01-0.16,0.04-0.32,0.08-0.47c0.04-0.16,0.1-0.31,0.17-0.45L30.34,32.18z
			 M34.19,32.09c-0.07,0.1-0.13,0.19-0.18,0.29s-0.09,0.18-0.12,0.25l2.51,1.73c0.02-0.02,0.05-0.05,0.1-0.1
			c0.04-0.05,0.08-0.1,0.12-0.15c0.04-0.05,0.08-0.1,0.11-0.16c0.04-0.05,0.06-0.09,0.08-0.12c0.25-0.36,0.32-0.71,0.23-1.07
			c-0.09-0.36-0.34-0.68-0.76-0.97c-0.4-0.28-0.78-0.4-1.13-0.37S34.48,31.68,34.19,32.09z"/>
		<path class="st1" d="M35.67,25.15c-0.18,0.15-0.36,0.27-0.56,0.37c-0.19,0.1-0.37,0.17-0.54,0.22l-0.31-0.28l4.19-4.77l0.31,0.28
			c-0.02,0.13-0.07,0.27-0.12,0.42c-0.06,0.16-0.14,0.31-0.23,0.46l4.67,4.11c0.13-0.11,0.27-0.2,0.42-0.27
			c0.14-0.07,0.28-0.14,0.42-0.19l0.31,0.28L42,28.33l-0.31-0.28c0.03-0.14,0.08-0.28,0.13-0.42c0.05-0.14,0.11-0.28,0.18-0.42
			l-4.69-4.13l-1.18,1.35c0.82,0.75,1.49,1.4,1.99,1.96c0.51,0.55,0.9,1.03,1.19,1.44c0.29,0.41,0.49,0.76,0.6,1.05
			c0.12,0.29,0.2,0.57,0.25,0.82c0.05,0.23,0.05,0.46-0.01,0.69c-0.06,0.23-0.16,0.42-0.29,0.57c-0.09,0.05-0.21,0.07-0.35,0.06
			c-0.14-0.01-0.29-0.03-0.45-0.08c-0.16-0.04-0.31-0.1-0.47-0.17c-0.15-0.07-0.28-0.15-0.39-0.24l-0.12-0.5l1.1-0.77
			c-0.09-0.21-0.22-0.44-0.37-0.7c-0.16-0.26-0.37-0.56-0.64-0.89c-0.27-0.33-0.61-0.71-1.02-1.13
			C36.75,26.13,36.26,25.67,35.67,25.15z"/>
		<path class="st1" d="M39.2,18.61c-0.16-0.17-0.21-0.36-0.17-0.56s0.17-0.39,0.36-0.56c0.19-0.17,0.39-0.27,0.59-0.3
			s0.38,0.05,0.54,0.22c0.14,0.15,0.18,0.33,0.13,0.53c-0.05,0.2-0.17,0.38-0.36,0.55c-0.19,0.17-0.39,0.27-0.59,0.3
			C39.5,18.83,39.33,18.76,39.2,18.61z M43.56,16.04c0.21,0.26,0.42,0.53,0.63,0.81c0.21,0.29,0.4,0.56,0.56,0.83l-0.33,0.3
			l-1.25-0.62l-1.53,1.38l1.81,2l1-0.9l-0.21-0.95l0.26-0.24c0.27,0.24,0.55,0.53,0.84,0.85c0.3,0.33,0.56,0.64,0.79,0.95
			l-0.26,0.24l-0.94-0.32l-1,0.9l1.92,2.12l1.59-1.44l-0.5-1.43l0.33-0.3c0.12,0.08,0.24,0.18,0.38,0.29
			c0.14,0.11,0.28,0.23,0.42,0.36c0.14,0.13,0.28,0.26,0.41,0.39c0.14,0.13,0.26,0.26,0.37,0.38l-4.41,3.99l-0.28-0.31
			c0.05-0.13,0.11-0.27,0.18-0.42c0.08-0.15,0.17-0.29,0.27-0.42l-4.17-4.62c-0.13,0.08-0.27,0.15-0.43,0.22
			c-0.16,0.07-0.31,0.12-0.45,0.15l-0.28-0.31L43.56,16.04z M41.2,16.8c-0.16-0.17-0.21-0.36-0.16-0.57
			c0.05-0.2,0.17-0.39,0.36-0.56c0.19-0.17,0.39-0.27,0.59-0.3c0.2-0.03,0.38,0.05,0.54,0.22c0.14,0.15,0.18,0.33,0.13,0.52
			s-0.17,0.38-0.36,0.55c-0.19,0.17-0.39,0.27-0.59,0.31C41.5,17.02,41.33,16.96,41.2,16.8z"/>
		<path class="st1" d="M49.23,21.3l-0.25-0.34c0.07-0.15,0.15-0.29,0.24-0.43s0.2-0.26,0.31-0.36l-3.64-5.05
			c-0.13,0.06-0.29,0.12-0.45,0.17s-0.32,0.08-0.47,0.1l-0.24-0.34l1.44-1.04c0.23-0.16,0.43-0.33,0.62-0.49
			c0.19-0.16,0.42-0.34,0.68-0.53c0.29-0.21,0.58-0.38,0.87-0.54c0.3-0.15,0.59-0.25,0.88-0.29c0.29-0.04,0.56-0.01,0.82,0.09
			c0.26,0.1,0.51,0.31,0.72,0.61c0.14,0.19,0.23,0.39,0.28,0.61c0.05,0.21,0.06,0.43,0.03,0.64c-0.03,0.21-0.1,0.42-0.2,0.62
			c-0.1,0.2-0.24,0.39-0.4,0.56l0.03,0.04c0.21-0.11,0.43-0.21,0.67-0.28c0.24-0.07,0.48-0.1,0.73-0.09
			c0.24,0.01,0.48,0.08,0.72,0.2c0.23,0.12,0.44,0.3,0.63,0.56c0.23,0.32,0.36,0.65,0.38,0.98c0.02,0.34-0.03,0.66-0.16,0.99
			c-0.13,0.32-0.33,0.63-0.59,0.92c-0.26,0.29-0.56,0.56-0.89,0.8c-0.13,0.09-0.26,0.19-0.42,0.29c-0.15,0.1-0.31,0.2-0.46,0.3
			c-0.15,0.1-0.3,0.2-0.45,0.29c-0.14,0.1-0.26,0.18-0.36,0.25L49.23,21.3z M49.03,16.18c0.1-0.07,0.2-0.15,0.29-0.23
			c0.09-0.08,0.18-0.16,0.26-0.24c0.16-0.26,0.24-0.54,0.24-0.85c0-0.3-0.09-0.58-0.28-0.84c-0.27-0.38-0.57-0.58-0.89-0.61
			c-0.32-0.03-0.64,0.06-0.95,0.28c-0.13,0.09-0.24,0.18-0.33,0.25c-0.09,0.07-0.17,0.15-0.24,0.21l1.6,2.22L49.03,16.18z
			 M51.54,18.83c0.38-0.27,0.59-0.59,0.64-0.97c0.05-0.38-0.05-0.75-0.32-1.12c-0.16-0.23-0.33-0.39-0.51-0.48
			c-0.18-0.09-0.36-0.14-0.54-0.14c-0.19,0-0.38,0.05-0.58,0.14c-0.2,0.09-0.39,0.21-0.6,0.36l-0.47,0.34l1.65,2.29
			c0.1-0.04,0.19-0.09,0.29-0.15C51.22,19.06,51.36,18.96,51.54,18.83z"/>
		<path class="st1" d="M53.17,13.76c-0.27-0.5-0.46-1-0.55-1.51c-0.09-0.5-0.09-0.99,0.02-1.45s0.31-0.89,0.62-1.29
			c0.31-0.4,0.73-0.74,1.26-1.03c0.53-0.29,1.04-0.46,1.54-0.51c0.5-0.05,0.97,0.01,1.42,0.17c0.44,0.16,0.85,0.42,1.23,0.77
			c0.38,0.35,0.7,0.78,0.98,1.28c0.27,0.5,0.46,1,0.55,1.51s0.09,0.99-0.01,1.45c-0.1,0.46-0.31,0.89-0.62,1.29
			s-0.73,0.74-1.26,1.03s-1.04,0.46-1.54,0.51c-0.5,0.05-0.97-0.01-1.42-0.17c-0.45-0.16-0.86-0.42-1.24-0.77
			C53.77,14.68,53.44,14.26,53.17,13.76z M54.81,12.86c0.23,0.41,0.47,0.78,0.72,1.09s0.52,0.56,0.8,0.74s0.56,0.28,0.86,0.31
			c0.3,0.03,0.59-0.04,0.9-0.21c0.28-0.15,0.47-0.35,0.59-0.6c0.11-0.25,0.16-0.54,0.14-0.86c-0.02-0.32-0.09-0.67-0.23-1.05
			c-0.14-0.38-0.32-0.78-0.54-1.19c-0.22-0.41-0.46-0.78-0.72-1.09c-0.25-0.32-0.51-0.57-0.79-0.75c-0.27-0.18-0.55-0.29-0.85-0.31
			c-0.29-0.03-0.6,0.04-0.91,0.21c-0.3,0.16-0.5,0.37-0.62,0.62c-0.12,0.25-0.17,0.54-0.15,0.86c0.02,0.32,0.1,0.67,0.25,1.04
			S54.58,12.45,54.81,12.86z"/>
		<path class="st1" d="M61.08,9.92l2.86-1.2l0.38,0.91l-2.86,1.2L61.08,9.92z"/>
		<path class="st1" d="M68.61,3.55c-0.18,0.02-0.34,0.02-0.48,0.01c-0.14-0.01-0.28-0.03-0.42-0.05l-0.13-0.4l2.53-0.82l0.13,0.4
			c-0.06,0.08-0.14,0.17-0.26,0.26c-0.11,0.09-0.24,0.19-0.39,0.28L69.06,8.4c-0.09,0.88-0.25,1.56-0.49,2.05s-0.58,0.76-1.02,0.82
			c-0.07-0.04-0.16-0.1-0.26-0.2c-0.1-0.1-0.19-0.2-0.29-0.31s-0.18-0.22-0.25-0.33c-0.08-0.11-0.13-0.21-0.16-0.29l0.16-0.51
			l1.37-0.01c0.04-0.08,0.06-0.17,0.08-0.28s0.03-0.22,0.04-0.35L63.9,5.07c-0.14,0.01-0.29,0-0.42-0.01
			c-0.14-0.01-0.27-0.03-0.4-0.06l-0.13-0.4l3.27-1.05l0.13,0.4c-0.17,0.19-0.4,0.38-0.7,0.56l2.39,2.36l0.44,0.6l0.02-0.01
			L68.49,6.7L68.61,3.55z"/>
		<path class="st1" d="M77.21,6.33l0.44-0.09c0.05,0.11,0.11,0.24,0.17,0.4c0.06,0.16,0.12,0.32,0.17,0.5
			c0.06,0.18,0.11,0.36,0.15,0.54c0.04,0.18,0.08,0.34,0.11,0.48c-0.22,0.21-0.51,0.39-0.87,0.53c-0.36,0.14-0.74,0.26-1.14,0.34
			c-0.6,0.12-1.15,0.16-1.67,0.11c-0.51-0.04-0.98-0.19-1.38-0.44c-0.41-0.25-0.76-0.6-1.04-1.05c-0.29-0.45-0.5-1.02-0.65-1.71
			c-0.14-0.68-0.16-1.29-0.06-1.83c0.1-0.53,0.29-0.99,0.57-1.38c0.28-0.39,0.63-0.7,1.06-0.94c0.43-0.24,0.89-0.42,1.39-0.52
			c0.47-0.1,0.91-0.15,1.31-0.16c0.4-0.01,0.73,0.01,1,0.08c0.02,0.12,0.05,0.26,0.08,0.45c0.03,0.18,0.05,0.37,0.06,0.58
			c0.02,0.2,0.03,0.4,0.03,0.6c0.01,0.2,0.01,0.36,0.01,0.5L76.5,3.38l-0.93-1.5c-0.07-0.02-0.18-0.03-0.33-0.02
			c-0.15,0.01-0.3,0.03-0.45,0.06C74.5,1.98,74.24,2.09,74,2.27c-0.23,0.17-0.42,0.41-0.57,0.71c-0.15,0.3-0.24,0.66-0.27,1.09
			C73.13,4.5,73.17,5,73.29,5.56c0.21,1.03,0.58,1.77,1.11,2.24c0.52,0.47,1.14,0.63,1.84,0.48c0.2-0.04,0.37-0.09,0.5-0.15
			c0.13-0.06,0.22-0.13,0.26-0.2L77.21,6.33z"/>
		<path class="st1" d="M82.17,8.05l-3.29,0.27L78.85,7.9c0.1-0.07,0.23-0.14,0.37-0.21c0.14-0.07,0.31-0.13,0.5-0.18l-0.5-6.21
			c-0.15-0.02-0.3-0.05-0.47-0.08c-0.16-0.04-0.31-0.09-0.46-0.16l-0.03-0.42L86.13,0l0.03,0.42c-0.13,0.1-0.27,0.18-0.42,0.24
			c-0.15,0.06-0.3,0.11-0.45,0.15l0.5,6.21c0.27,0.01,0.58,0.09,0.92,0.25l0.03,0.42l-3.29,0.27l-0.03-0.42
			c0.07-0.06,0.16-0.13,0.27-0.19c0.11-0.06,0.26-0.13,0.45-0.19l-0.51-6.23l-2.79,0.23l0.51,6.23c0.15,0.02,0.28,0.06,0.41,0.1
			c0.12,0.04,0.24,0.09,0.37,0.16L82.17,8.05z"/>
		<path class="st1" d="M93.06,0.25C93.03,0.58,93,0.92,92.95,1.27c-0.05,0.35-0.11,0.68-0.18,0.98l-0.45-0.02l-0.46-1.32L89.8,0.84
			l-0.1,2.69l1.34,0.05l0.52-0.83l0.35,0.01c0.02,0.36,0.03,0.76,0.01,1.2c-0.02,0.44-0.05,0.85-0.1,1.23l-0.35-0.01L91.01,4.3
			l-1.34-0.05L89.56,7.1l2.14,0.08l0.64-1.37l0.45,0.02c0.02,0.14,0.05,0.3,0.07,0.48s0.04,0.36,0.05,0.55
			c0.01,0.19,0.02,0.38,0.02,0.57c0,0.19,0,0.37,0,0.53l-5.95-0.23L87,7.3c0.13-0.06,0.27-0.12,0.42-0.17
			c0.16-0.05,0.32-0.09,0.49-0.11l0.24-6.22c-0.15-0.03-0.3-0.08-0.46-0.14c-0.16-0.06-0.3-0.13-0.43-0.21l0.02-0.42L93.06,0.25z"/>
		<path class="st1" d="M96.71,8.46l-3.29-0.53l0.07-0.41c0.13-0.04,0.29-0.08,0.46-0.12s0.33-0.05,0.48-0.06l0.99-6.15
			c-0.17-0.06-0.33-0.13-0.48-0.21c-0.15-0.08-0.27-0.17-0.36-0.25l0.07-0.41l3.29,0.53l-0.07,0.41c-0.12,0.05-0.25,0.1-0.4,0.14
			s-0.29,0.05-0.43,0.05l-0.42,2.63l2.88,0.46l0.42-2.63c-0.15-0.05-0.29-0.12-0.41-0.2s-0.22-0.16-0.31-0.24l0.07-0.41l3.29,0.53
			l-0.07,0.41c-0.14,0.06-0.29,0.1-0.46,0.13c-0.17,0.03-0.33,0.04-0.49,0.04l-0.99,6.15c0.16,0.06,0.32,0.13,0.46,0.21
			c0.15,0.08,0.27,0.17,0.38,0.25l-0.07,0.41l-3.29-0.53l0.07-0.41c0.12-0.05,0.25-0.09,0.39-0.13c0.14-0.04,0.28-0.06,0.43-0.06
			l0.45-2.81l-2.88-0.46l-0.45,2.81c0.14,0.05,0.27,0.12,0.38,0.18c0.12,0.07,0.23,0.16,0.34,0.25L96.71,8.46z"/>
		<path class="st1" d="M107.7,8.68l0.43,0.13c0,0.12-0.02,0.26-0.04,0.43c-0.02,0.17-0.05,0.34-0.08,0.53
			c-0.03,0.18-0.07,0.37-0.12,0.54s-0.09,0.34-0.13,0.48c-0.29,0.08-0.63,0.1-1.02,0.06c-0.39-0.04-0.78-0.12-1.16-0.24
			c-0.58-0.17-1.09-0.4-1.53-0.68c-0.43-0.28-0.77-0.63-1.01-1.04c-0.24-0.41-0.39-0.88-0.43-1.42c-0.04-0.54,0.04-1.14,0.23-1.82
			c0.2-0.67,0.46-1.21,0.8-1.64c0.34-0.42,0.73-0.74,1.16-0.95c0.43-0.21,0.89-0.32,1.38-0.34c0.49-0.01,0.98,0.05,1.47,0.2
			c0.46,0.14,0.88,0.29,1.23,0.47c0.36,0.18,0.64,0.36,0.84,0.54c-0.03,0.11-0.08,0.26-0.14,0.43c-0.06,0.17-0.13,0.35-0.21,0.54
			c-0.08,0.19-0.17,0.37-0.25,0.54c-0.09,0.18-0.16,0.33-0.23,0.44l-0.44-0.13l-0.12-1.76c-0.05-0.05-0.15-0.11-0.28-0.17
			s-0.28-0.12-0.42-0.16c-0.29-0.08-0.58-0.11-0.86-0.06c-0.29,0.04-0.57,0.16-0.84,0.36c-0.27,0.2-0.52,0.48-0.75,0.84
			c-0.23,0.37-0.42,0.83-0.59,1.38c-0.29,1.01-0.32,1.84-0.08,2.5s0.71,1.09,1.4,1.29c0.2,0.06,0.37,0.09,0.51,0.1
			c0.15,0.01,0.25-0.01,0.32-0.05L107.7,8.68z"/>
		<path class="st1" d="M115.08,5.78l2.71,1.15l-0.16,0.38c-0.15,0.03-0.3,0.03-0.47,0.02c-0.17-0.01-0.32-0.04-0.45-0.07l-2.96,1.62
			c0.06,0.28,0.14,0.6,0.23,0.97s0.19,0.74,0.31,1.13s0.23,0.79,0.35,1.2c0.12,0.41,0.24,0.79,0.37,1.17l0.36,0.5l-0.15,0.34
			l-1.76-0.75L113.17,13c-0.08-0.27-0.15-0.57-0.22-0.89c-0.07-0.32-0.14-0.65-0.2-0.99c-0.06-0.34-0.12-0.68-0.17-1.03
			s-0.1-0.67-0.14-0.99l-0.43-0.19l-1.12,2.64c0.14,0.09,0.25,0.19,0.35,0.29c0.1,0.11,0.18,0.21,0.24,0.31l-0.16,0.38l-3.07-1.3
			l0.16-0.39c0.16-0.01,0.33-0.01,0.49,0c0.16,0.01,0.32,0.03,0.46,0.06l2.44-5.73c-0.15-0.09-0.28-0.19-0.4-0.3
			c-0.12-0.12-0.22-0.23-0.3-0.34l0.16-0.38l3.07,1.3l-0.16,0.38c-0.11,0.02-0.24,0.03-0.39,0.03c-0.15,0-0.3-0.01-0.46-0.04
			l-1.09,2.57l0.66,0.11l2.66-1.74c-0.12-0.08-0.24-0.18-0.35-0.3c-0.11-0.11-0.2-0.22-0.27-0.31L115.08,5.78z"/>
		<path class="st1" d="M116.92,10.78c0.29-0.5,0.62-0.91,1-1.26c0.38-0.34,0.8-0.59,1.25-0.74c0.45-0.15,0.93-0.2,1.42-0.14
			c0.5,0.06,1.01,0.24,1.53,0.54c0.52,0.3,0.93,0.65,1.23,1.05c0.3,0.4,0.5,0.83,0.59,1.3s0.09,0.95-0.02,1.45
			c-0.1,0.5-0.3,1-0.58,1.5c-0.29,0.5-0.62,0.91-1,1.26c-0.38,0.34-0.8,0.59-1.25,0.74c-0.45,0.15-0.92,0.2-1.42,0.14
			c-0.5-0.06-1.01-0.24-1.53-0.54c-0.52-0.3-0.93-0.65-1.23-1.05c-0.3-0.4-0.5-0.84-0.6-1.3c-0.1-0.46-0.09-0.95,0.01-1.45
			C116.44,11.77,116.64,11.28,116.92,10.78z M118.54,11.71c-0.23,0.41-0.42,0.8-0.55,1.19c-0.14,0.38-0.21,0.74-0.22,1.07
			c-0.01,0.33,0.05,0.63,0.18,0.89c0.13,0.27,0.34,0.48,0.64,0.66c0.27,0.16,0.55,0.22,0.82,0.19c0.27-0.03,0.54-0.14,0.81-0.32
			c0.26-0.18,0.52-0.43,0.78-0.74c0.25-0.32,0.5-0.68,0.73-1.08c0.23-0.41,0.42-0.8,0.56-1.18c0.14-0.38,0.22-0.74,0.23-1.06
			c0.01-0.33-0.04-0.62-0.17-0.89c-0.13-0.27-0.35-0.49-0.65-0.66c-0.29-0.17-0.58-0.24-0.86-0.21c-0.28,0.03-0.55,0.14-0.81,0.32
			c-0.26,0.18-0.52,0.44-0.76,0.75C119.02,10.94,118.78,11.31,118.54,11.71z"/>
		<path class="st1" d="M131.03,15.38c-0.21,0.26-0.43,0.51-0.67,0.77c-0.24,0.26-0.47,0.5-0.71,0.71l-0.36-0.27l0.37-1.34
			l-1.65-1.23l-1.61,2.16l1.08,0.8l0.89-0.39l0.28,0.21c-0.19,0.31-0.41,0.64-0.67,1s-0.52,0.67-0.78,0.95l-0.28-0.21l0.13-0.99
			l-1.08-0.8l-1.71,2.29l1.72,1.28l1.3-0.77l0.36,0.27c-0.06,0.13-0.13,0.27-0.21,0.43c-0.08,0.16-0.17,0.32-0.27,0.48
			c-0.1,0.16-0.2,0.32-0.3,0.48c-0.11,0.16-0.21,0.3-0.3,0.43l-4.77-3.56l0.25-0.33c0.14,0.02,0.29,0.05,0.45,0.1
			c0.16,0.04,0.31,0.11,0.47,0.18l3.72-4.99c-0.1-0.11-0.2-0.24-0.3-0.38c-0.1-0.14-0.18-0.28-0.23-0.41l0.25-0.34L131.03,15.38z"/>
		<path class="st1" d="M137.5,21.37l1.93,2.1l-0.31,0.28c-0.1-0.02-0.2-0.05-0.31-0.08c-0.11-0.03-0.22-0.08-0.33-0.14l-4.6,4.22
			l1.39,1.52l4.6-4.22c-0.11-0.19-0.17-0.42-0.19-0.68l0.31-0.28l2.06,2.25l-0.31,0.28c-0.26-0.07-0.51-0.19-0.76-0.35l-4.59,4.21
			c0.07,0.13,0.13,0.26,0.18,0.4c0.05,0.13,0.08,0.26,0.11,0.39l-0.31,0.28l-7.19-7.83l0.31-0.28c0.13,0.04,0.26,0.09,0.4,0.16
			c0.14,0.06,0.26,0.13,0.37,0.21l4.59-4.21c-0.15-0.26-0.25-0.52-0.3-0.8l0.31-0.28l2.05,2.24l-0.31,0.28
			c-0.07-0.01-0.17-0.04-0.28-0.07c-0.12-0.04-0.24-0.08-0.35-0.15l-4.6,4.23l1.39,1.52l4.6-4.23c-0.11-0.24-0.17-0.46-0.17-0.66
			L137.5,21.37z"/>
		<path class="st1" d="M139.73,29.8c0.48-0.32,0.96-0.54,1.46-0.68c0.5-0.14,0.98-0.17,1.45-0.11c0.47,0.07,0.92,0.24,1.34,0.51
			c0.42,0.27,0.8,0.66,1.13,1.16c0.33,0.5,0.55,1,0.64,1.49c0.09,0.49,0.08,0.97-0.05,1.43s-0.34,0.89-0.66,1.29
			c-0.32,0.4-0.71,0.76-1.19,1.08c-0.48,0.32-0.96,0.54-1.46,0.68c-0.5,0.14-0.98,0.17-1.45,0.11c-0.47-0.06-0.91-0.23-1.33-0.5
			c-0.42-0.28-0.8-0.66-1.13-1.16c-0.33-0.5-0.55-1-0.64-1.49c-0.09-0.49-0.08-0.97,0.04-1.43c0.12-0.46,0.34-0.89,0.66-1.3
			C138.86,30.48,139.26,30.12,139.73,29.8z M140.77,31.36c-0.39,0.26-0.73,0.53-1.02,0.81c-0.29,0.28-0.52,0.57-0.67,0.86
			c-0.15,0.29-0.23,0.58-0.23,0.88c0,0.3,0.09,0.59,0.29,0.88c0.17,0.26,0.39,0.44,0.65,0.53c0.26,0.09,0.55,0.11,0.87,0.07
			s0.66-0.15,1.03-0.32c0.37-0.17,0.75-0.38,1.14-0.65s0.73-0.53,1.03-0.81c0.29-0.28,0.52-0.56,0.68-0.85
			c0.16-0.29,0.24-0.58,0.24-0.87c0-0.29-0.1-0.59-0.29-0.88c-0.19-0.28-0.41-0.47-0.68-0.57c-0.26-0.1-0.55-0.12-0.87-0.07
			c-0.32,0.05-0.66,0.16-1.02,0.33C141.54,30.88,141.16,31.1,140.77,31.36z"/>
		<path class="st1" d="M145.47,42.59l0.2,0.4c-0.09,0.08-0.21,0.17-0.34,0.26c-0.14,0.1-0.28,0.2-0.44,0.3
			c-0.16,0.1-0.32,0.19-0.48,0.28c-0.16,0.09-0.31,0.17-0.44,0.23c-0.26-0.16-0.5-0.39-0.73-0.71c-0.23-0.31-0.44-0.65-0.62-1.01
			c-0.27-0.55-0.45-1.07-0.54-1.58c-0.09-0.51-0.06-0.99,0.07-1.45c0.14-0.46,0.39-0.88,0.75-1.28c0.36-0.4,0.86-0.75,1.49-1.07
			c0.62-0.31,1.21-0.49,1.75-0.53c0.54-0.04,1.04,0.03,1.48,0.2c0.45,0.17,0.84,0.43,1.18,0.78c0.34,0.35,0.63,0.75,0.86,1.21
			c0.22,0.43,0.38,0.84,0.5,1.22s0.17,0.71,0.18,0.99c-0.11,0.05-0.24,0.11-0.41,0.19c-0.17,0.07-0.35,0.14-0.54,0.21
			c-0.19,0.07-0.38,0.13-0.57,0.19c-0.19,0.06-0.35,0.1-0.48,0.14l-0.21-0.41l1.21-1.29c0-0.08-0.02-0.18-0.06-0.32
			c-0.05-0.14-0.1-0.28-0.17-0.42c-0.13-0.27-0.32-0.5-0.54-0.68c-0.23-0.18-0.5-0.3-0.83-0.37c-0.33-0.07-0.7-0.06-1.13,0.02
			c-0.42,0.08-0.89,0.25-1.41,0.51c-0.94,0.47-1.57,1.02-1.88,1.64c-0.32,0.63-0.32,1.26,0.01,1.9c0.09,0.18,0.18,0.33,0.28,0.45
			s0.18,0.18,0.25,0.2L145.47,42.59z"/>
		<path class="st1" d="M148.09,49.33l0.16,0.42c-0.1,0.07-0.22,0.14-0.37,0.22c-0.15,0.08-0.3,0.16-0.47,0.24
			c-0.17,0.08-0.34,0.16-0.51,0.23c-0.17,0.07-0.32,0.13-0.46,0.18c-0.24-0.19-0.46-0.45-0.65-0.79s-0.36-0.7-0.5-1.08
			c-0.21-0.57-0.33-1.12-0.36-1.63c-0.03-0.52,0.05-0.99,0.24-1.43s0.48-0.83,0.89-1.19c0.41-0.35,0.94-0.65,1.6-0.89
			c0.65-0.24,1.25-0.35,1.8-0.32c0.54,0.03,1.03,0.15,1.45,0.37c0.42,0.22,0.79,0.52,1.09,0.91s0.54,0.82,0.71,1.3
			c0.17,0.45,0.28,0.88,0.35,1.27s0.09,0.73,0.07,1c-0.11,0.04-0.25,0.09-0.43,0.14c-0.18,0.05-0.36,0.1-0.56,0.15
			c-0.2,0.05-0.39,0.09-0.59,0.12c-0.19,0.04-0.36,0.06-0.49,0.08l-0.16-0.43l1.35-1.14c0.01-0.07,0-0.18-0.03-0.33
			c-0.03-0.14-0.07-0.29-0.12-0.43c-0.1-0.28-0.26-0.53-0.46-0.73c-0.2-0.21-0.47-0.36-0.78-0.46s-0.69-0.14-1.12-0.11
			c-0.43,0.03-0.92,0.15-1.46,0.35c-0.99,0.36-1.67,0.83-2.06,1.42c-0.39,0.59-0.46,1.22-0.21,1.89c0.07,0.19,0.15,0.35,0.23,0.47
			s0.16,0.2,0.23,0.23L148.09,49.33z"/>
		<path class="st1" d="M155.19,55.11c-0.32,0.06-0.66,0.12-1.01,0.17c-0.35,0.05-0.68,0.08-1,0.1l-0.11-0.44l1.14-0.8l-0.49-2
			l-2.62,0.65l0.32,1.3l0.94,0.27l0.08,0.34c-0.34,0.12-0.72,0.23-1.15,0.34c-0.43,0.11-0.83,0.19-1.21,0.24l-0.08-0.34l0.73-0.68
			l-0.32-1.3l-2.78,0.68l0.51,2.08l1.5,0.23l0.11,0.44c-0.13,0.06-0.27,0.13-0.44,0.2s-0.33,0.14-0.51,0.2
			c-0.18,0.06-0.36,0.12-0.54,0.18c-0.18,0.06-0.35,0.1-0.51,0.14l-1.42-5.78l0.41-0.1c0.09,0.11,0.19,0.23,0.28,0.36
			c0.09,0.14,0.17,0.28,0.24,0.44l6.04-1.49c-0.01-0.15,0-0.31,0.01-0.48c0.01-0.17,0.04-0.33,0.08-0.47l0.41-0.1L155.19,55.11z"/>
	</g>
	<g>
		<path class="st1" d="M24.97,91.69c0.53-0.22,1.04-0.36,1.56-0.4c0.51-0.04,0.99,0.01,1.44,0.16c0.45,0.15,0.86,0.4,1.22,0.75
			c0.36,0.35,0.66,0.8,0.9,1.35c0.23,0.55,0.35,1.08,0.35,1.58c0,0.5-0.1,0.97-0.31,1.39c-0.21,0.43-0.5,0.81-0.89,1.15
			c-0.39,0.34-0.84,0.62-1.37,0.84c-0.53,0.22-1.04,0.36-1.56,0.4s-0.99-0.01-1.44-0.16c-0.45-0.15-0.86-0.4-1.22-0.74
			c-0.36-0.35-0.66-0.8-0.9-1.35c-0.24-0.55-0.35-1.08-0.35-1.58c0-0.5,0.1-0.97,0.31-1.4c0.2-0.43,0.5-0.81,0.88-1.15
			C23.99,92.2,24.45,91.92,24.97,91.69z M25.71,93.41c-0.43,0.18-0.82,0.39-1.16,0.61c-0.34,0.22-0.61,0.47-0.82,0.72
			c-0.21,0.26-0.33,0.53-0.39,0.82c-0.05,0.29-0.02,0.59,0.12,0.91c0.12,0.29,0.3,0.5,0.54,0.64c0.24,0.14,0.52,0.21,0.84,0.23
			c0.32,0.01,0.68-0.03,1.07-0.13c0.39-0.1,0.8-0.24,1.24-0.42c0.43-0.18,0.82-0.39,1.16-0.61c0.34-0.22,0.61-0.46,0.82-0.71
			c0.21-0.25,0.34-0.52,0.39-0.81c0.05-0.29,0.01-0.6-0.12-0.92c-0.13-0.31-0.32-0.54-0.56-0.68c-0.24-0.14-0.52-0.22-0.84-0.23
			c-0.32-0.01-0.67,0.04-1.06,0.14C26.55,93.08,26.14,93.23,25.71,93.41z"/>
		<path class="st1" d="M30.6,109.24c-0.14,0.09-0.31,0.18-0.5,0.29s-0.39,0.2-0.6,0.3c-0.21,0.1-0.41,0.19-0.62,0.28
			c-0.2,0.09-0.39,0.16-0.56,0.22l-0.23-0.36l1.21-1.45l-2.78-4.46l-1.84,0.45l-0.23-0.36c0.13-0.14,0.29-0.28,0.46-0.43
			c0.17-0.15,0.35-0.3,0.53-0.44c0.18-0.14,0.36-0.28,0.54-0.4c0.17-0.12,0.32-0.22,0.45-0.3l0.51,0.81
			c0.37,0.01,0.79-0.03,1.27-0.12c0.48-0.09,0.98-0.23,1.5-0.42c0.52-0.18,1.05-0.41,1.59-0.67s1.06-0.55,1.58-0.87
			c-0.07-0.18-0.13-0.38-0.17-0.59c-0.05-0.21-0.07-0.42-0.08-0.63l0.35-0.22l3.35,5.37l-0.36,0.22c-0.25-0.14-0.5-0.34-0.75-0.6
			l-5.3,3.31L30.6,109.24z M29.05,106.75l5.32-3.32l-0.94-1.5c-0.74,0.42-1.42,0.77-2.04,1.05c-0.62,0.28-1.18,0.51-1.68,0.68
			c-0.5,0.17-0.94,0.29-1.32,0.37c-0.38,0.07-0.7,0.12-0.97,0.12L29.05,106.75z"/>
		<path class="st1" d="M34.09,114.73l-2.18-2.5l0.32-0.27c0.15,0.06,0.29,0.12,0.44,0.2s0.28,0.17,0.39,0.27l4.69-4.09
			c-0.07-0.13-0.14-0.28-0.21-0.43c-0.07-0.15-0.12-0.3-0.14-0.46l0.32-0.28l2.18,2.5l-0.31,0.28c-0.12-0.04-0.25-0.09-0.39-0.16
			s-0.27-0.15-0.4-0.25l-3.15,2.75l-0.72,0.48l1.03-0.19l4.74-0.46l0.2-0.17c-0.17-0.31-0.28-0.6-0.33-0.87l0.32-0.28l2.18,2.5
			l-0.31,0.27c-0.14-0.04-0.28-0.11-0.42-0.19c-0.14-0.09-0.28-0.18-0.41-0.28l-4.69,4.09c0.09,0.15,0.16,0.29,0.22,0.44
			c0.06,0.15,0.1,0.3,0.13,0.45l-0.32,0.27l-2.18-2.5l0.31-0.28c0.11,0.04,0.23,0.1,0.37,0.17c0.14,0.07,0.28,0.15,0.41,0.25
			l3.14-2.74l0.73-0.49l-0.98,0.2l-4.81,0.46l-0.18,0.16c0.08,0.15,0.15,0.3,0.2,0.45c0.05,0.15,0.09,0.29,0.13,0.41L34.09,114.73z"
			/>
		<path class="st1" d="M42.23,122.82l-2.57-2.12l0.27-0.32c0.14,0.03,0.29,0.07,0.45,0.13c0.16,0.06,0.31,0.13,0.44,0.2l3.97-4.8
			c-0.12-0.13-0.22-0.28-0.31-0.42c-0.09-0.15-0.15-0.28-0.19-0.4l0.27-0.32l2.57,2.12l-0.27,0.32c-0.13-0.01-0.27-0.04-0.41-0.08
			c-0.14-0.04-0.27-0.1-0.4-0.17l-1.7,2.05l2.25,1.86l1.7-2.05c-0.1-0.12-0.19-0.25-0.25-0.38c-0.06-0.13-0.11-0.25-0.15-0.36
			l0.27-0.32l2.57,2.12l-0.27,0.32c-0.15-0.02-0.3-0.06-0.46-0.12c-0.16-0.06-0.3-0.13-0.44-0.21l-3.97,4.8
			c0.11,0.13,0.21,0.27,0.29,0.41c0.08,0.15,0.15,0.28,0.2,0.41l-0.27,0.32l-2.57-2.12l0.27-0.32c0.13,0.02,0.26,0.05,0.4,0.09
			c0.14,0.04,0.28,0.09,0.41,0.17l1.82-2.2l-2.25-1.86l-1.81,2.2c0.09,0.12,0.17,0.23,0.24,0.35c0.06,0.12,0.12,0.25,0.16,0.39
			L42.23,122.82z"/>
		<path class="st1" d="M48.56,127.71l0.21-0.36c0.12,0,0.26,0.02,0.42,0.04c0.16,0.03,0.34,0.07,0.52,0.14l3.15-5.37
			c-0.12-0.09-0.23-0.2-0.34-0.33c-0.11-0.12-0.2-0.26-0.28-0.4l0.21-0.36l2.83,1.66l-0.21,0.36c-0.11,0.01-0.22,0-0.35-0.01
			c-0.13-0.01-0.27-0.04-0.44-0.08l-3.16,5.39l2.37,1.39l3.16-5.39c-0.1-0.09-0.19-0.2-0.27-0.31c-0.08-0.12-0.15-0.23-0.21-0.34
			l0.21-0.36l2.84,1.66l-0.21,0.36c-0.17,0-0.33-0.02-0.49-0.05c-0.15-0.04-0.3-0.08-0.45-0.13l-3.16,5.39l1.11,0.65
			c-0.1,0.16-0.22,0.33-0.34,0.52s-0.26,0.37-0.39,0.55c-0.14,0.18-0.27,0.36-0.41,0.52s-0.26,0.31-0.37,0.43l-0.37-0.22l0.39-1.85
			L48.56,127.71z"/>
		<path class="st1" d="M60.19,129.76c0.21-0.53,0.47-1,0.8-1.4c0.33-0.4,0.7-0.7,1.12-0.92c0.42-0.22,0.88-0.34,1.39-0.35
			c0.5-0.02,1.03,0.08,1.59,0.3c0.56,0.22,1.02,0.5,1.38,0.85c0.36,0.35,0.62,0.75,0.78,1.19c0.16,0.44,0.23,0.92,0.2,1.44
			s-0.14,1.04-0.35,1.57c-0.21,0.53-0.47,1-0.8,1.4c-0.33,0.4-0.7,0.7-1.12,0.92c-0.42,0.22-0.88,0.34-1.38,0.35
			c-0.5,0.02-1.03-0.08-1.59-0.3c-0.56-0.22-1.02-0.5-1.38-0.85c-0.36-0.35-0.62-0.75-0.79-1.2c-0.17-0.45-0.24-0.92-0.21-1.44
			C59.87,130.81,59.98,130.29,60.19,129.76z M61.93,130.43c-0.17,0.44-0.29,0.86-0.37,1.25c-0.08,0.4-0.09,0.76-0.05,1.09
			c0.04,0.33,0.15,0.61,0.32,0.85c0.17,0.24,0.41,0.43,0.74,0.55c0.29,0.11,0.57,0.13,0.84,0.06c0.26-0.08,0.51-0.22,0.75-0.44
			c0.23-0.22,0.45-0.5,0.66-0.85c0.2-0.35,0.39-0.74,0.56-1.18c0.17-0.44,0.29-0.86,0.37-1.25s0.1-0.76,0.07-1.08
			c-0.04-0.32-0.14-0.61-0.31-0.85c-0.17-0.24-0.42-0.43-0.75-0.56c-0.31-0.12-0.61-0.15-0.88-0.08c-0.27,0.07-0.52,0.22-0.75,0.44
			c-0.23,0.22-0.44,0.51-0.64,0.86C62.29,129.6,62.1,129.99,61.93,130.43z"/>
		<path class="st1" d="M69.01,137l0.09-0.41c0.15-0.05,0.31-0.08,0.48-0.11c0.17-0.02,0.32-0.02,0.47-0.01l1.37-6.07
			c-0.14-0.06-0.28-0.14-0.42-0.22c-0.15-0.09-0.27-0.18-0.39-0.29l0.09-0.41l1.73,0.39c0.27,0.06,0.53,0.11,0.78,0.14
			c0.25,0.03,0.53,0.09,0.84,0.16c0.34,0.08,0.67,0.18,0.98,0.3c0.31,0.12,0.58,0.28,0.8,0.46s0.38,0.41,0.48,0.68
			c0.1,0.27,0.11,0.58,0.02,0.95c-0.05,0.23-0.14,0.43-0.27,0.61c-0.13,0.18-0.28,0.33-0.46,0.44c-0.18,0.12-0.38,0.2-0.6,0.26
			s-0.45,0.08-0.69,0.07l-0.01,0.04c0.22,0.08,0.44,0.19,0.66,0.32c0.21,0.13,0.4,0.29,0.55,0.48c0.15,0.19,0.26,0.42,0.33,0.67
			c0.07,0.25,0.07,0.53,0,0.84c-0.09,0.39-0.25,0.7-0.48,0.94c-0.23,0.24-0.52,0.42-0.85,0.53c-0.33,0.11-0.69,0.17-1.08,0.17
			c-0.39,0-0.79-0.05-1.19-0.14c-0.15-0.04-0.31-0.08-0.49-0.12c-0.18-0.05-0.35-0.09-0.53-0.14c-0.18-0.05-0.35-0.09-0.52-0.14
			c-0.17-0.04-0.31-0.08-0.42-0.11L69.01,137z M72.39,137.1c0.45,0.1,0.83,0.05,1.15-0.16c0.32-0.21,0.53-0.54,0.63-0.98
			c0.06-0.27,0.07-0.5,0.02-0.7c-0.05-0.19-0.13-0.36-0.26-0.5c-0.13-0.14-0.29-0.25-0.49-0.33c-0.2-0.09-0.42-0.16-0.66-0.21
			l-0.57-0.13l-0.62,2.76c0.1,0.04,0.2,0.09,0.3,0.13S72.17,137.05,72.39,137.1z M72.71,133.46c0.12,0.03,0.24,0.05,0.37,0.07
			c0.12,0.02,0.24,0.03,0.35,0.04c0.3-0.05,0.57-0.18,0.79-0.38s0.37-0.45,0.44-0.76c0.1-0.45,0.06-0.81-0.13-1.07
			c-0.19-0.26-0.47-0.44-0.84-0.52c-0.16-0.04-0.29-0.06-0.41-0.08c-0.12-0.02-0.22-0.03-0.32-0.04l-0.6,2.67L72.71,133.46z"/>
		<path class="st1" d="M84.58,137.12l0.45,0.04c0.02,0.12,0.04,0.26,0.05,0.43c0.01,0.17,0.02,0.34,0.02,0.53
			c0,0.19,0,0.37-0.01,0.56c-0.01,0.18-0.02,0.35-0.03,0.5c-0.27,0.14-0.6,0.23-0.99,0.26c-0.39,0.03-0.79,0.04-1.19,0
			c-0.61-0.05-1.15-0.17-1.63-0.36c-0.48-0.19-0.88-0.46-1.2-0.82c-0.32-0.35-0.56-0.79-0.71-1.3c-0.15-0.51-0.2-1.12-0.14-1.83
			c0.06-0.69,0.21-1.28,0.46-1.77s0.56-0.87,0.94-1.17c0.38-0.29,0.8-0.5,1.28-0.61s0.97-0.15,1.48-0.11
			c0.48,0.04,0.92,0.11,1.3,0.21c0.39,0.1,0.7,0.22,0.94,0.36c-0.01,0.12-0.03,0.27-0.05,0.45c-0.03,0.18-0.06,0.37-0.1,0.57
			c-0.04,0.2-0.09,0.39-0.14,0.58c-0.05,0.19-0.09,0.35-0.13,0.48l-0.46-0.04l-0.47-1.7c-0.06-0.04-0.17-0.08-0.31-0.11
			c-0.14-0.03-0.29-0.06-0.45-0.07c-0.3-0.02-0.59,0.01-0.86,0.11c-0.27,0.1-0.52,0.27-0.75,0.52c-0.23,0.25-0.41,0.57-0.57,0.97
			c-0.15,0.4-0.25,0.89-0.29,1.47c-0.09,1.05,0.06,1.87,0.43,2.46c0.37,0.6,0.91,0.92,1.63,0.98c0.21,0.02,0.38,0.01,0.52-0.01
			c0.15-0.02,0.25-0.06,0.3-0.11L84.58,137.12z"/>
		<path class="st1" d="M92.29,131.6l2.94-0.19l0.03,0.42c-0.12,0.09-0.26,0.17-0.41,0.23c-0.16,0.07-0.3,0.11-0.43,0.14l-1.91,2.78
			c0.18,0.22,0.4,0.48,0.64,0.76c0.25,0.28,0.51,0.57,0.79,0.88s0.56,0.61,0.85,0.92c0.29,0.31,0.58,0.6,0.85,0.88l0.55,0.28
			l0.02,0.37l-1.91,0.12l-0.46-0.28c-0.19-0.21-0.39-0.44-0.6-0.69c-0.21-0.25-0.42-0.52-0.63-0.8c-0.21-0.28-0.42-0.55-0.62-0.84
			c-0.2-0.28-0.39-0.55-0.57-0.82l-0.47,0.03l0.19,2.86c0.16,0.02,0.31,0.05,0.45,0.1s0.25,0.1,0.35,0.17l0.03,0.42l-3.33,0.22
			l-0.03-0.42c0.14-0.08,0.29-0.16,0.44-0.22c0.15-0.06,0.3-0.12,0.44-0.16l-0.41-6.21c-0.17-0.01-0.33-0.04-0.5-0.09
			s-0.3-0.1-0.42-0.17l-0.03-0.42l3.33-0.22l0.03,0.42c-0.09,0.06-0.2,0.13-0.33,0.2c-0.13,0.07-0.27,0.12-0.42,0.17l0.18,2.79
			l0.64-0.2l1.59-2.75c-0.15-0.02-0.3-0.06-0.44-0.11s-0.27-0.1-0.38-0.16L92.29,131.6z"/>
		<path class="st1" d="M102.5,137.89l-3.23,0.73l-0.09-0.41c0.12-0.1,0.25-0.2,0.39-0.29c0.14-0.09,0.28-0.16,0.42-0.22l-1.38-6.07
			c-0.15,0-0.31-0.01-0.48-0.02s-0.33-0.04-0.47-0.09l-0.09-0.41l3.23-0.73l0.09,0.41c-0.09,0.09-0.2,0.18-0.32,0.27
			c-0.12,0.09-0.26,0.16-0.41,0.23l0.93,4.08l0.08,0.86l0.33-1l1.85-4.39l-0.06-0.26c-0.36,0-0.66-0.04-0.92-0.12l-0.09-0.41
			l3.23-0.73l0.09,0.41c-0.1,0.11-0.23,0.2-0.37,0.28c-0.14,0.08-0.29,0.16-0.44,0.23l1.38,6.07c0.17-0.01,0.34,0,0.49,0.02
			c0.16,0.02,0.31,0.05,0.46,0.09l0.09,0.41l-3.23,0.73l-0.09-0.41c0.09-0.07,0.2-0.15,0.32-0.25c0.12-0.09,0.26-0.17,0.41-0.25
			l-0.92-4.07l-0.09-0.87l-0.29,0.96l-1.88,4.45l0.05,0.24c0.17,0,0.34,0.01,0.49,0.04c0.16,0.02,0.3,0.05,0.43,0.08L102.5,137.89z"
			/>
		<path class="st1" d="M113.51,134.56l-3.06,1.26l-0.16-0.39c0.1-0.12,0.21-0.24,0.33-0.35c0.12-0.11,0.25-0.21,0.38-0.29
			l-2.38-5.75c-0.15,0.02-0.31,0.04-0.48,0.06c-0.17,0.02-0.33,0.01-0.48-0.01l-0.16-0.39l3.06-1.26l0.16,0.39
			c-0.08,0.1-0.17,0.21-0.27,0.32c-0.11,0.11-0.23,0.21-0.37,0.29l1.59,3.86l0.23,0.83l0.15-1.04l1.08-4.64l-0.1-0.24
			c-0.35,0.06-0.66,0.07-0.92,0.04l-0.16-0.39l3.06-1.26l0.16,0.39c-0.08,0.12-0.19,0.24-0.32,0.34c-0.13,0.1-0.26,0.2-0.39,0.3
			l2.38,5.75c0.17-0.04,0.33-0.06,0.49-0.06c0.16-0.01,0.31,0,0.46,0.02l0.16,0.39l-3.06,1.26l-0.16-0.39
			c0.08-0.09,0.17-0.19,0.28-0.3c0.11-0.11,0.23-0.21,0.37-0.31l-1.59-3.85l-0.23-0.85l-0.13,0.99l-1.1,4.71l0.09,0.22
			c0.17-0.03,0.33-0.05,0.49-0.05c0.16,0,0.3,0,0.43,0.01L113.51,134.56z M111.14,126.72c-0.31,0.13-0.61,0.22-0.88,0.26
			c-0.28,0.05-0.53,0.05-0.76,0.02c-0.23-0.04-0.43-0.12-0.6-0.25c-0.17-0.13-0.3-0.3-0.39-0.52c0.08-0.14,0.22-0.26,0.41-0.37
			c0.19-0.11,0.37-0.2,0.53-0.28l0.42,0.04l0.33,0.79c0.11,0.01,0.24,0,0.37-0.04c0.13-0.03,0.26-0.08,0.38-0.13
			c0.09-0.04,0.21-0.09,0.34-0.16c0.13-0.07,0.24-0.14,0.32-0.22l-0.34-0.83l0.27-0.33c0.12-0.06,0.28-0.12,0.49-0.16
			c0.21-0.04,0.41-0.05,0.6-0.03c0.18,0.43,0.13,0.84-0.14,1.22C112.23,126.14,111.78,126.46,111.14,126.72z"/>
		<path class="st1" d="M127.03,126.59c0.18-0.09,0.36-0.17,0.56-0.23c0.19-0.06,0.37-0.11,0.54-0.14l0.24,0.34l-3.01,2.09
			l-0.24-0.34c0.07-0.15,0.15-0.29,0.25-0.42s0.2-0.25,0.31-0.36l-3.56-5.11c-0.16,0.07-0.31,0.13-0.47,0.17
			c-0.16,0.04-0.31,0.07-0.45,0.08l-0.24-0.34l1.14-0.79c0.24-0.17,0.51-0.37,0.8-0.61c0.29-0.24,0.57-0.45,0.83-0.63
			c0.32-0.22,0.65-0.41,1-0.56c0.35-0.15,0.69-0.23,1.03-0.25c0.34-0.02,0.67,0.05,0.99,0.2c0.32,0.15,0.61,0.41,0.87,0.78
			c0.25,0.36,0.39,0.71,0.43,1.07c0.04,0.36,0,0.7-0.12,1.04c-0.12,0.33-0.3,0.65-0.55,0.94c-0.25,0.29-0.54,0.55-0.86,0.78
			c-0.03,0.02-0.08,0.05-0.15,0.1c-0.07,0.05-0.14,0.09-0.21,0.14c-0.08,0.05-0.15,0.1-0.22,0.14c-0.07,0.04-0.12,0.07-0.16,0.09
			L127.03,126.59z M123.89,121.05c-0.12,0.08-0.21,0.15-0.28,0.21c-0.06,0.06-0.12,0.12-0.17,0.18l1.91,2.74
			c0.07-0.02,0.16-0.07,0.27-0.14c0.11-0.07,0.2-0.13,0.26-0.18c0.16-0.11,0.3-0.25,0.41-0.41c0.11-0.16,0.19-0.34,0.22-0.53
			c0.04-0.2,0.03-0.41-0.02-0.64c-0.05-0.23-0.17-0.47-0.34-0.72c-0.33-0.48-0.7-0.76-1.09-0.82
			C124.67,120.68,124.28,120.79,123.89,121.05z"/>
		<path class="st1" d="M134.35,121.85l-2,1.83l-0.28-0.31c0.04-0.13,0.09-0.26,0.15-0.4c0.06-0.13,0.13-0.25,0.21-0.37l-2.7-7.15
			l0.6-0.55l6.83,3.37c0.13-0.08,0.26-0.15,0.41-0.2c0.15-0.06,0.28-0.1,0.42-0.12l0.28,0.31l-2.54,2.33l-0.28-0.31
			c0.06-0.14,0.13-0.29,0.21-0.44s0.16-0.29,0.25-0.41l-1.65-0.86l-1.8,1.65l0.7,1.73c0.28-0.2,0.59-0.33,0.92-0.41L134.35,121.85z
			 M132.15,119.52l1.44-1.31l-1.95-1.07l-0.79-0.56l-0.02,0.01l0.47,0.88L132.15,119.52z"/>
		<path class="st1" d="M136.53,107.74c-0.21,0.26-0.42,0.48-0.64,0.66c-0.22,0.18-0.44,0.3-0.66,0.38
			c-0.22,0.08-0.43,0.11-0.64,0.07s-0.41-0.12-0.59-0.27c0.01-0.16,0.07-0.34,0.18-0.53c0.11-0.19,0.22-0.36,0.33-0.5l0.39-0.17
			l0.67,0.53c0.1-0.05,0.21-0.12,0.3-0.21c0.1-0.09,0.19-0.19,0.27-0.3c0.06-0.08,0.14-0.18,0.22-0.31
			c0.08-0.13,0.14-0.24,0.17-0.35l-0.7-0.55l0.08-0.42c0.07-0.11,0.19-0.24,0.35-0.38c0.17-0.14,0.33-0.25,0.51-0.31
			c0.37,0.29,0.53,0.67,0.47,1.14C137.2,106.7,136.96,107.2,136.53,107.74z M142.41,113.44l-2.06,2.59l-0.33-0.26
			c0.03-0.16,0.07-0.31,0.12-0.47c0.05-0.16,0.11-0.3,0.19-0.44l-4.88-3.87c-0.12,0.09-0.25,0.19-0.39,0.28
			c-0.14,0.1-0.28,0.17-0.42,0.22l-0.33-0.26l2.06-2.59l0.33,0.26c-0.02,0.13-0.05,0.26-0.09,0.41c-0.04,0.15-0.1,0.29-0.18,0.44
			l3.27,2.6l0.6,0.62l-0.37-0.98l-1.31-4.58l-0.21-0.16c-0.28,0.22-0.54,0.38-0.79,0.48l-0.33-0.26l2.06-2.59l0.33,0.26
			c-0.01,0.15-0.05,0.3-0.11,0.45c-0.06,0.15-0.13,0.31-0.2,0.45l4.88,3.87c0.13-0.11,0.26-0.21,0.4-0.3
			c0.14-0.08,0.27-0.15,0.41-0.21l0.33,0.26l-2.06,2.59l-0.33-0.26c0.02-0.11,0.06-0.24,0.1-0.39c0.04-0.15,0.1-0.3,0.17-0.45
			l-3.26-2.59l-0.61-0.63l0.37,0.93l1.32,4.65l0.19,0.15c0.13-0.11,0.27-0.2,0.41-0.28c0.14-0.08,0.26-0.15,0.38-0.2L142.41,113.44z
			"/>
		<path class="st1" d="M144.02,104.8c-0.5-0.28-0.92-0.61-1.27-0.99c-0.35-0.38-0.6-0.79-0.75-1.24c-0.16-0.45-0.21-0.92-0.15-1.42
			c0.05-0.5,0.23-1.01,0.52-1.54c0.29-0.52,0.64-0.94,1.04-1.25c0.4-0.31,0.83-0.51,1.29-0.61c0.46-0.1,0.95-0.1,1.45,0
			c0.5,0.1,1.01,0.29,1.5,0.57c0.5,0.28,0.92,0.61,1.27,0.99c0.35,0.38,0.6,0.79,0.76,1.24c0.16,0.45,0.21,0.92,0.16,1.42
			c-0.05,0.5-0.23,1.01-0.52,1.54c-0.29,0.52-0.64,0.94-1.04,1.25c-0.4,0.31-0.83,0.51-1.29,0.61c-0.46,0.1-0.95,0.1-1.45,0.01
			C145.02,105.27,144.52,105.08,144.02,104.8z M144.93,103.17c0.41,0.23,0.81,0.41,1.19,0.54c0.38,0.13,0.74,0.2,1.07,0.2
			c0.33,0,0.63-0.06,0.89-0.19c0.26-0.13,0.48-0.35,0.65-0.65c0.16-0.27,0.21-0.55,0.18-0.82s-0.15-0.54-0.33-0.8
			c-0.18-0.26-0.44-0.52-0.75-0.77c-0.32-0.25-0.68-0.49-1.09-0.72c-0.41-0.23-0.8-0.41-1.19-0.54c-0.38-0.13-0.74-0.21-1.06-0.22
			c-0.33-0.01-0.62,0.05-0.88,0.18c-0.26,0.13-0.48,0.35-0.65,0.66c-0.16,0.29-0.23,0.58-0.2,0.86c0.03,0.28,0.14,0.55,0.33,0.81
			c0.19,0.26,0.44,0.51,0.76,0.75C144.16,102.7,144.52,102.94,144.93,103.17z"/>
		<path class="st1" d="M153.65,93.89l-1.15,3.13l-0.39-0.14c-0.02-0.14-0.03-0.3-0.03-0.47c0-0.17,0.01-0.34,0.04-0.48l-5.84-2.15
			c-0.09,0.15-0.19,0.3-0.3,0.43c-0.11,0.13-0.21,0.23-0.31,0.31l-0.39-0.14l1.15-3.13l0.39,0.14c0.03,0.13,0.05,0.27,0.06,0.41
			c0.01,0.15,0,0.29-0.03,0.43l2.5,0.92l1-2.74l-2.5-0.92c-0.08,0.14-0.17,0.26-0.27,0.36c-0.1,0.1-0.2,0.19-0.29,0.26l-0.39-0.14
			l1.15-3.13l0.39,0.14c0.03,0.15,0.05,0.3,0.04,0.47c-0.01,0.17-0.02,0.33-0.05,0.49l5.84,2.15c0.09-0.15,0.18-0.29,0.29-0.42
			c0.11-0.13,0.22-0.23,0.32-0.32l0.39,0.14l-1.15,3.13l-0.39-0.14c-0.02-0.13-0.04-0.26-0.05-0.41c-0.01-0.14,0-0.29,0.02-0.44
			l-2.67-0.98l-1,2.74l2.67,0.98c0.08-0.13,0.16-0.24,0.25-0.34c0.09-0.1,0.2-0.19,0.31-0.28L153.65,93.89z"/>
	</g>
</g>
</svg>
