<?xml version="1.0" encoding="utf-8"?>
<!-- Generator: Adobe Illustrator 24.0.1, SVG Export Plug-In . SVG Version: 6.00 Build 0)  -->
<svg version="1.1" id="_1" xmlns="http://www.w3.org/2000/svg" xmlns:xlink="http://www.w3.org/1999/xlink" x="0px" y="0px"
	 viewBox="0 0 436.28 770.44" style="enable-background:new 0 0 436.28 770.44;" xml:space="preserve">
<style type="text/css">
	.st0{fill:#586688;}
	.st1{fill:#422D1E;}
	.st2{fill:#F5BC8E;}
	.st3{fill:#442D1D;}
	.st4{fill:#B85D3F;}
	.st5{fill:#E9A45C;}
	.st6{fill:#402D1E;}
</style>
<g>
	<path class="st0" d="M135.34,704.75c-1.13-7.47-2.86-14.65-6.48-21.33c-2.01-3.72-6.81-2.98-8.98,0c-1.05,1.44-1.86,2.98-2.54,4.58
		c-1.01-4.67-8.7-5.99-10.08-0.36c-1.7,6.93-8.96,10.86-14.36,14.74c-5.69,4.09-12.12,7.84-17.22,12.67
		c-9.93,9.4-3.82,21.93,10.16,17.27c7.33-2.45,14.45-5.6,21.78-8.11c4.06-1.39,8.13-2.72,12.23-3.98c3.3-1.02,7.1-1.7,10.18-3.33
		C136.22,713.59,136.25,710.75,135.34,704.75z"/>
	<path class="st0" d="M194.6,695.57c-0.29-2.03-1.69-3.17-3.36-3.54c-1.11-2.75-3.07-4.89-6.49-5.39c-0.19-0.03-0.38-0.04-0.57-0.06
		c1.41-5.19-6.44-9.21-9.55-3.89c-3.16,5.41-23.94,11.3-26.07,12.17c-3.64,1.49-5.08,4.9-5.44,8.58c-0.83,8.42,4.5,8.95,12.67,10.06
		c5.36,0.73,10.77,1.16,16.15,1.72c4.74,0.5,10.41,1.99,15.09,0.61C197.05,712.91,195.76,703.67,194.6,695.57z"/>
	<path class="st1" d="M249.25,368.53c-0.18-6.11-6.71-9-11.28-7.02c-3.28-4.02-10.21-5.26-12.76,0.52
		c-0.22,0.49-0.42,0.98-0.63,1.47l0.65-5.12c0.64-5.06-4.57-8.11-9.07-7.62c0.28-1.84,0.54-3.68,0.82-5.52
		c0.64-4.19-1.06-8.34-5.45-9.59c-3.81-1.09-8.79,1.32-9.59,5.45c-0.94,4.85-1.86,9.71-2.75,14.57c-1.93-2-5.03-2.67-7.8-2
		c-1.75-2.94-5.46-4.76-8.79-3.99c-2.69-3.27-8.15-4.61-11.92-1.14c-2.71,2.49-5.34,5.03-7.9,7.63c-2.16-1.1-4.69-1.28-6.87,0.07
		c1.09-1.95,2.17-3.9,3.27-5.84c2.87-5.09-1.26-11-6-11.89c-3.35-2.91-9.02-3.38-11.97,1.55c-21.56,36.01-59.53,136.41-62.16,149.68
		c-5.44,27.55,25.89,201.91,26.37,204.08c1.26,5.74,26.4-3.04,26.34-3.99c1.76-4.42-6.99-144.82-14.02-197.07
		c5.45-7.04,46.49-58.24,60.87-77.34c1.8-2.02,3.58-4.06,5.33-6.12c-0.8,25.49-5.48,119.62-5.58,140.1
		c-0.12,6.83-0.16,13.67-0.13,20.51c-0.76,14.95-4.89,110.69-4.78,118.57c0.06,3.89,19.87,11.61,22.56,2.43
		c0.82-2.8,36.48-179.26,46.6-256.67C245.44,412.58,249.89,390.43,249.25,368.53z"/>
	<path class="st2" d="M222.13,73.47c0-0.03-4.32,2.65-4.33,2.61l-0.17-4.23c-0.22-5.6-6.18-7.3-9.78-5.06
		c-1.4,0.13-2.76,0.69-3.8,1.66c-2.27,0.35-4.46,1.77-5.38,4.24c-0.06,0.16-0.1,0.31-0.15,0.47c-0.54,0.22-1.05,0.5-1.53,0.83
		c-1.14,0.4-2.12,1.16-2.73,2.29c-1.52,0.5-2.8,1.5-3.37,3.03c-1.61,0.96-2.81,2.64-2.9,5.05c-0.26,6.86,0.77,38.95,1.37,42.28
		c0.56,3.12,34.98-0.14,34.97-2.11C224.19,108.93,223.04,94.33,222.13,73.47z"/>
	<path class="st2" d="M185.32,19.38c8.28-5.93,19.91-6.46,28.13-0.55c1.57,0.75,3.03,1.95,4.26,3.67
		c10.85,15.22,6.64,39.26-0.43,55.17c-3.33,7.51-8.27,16.33-15.62,20.58c-3.34,1.93-6.76,2.58-9.98,2.21
		c-3.79-0.02-7.08-1.93-9.85-4.74c-1.42-1.34-2.67-2.91-3.7-4.66c-2.64-4.03-4.56-8.63-5.74-12.21c-3.2-9.7-3.46-20.11-2.1-30.16
		C171.78,37.62,175.89,26.13,185.32,19.38z"/>
	<path class="st3" d="M173.35,596.29c-2.25-28.75-9.15-58.1-26.72-81.55c-14.19-18.94-32.54-41.09-55.79-45.45
		c-2.71-0.75-7.03-1.23-8.82-1.42c-22.81-2.49-43.54,11.63-55.89,30.39c-13.77,20.92-20.42,47.27-23.83,71.81
		c-6.83,49.16,1.53,100.08,24.03,144.35c5.62,11.05,12.1,21.75,19.56,31.65c7.41,9.84,16.2,17.9,28.11,21.77
		c23.54,7.64,48.64-2.31,65.19-19.5c18.31-19.03,27.51-45.07,31.53-70.73C174.91,650.98,175.45,623.14,173.35,596.29z
		 M163.33,654.24c-1.68,24.29-6.28,49.11-18.73,70.37c-11.13,19-29.71,35.36-52.75,35.76c-11.29,0.19-22.1-3.46-30.29-11.37
		c-8.32-8.04-14.65-18.41-20.44-28.35C18.63,681.99,8.06,636.8,10.21,592.18c1.21-25.2,6.27-51.28,16.69-74.37
		c9.03-20,26.87-40.88,50.11-40.35c0.48,0.01,2.06,0.37,6.69,0.81c21.03,2.01,37.98,21.95,51.36,37.83
		c15.15,17.99,22.85,40.8,26.44,63.76C165.3,604.27,165.03,629.67,163.33,654.24z"/>
	<path class="st3" d="M433.53,547.32c-3.3-25.41-8.75-52.75-22.99-74.54c-6.33-9.68-14.65-18.75-25.77-22.77
		c-3.86-1.4-13.91-2.38-22.72-0.79c-8.93,1.61-16.62,5.83-19.37,8.45c-7.55,7.21-13.26,18.28-15.89,25.72
		c-7.61,21.57-8.54,46.21-8.84,68.85c-0.33,25.34,1.74,50.65,5.06,75.76c2.94,22.26,5.04,46.36,15.21,66.73
		c9.13,18.29,27.15,32.37,47.71,34.86c10.09,1.22,20.09-1.15,27.63-8.2c7.91-7.39,11.61-18.05,13.55-28.43
		c4.43-23.71,6.79-48.19,8.25-72.25C436.87,596.26,436.69,571.65,433.53,547.32z M420.73,667.91c-2.09,16.19-2.45,44.18-21.29,50.75
		c-17.73,6.18-38.94-7.57-48.45-21.83c-10.51-15.74-13.02-35.45-15.8-53.75c-3.31-21.73-5.81-43.6-6.8-65.56
		c-1.08-23.85-0.65-48.16,3.24-71.77c1.6-9.73,3.93-19.59,8.61-28.35c2.43-4.56,8.47-14.04,14.96-16.27
		c13.03-4.76,26.27-2.34,31.51,0.84c8.04,4.88,13.85,13.03,18.37,21.09c9.9,17.64,14.48,38.34,17.57,58.15
		C429.19,583.13,426.14,626.05,420.73,667.91z"/>
	<path class="st3" d="M102.42,606.44c-1.11-6.09-3.61-12.53-7.52-17.38c-2.95-3.66-7.83-4.9-11.07-1.79
		C74,588.4,73.14,608.38,73,615.66c-0.11,5.68,0.34,11.96,4.63,16.19c3.69,3.64,9.47,4.88,14.37,3.31
		C103.44,631.5,104.18,616.14,102.42,606.44z M88.98,626.62c-7.39,2.23-7.09-8.19-6.93-12.59c0.11-3.14,0.33-6.29,0.95-9.38
		c0.39-1.95,1.19-7.05,2.8-8.83c0.08-0.03,0.16-0.06,0.24-0.09c0.79,0.1,1.6-0.01,2.34-0.38c0.45,0.66,0.88,1.34,1.27,2.03
		c0.92,1.6,1.72,3.26,2.36,4.99c1.01,2.75,1.73,5.67,2.02,8.58C94.48,615.55,94.65,624.91,88.98,626.62z"/>
	<path class="st3" d="M390.84,569.51c-3.06-3.58-7.48-4.95-11.89-2.9c-4.44,2.07-6.36,6.64-7.11,11.21
		c-0.19,1.18-0.42,2.83-0.37,3.81c0.39,7.63,0.55,20.68,7.9,27.48c3.13,2.9,7.62,3.72,11.35,1.42c4.2-2.59,5.84-7.88,6.66-12.47
		C399.06,588.61,397.24,577.01,390.84,569.51z M388.39,597.24c-0.29,1.36-0.94,5.7-3.15,5.06c-1.6-0.46-2.32-5.62-2.65-6.99
		c-1.99-8.19-1.54-16.96-1.64-17.26c0.48-1.85,1.36-3.66,3.12-2.6c1.67,1.01,2.88,5.11,3.42,6.74
		C389.09,587.01,389.46,592.27,388.39,597.24z"/>
	<path class="st3" d="M399.41,320.25c-19.85,8.27-40.85,12.82-62.03,16.1c-2.36,0.16-5.59,0.84-5.72,0.86
		c-24.51,3.55-49.14,6.41-73.7,9.56c-6.3,0.81-6.38,10.82,0,10c24.45-3.13,48.94-6.04,73.34-9.49c2.52,29.76,5.93,59.44,10.2,88.99
		c-76.62-14.72-153.98-25.45-231.71-32.17c1.34-8.99,2.77-17.98,3.77-27.01c1.27,1.15,2.61,2.24,4.11,3.17
		c3.88,2.39,8.5,4.16,12.84,5.49c8.26,2.53,17.26-0.01,18.49-9.66c0.98-7.67-4.7-17.74-10.51-22.51c-3.33-2.73-7.25-3.52-11.42-4.05
		c-5.65-0.72-10.67-2.61-15.86-4.88c-8.82-3.86-18.15-7.61-27.94-5.25c-4.02,0.97-8.97,3.35-11.16,7.09
		c-0.76,1.3-1.07,2.6-1.01,3.81c-0.87,2.28-0.88,4.86,0.48,7.02c2.18,3.48,6.73,4.09,10.4,4.94c7.42,1.73,15.65,2.96,22.31,6.96
		c-0.95,12.11-2.97,24.1-4.72,36.14c-0.08,0.55-0.15,1.09-0.23,1.64c-0.06,0.27-0.1,0.55-0.12,0.84
		c-2.1,15.01-3.44,30.09-4.13,45.23c-1.5,32.84-0.41,65.73-0.98,98.59c-0.21,12.3-0.68,24.58-1.58,36.84
		c-0.08-0.01-0.15-0.03-0.23-0.04c-6.29-1.21-8.48,4.74-2.16,5.96c0.68,0.13,0.87,3.93,1.55,4.06c-0.3,3.2,4.57,6.74,4.2,9.94
		c-0.74,6.38,4.08,5.98,4.81-0.35c0.3-2.61,0.57-5.22,0.82-7.83c15.51,2.63,31.14,4.58,46.83,5.77c10.27,0.77,20.57,1.23,30.86,1.36
		c3.76,0.05,7.66-0.14,11.57-0.22c-3.89,5.27-6.17,12.07-6.31,18.19c-0.19,8.52,4.29,19.39,11.54,25.63
		c-12.41,0.81-25.68-2.71-37.05-5.59c-22.85-5.79-45.68-11.62-68.53-17.43c-6.24-1.59-12.46,5.89-6.22,7.48
		c23.15,5.89,49.85,13.99,73.01,19.83c19.59,4.94,42.87,10.17,61.47-0.74c0.85-0.5,1.69-1.04,2.51-1.61
		c0.01,0.04,0.03,0.08,0.05,0.12c2.72,8.01,2.11,15.9,2.99,24.15c0.83,7.75,3.92,14.58,11.1,18.33c2.89,1.51,5.99,2.73,9.18,3.76
		c4.46,2.75,9.63,4,14.89,3.61c0.76,0.14,1.52,0.29,2.26,0.42c4.47,0.81,8.96-4.76,4.86-8.36c-6.44-5.67-14.27-7.79-22.68-6.28
		c-1.71-0.72-3.33-1.55-4.79-2.52c-6.56-4.38-4.93-14.12-5.35-20.92c-0.42-6.86-2.06-13.52-4.77-19.7c2.2-2.94,3.82-6.27,4.55-9.92
		c1.77-8.81-1.89-18.38-7.12-25.39c-1.92-2.57-4.09-4.64-6.44-6.32c-0.04-0.58-0.18-1.17-0.45-1.77
		C191.71,538.54,160.6,474,108.69,426.35c-0.52-0.48-1.07-0.81-1.63-1.03c0.39-3.78,0.84-7.56,1.33-11.34
		c78.47,6.73,156.53,17.61,233.85,32.58c0.27,0.05,0.54,0.08,0.8,0.09c6.74,44.38,17.73,98.88,28.42,142.49
		c1.53,6.25,8.9-6.83,7.36-13.09c-12.45-50.77-22.21-102.16-29.26-153.93c7.12,2.93,10.59-3.84,11.61-11.59
		c2.33-10.14-0.59-26.15-13.24-21.99c-0.18,0.06-0.35,0.14-0.52,0.2c-0.65,0.18-1.29,0.44-1.93,0.76
		c-1.65-14.54-3.09-29.1-4.31-43.69c20.79-3.27,41.39-7.8,60.89-15.92C407.92,327.46,405.35,317.78,399.41,320.25z M223.18,625.87
		c0.93,3.37,0.82,6.48-0.1,9.3c-2.5-3.51-5.4-6.77-8.68-9.67c-4.8-4.25-11.9,2.79-7.07,7.07c3.7,3.28,6.91,7.02,9.5,11.17
		c-0.79,0.63-1.64,1.22-2.54,1.77c-0.95,0.59-1.92,1.11-2.9,1.59c-0.78-0.67-1.81-1.1-3.12-1.12c-7.76-0.11-13.48-12.64-13.77-19.15
		c-0.26-5.79,3.56-17.73,10.7-18.78c0.55,0.11,1.1,0.23,1.64,0.37C215.29,610.54,220.9,617.67,223.18,625.87z M206.9,598.13
		c-0.4,0-0.79,0.01-1.18,0.03c-11.34-2.15-24.17-0.65-35.18-0.99c-22.86-0.69-45.62-3.02-68.15-6.89c3.81-50.8-0.24-102,3.6-152.77
		C152.24,481.86,181.24,540.1,206.9,598.13z M351.25,401.91c0.08-0.36,0.12-0.71,0.13-1.05c0.21,0.78,0.34,1.56,0.4,2.02
		c0.04,0.3,0.06,0.62,0.08,0.94c-0.04,0.92-0.13,1.84-0.26,2.75c-0.2-0.4-0.34-0.69-0.34-0.71
		C350.9,404.53,350.96,403.25,351.25,401.91z"/>
	<path class="st2" d="M85.63,339.38c-0.67-3.11-3.84-5.6-7.11-3.26c-6.23,4.47-15.82,3.6-19.39,11.47
		c-3.15,6.93,1.24,17.28,8.07,20.52c3.01,1.43,6.61,0.39,8.06-2.69c0.82-1.74,0.85-3.61,0.32-5.44c-0.22-0.77-2.62-4.35-2.48-4.66
		c-0.27,0.58,5.54-0.17,5.87-0.21c1.92-0.25,3.74-0.63,5.49-1.49c3.82-1.9,5.92-5.19,6.14-9.43
		C90.77,340.87,88.2,339.28,85.63,339.38z"/>
	<path class="st4" d="M220.63,15.49c-7-1.91-15.5-3.2-23.11-1.94c-14.84,2.44-18.27,15.32-18.39,16.17
		c-1.25,8.51,0.79,15.89,6.15,22.62c4.47,5.61,10.89,9.89,14.5,16.15c4.53,7.84-1.12,18.54,4.54,25.52
		c5.99,7.4,15.99,1.32,21.27-3.68c5.77-5.47,9.55-12.67,15.63-17.85c7.03-5.99,12.71-11.11,13.16-20.98
		C255.2,32.98,236.57,19.84,220.63,15.49z"/>
	<path class="st2" d="M311.57,331.23c-0.58-0.11-1.2-0.16-1.84-0.17c-0.49-0.5-1.01-0.97-1.59-1.41c-1.9-1.44-4.18,0.32-4.62,2.24
		c-1.57-1.74-4.53-1.36-5.27,1.02c-0.18-0.29-0.34-0.58-0.52-0.87c-1.23-1.9-4.81-2.07-5.59,0.28c-0.01-0.01-0.02-0.02-0.03-0.04
		c-1.38-1.57-4.07-0.92-5,0.76c-1.6-0.77-3.8-0.36-4.37,1.85c-1.46,5.67,4.73,12.52,8.01,16.7c3.33,4.25,9.71,3.25,14.34,1.6
		c3.11-1.11,5.38-3.11,6.83-5.54c0.23-0.03,0.46-0.08,0.7-0.17C320.87,344.41,320.75,332.94,311.57,331.23z"/>
	<path class="st5" d="M305.54,307.85c-3.06-6.51-6.11-13.03-9.17-19.54c-7.95-16.94-5.12-16.47-13.07-33.41
		c1.52-14.55,1.43-29.25-1.25-44.19c-3.11-17.36-9.15-34.27-17.04-50.02c-7.13-14.23-17.13-27.98-31.56-35.46
		c-12.05-6.24-32.73-6.59-53.45,5.49c-41.61,24.23-49.34,75.72-54.67,102.17c-23.31,61.84-47.79,94.99-51.4,105.53
		c-0.89,2.6,0.14,5.7,2.01,7.59c16.89,17.14,35.99-7.11,46.68-18.79c5.93-6.48,11.75-13.12,17.24-20c-1.56,8.32-3.19,16.64-4.48,25
		c-1.44,9.36-2.7,20.14,6.79,25.46c13.4,7.52,29.99,8.83,45.47,9.18c1.86,0.28,3.72,0.56,5.59,0.84c8.02,1.22,16.05,2.64,23.73,5.3
		c7.54,2.61,14.61,6.19,22.72,6.65c16.35,0.94,24.63-13.27,26.69-27.52c1.39-9.58,2.09-19.28,2.29-28.99
		c5.63,10.75,6.26,10.65,8.39,13.56c3.11,4.25,8.17,5.08,12.25,1.58c6.91-5.94,23.76,1.06,23.42-13.04
		C312.57,319.43,307.95,313,305.54,307.85z"/>
	<path class="st6" d="M253.8,20.27c-2.54-7.79-8.56-12.32-16.41-14.02c-8.26-1.79-36.14-12.98-48.07-0.24
		c-2.73,2.91-12.85,16.55-12.85,21.14c-12.97-3.15-20.33-5.2-33.3-8.35c-1.98-0.48-3.84,0.62-4.48,2.54
		c-0.05,0.16-0.1,0.31-0.15,0.47c-0.48,1.45,0.3,3.4,1.67,4.11c0.15,0.08,21.82,5.06,35.22,8.31c0.15,0.17,28.69,7.59,37.12,10.05
		c7.8,2.27,29.65,9.98,37.69,10.96C252.83,55.56,258.09,33.41,253.8,20.27z"/>
	<path class="st0" d="M279.37,275.85c-0.78-19.34-1.98-38.66-2.97-57.99c-0.49-9.67-0.99-19.33-1.48-28.99
		c-0.44-8.52,0.83-22.82-4.02-31.49c-7.9-14.11-24.92-18.85-40.21-18.43c-16.62,0.45-33.94,2.87-48.79,10.69
		c-1.24-5.01-2.78-9.92-4.74-14.68c-0.27-0.66-0.83-1.97-0.83-1.97l-8.58,6.4c0,0,0.49,1.21,0.72,1.83
		c3.43,9.02,5.35,18.59,6.57,28.22c1.84,14.56,3.1,29.46,2.47,44.14c-0.62,14.62-3.79,28.92-11.54,41.48
		c-5.13,8.32-11.59,15.77-18.24,23c-0.43,0.47-1.31,1.41-1.31,1.41l-1.68,17.08c0,0,0.67-0.73,1.01-1.1
		c7.63-8.29,15.65-16.51,22.53-25.51c-0.48,7.45-1.13,17.37,2.61,23.73c3.93,6.68,13.7,7.65,20.58,8.86
		c9.01,1.59,18.14,2.39,27.28,2.72c7.53,0.27,49.96,0.66,56.93-11.36c1.46-2.52,2.45-5.37,2.97-8.34
		C279.4,282.48,279.5,279.17,279.37,275.85z"/>
</g>
</svg>
