<?xml version="1.0" encoding="utf-8"?>
<!-- Generator: Adobe Illustrator 24.0.1, SVG Export Plug-In . SVG Version: 6.00 Build 0)  -->
<svg version="1.1" id="_1" xmlns="http://www.w3.org/2000/svg" xmlns:xlink="http://www.w3.org/1999/xlink" x="0px" y="0px"
	 viewBox="0 0 237.48 706.83" style="enable-background:new 0 0 237.48 706.83;" xml:space="preserve">
<style type="text/css">
	.st0{fill:#F5BC8E;}
	.st1{fill:#442D1D;}
	.st2{fill:#422D1E;}
	.st3{fill:#B85D3F;}
	.st4{fill:#F97C64;}
</style>
<g>
	<path class="st0" d="M53.56,630.37c0.03,1.04,0.04,2.08,0.03,3.12c3.04,0.61,5.83,2.82,6.35,6.68c1.28,9.63-5.06,40.08-8.18,43.28
		c-3.4,3.48-7.78,3.83-11.58,0.81c-6.39-5.07,2.38-49.46,2.08-58.43C41.93,616.17,53.23,620.72,53.56,630.37z"/>
	<path class="st1" d="M39.4,673.81c6.9-1.29,12.44,0.17,17.45,4.97c13.12,12.56,27.49,14.88,22.37,25.44
		c-2.92,6.02-13.71-0.08-18.22-1.34c-4.35-1.22-8.73-2.31-13.14-3.28c-3.09-0.68-6.51-1.02-9.23-2.73
		c-5.57-3.52-4.54-11.18-2.77-16.6C36.44,678.46,36.5,674.35,39.4,673.81z"/>
	<path class="st0" d="M193.12,633.01c0.27,1.01,0.51,2.02,0.74,3.03c3.1-0.09,6.32,1.42,7.7,5.06c3.44,9.09,4.17,40.18,1.86,44
		c-2.52,4.16-6.71,5.49-11.09,3.42c-7.38-3.49-8.92-48.71-11.25-57.38C178.57,621.82,190.61,623.68,193.12,633.01z"/>
	<path class="st0" d="M189.59,172.01c5.5,6.27,31.73,50.47,35.33,67.62c2.33,11.08,5.27,24.44,2.87,35.67
		c-0.1,0.45-0.22,0.88-0.34,1.32c-7.87,26.91-22.48,35.95-23.19,36.67c-6.8,6.87-17.4-3.73-10.61-10.61
		c0.39-0.39,0.78-0.77,1.17-1.15c-3.82-1.7-6.5-6.33-3.79-10.64c2.47-3.92,3.99-8.2,4.29-12.66c-1.23-9.57-7.06,7.64-9-1.82
		c-0.72-3.52,10.07-17.07,12.75-18.75c-4.12-11.92-13.65-39.95-18.45-51.51c-1.6-3.86,0.67-7.07,3.88-8.49
		c-1.21-2.84-2.35-5.71-3.37-8.65c-0.53-1.51-0.55-2.89-0.22-4.09c-0.63-0.77-1.27-1.54-1.94-2.3
		C172.64,175.39,183.21,164.74,189.59,172.01z"/>
	<path class="st2" d="M18.73,526.13c4.72-40.69,25.33-166.39,32.03-188.11c1.82-5.91,7.51-9.89,13.72-8.95
		c5.73,0.86,11.32,5.98,10.84,12.28c-0.34,4.39-0.65,8.79-0.97,13.19c2.17-7.38,4.54-14.71,7.15-21.96
		c4.65-12.94,24.25-11.35,24.55,3.32c0.16,7.65,0.23,15.3,0.24,22.94c0.35,0.39,0.67,0.79,0.96,1.23c0.46-3.8,0.93-7.59,1.39-11.39
		c0.82-6.7,5.16-12.5,12.5-12.5c4.19,0,8.88,2.69,11.16,6.55c1.96,0.1,3.9,0.64,5.64,1.56c2.12-2.64,5.31-4.51,8.43-4.88
		c1.47-0.18,2.95-0.09,4.36,0.21c5.38-1.57,11.99-0.01,15.18,5.18c0.01,0.01,0.02,0.03,0.03,0.04c-1.34-6.46,2.24-13.22,8.8-15.02
		c6.34-1.74,13.82,2.13,15.38,8.73c9.36,39.71,17.26,79.77,23.58,120.08c3.23,20.62,6.08,41.3,8.54,62.02
		c2.35,19.7,16,108.25,15.24,119.5c-0.47,6.92-5.35,12.26-12.5,12.5l-32.8,1.01c-5.95,0.2-11.9,0.4-17.85,0.6
		c-6.08,0.2-12.7,1.16-18.56-0.83c-13.39-4.54-13.09-18.72-13.38-30.32c-0.31-12.73-1.11-25.44-2.23-38.12
		c-4.21-47.8-12.97-95.05-17.95-142.77c-5.78,47.3-11.57,94.6-17.35,141.89c-2.74,22.42-5.48,44.84-8.22,67.27
		c-1.07,8.73-7.09,13.38-15.82,12.05c-20.16-3.05-40.74-3.23-61.01-1.24c-6.69,0.66-12.56-6.26-12.5-12.5
		C7.69,608.35,13.97,567.13,18.73,526.13z"/>
	<path class="st3" d="M98.31,394.89C90.48,484.15,81,573.26,69.93,662.18c3.63,0.37,7.26,0.82,10.87,1.36
		c0.33,0.05,0.64,0.07,0.97,0.11c2.48-19.86,4.88-39.72,7.19-59.59c10.31-88.56,19-177.3,26.11-266.17
		c-3.68,2.18-5.88,6.33-6.44,10.9c-0.46,3.8-0.93,7.59-1.39,11.39c-0.29-0.44-0.61-0.84-0.96-1.23c0-7.65-0.07-15.3-0.24-22.94
		c-0.06-2.94-0.91-5.34-2.24-7.22C102.08,350.83,100.25,372.86,98.31,394.89z M29.93,661.5c4.01-0.25,8.03-0.41,12.05-0.47
		c2.47-20.08,4.91-40.16,7.29-60.25C59.32,515.94,68.55,431,77.01,345.99c-0.92,2.88-1.81,5.76-2.66,8.66
		c0.32-4.4,0.64-8.79,0.97-13.18c0.42-5.51-3.81-10.12-8.71-11.76c-1.88,19.13-3.78,38.26-5.74,57.38
		C51.49,478.66,41.16,570.13,29.93,661.5z M132.3,342.84c-0.16-0.27-0.33-0.53-0.52-0.79c2.27,18.49,4.55,36.98,6.82,55.47
		c5.91,48.09,11.83,96.17,17.74,144.26c4.61,37.45,10.44,75.09,13.31,112.82c1.57-0.09,3.13-0.19,4.65-0.24
		c2.39-0.08,4.78-0.16,7.17-0.24c-1.38-16.41-3.35-32.78-5.36-49.13c-10.85-88.25-21.71-176.49-32.56-264.74
		c-2.14,0.84-4.15,2.3-5.62,4.14C136.2,343.48,134.26,342.95,132.3,342.84z M175.76,401.87c13.77,83.42,24.87,167.26,33.36,251.38
		l12.31-0.38c0-2.03-5.58-49.36-7.9-69.05c-10.05-85.05-22.8-169.78-38.19-254.02c-0.2,0.04-0.41,0.08-0.61,0.13
		c-6.42,1.76-9.97,8.28-8.86,14.61C169.29,363.63,172.6,382.74,175.76,401.87z"/>
	<path class="st0" d="M119.45,70.97c-6.42-0.4-16.8-20.04-16.49-12.98c0.59,13.11-8.2,54.94-10.25,67.75
		c-1.01,6.31,11.14,8.22,16.96,9.26c6.29,1.12,8.97,11.28,8.91,9.77c2.27-11.83,13.57-47.76,13.02-60.01
		C131.3,77.76,126.99,71.43,119.45,70.97z"/>
	<path class="st0" d="M137.49,26.68c-8.61-4.68-19.77-3.81-26.91,2.81c-1.41,0.9-2.66,2.22-3.63,4.01
		c-8.55,15.81-1.69,38.26,6.94,52.62c4.07,6.77,9.83,14.61,17.34,17.79c3.42,1.45,6.76,1.66,9.79,0.93
		c3.62-0.46,6.53-2.68,8.84-5.69c1.2-1.44,2.2-3.09,2.98-4.88c2.04-4.16,3.33-8.78,4.04-12.34c1.9-9.64,0.92-19.61-1.56-29.04
		C152.57,42.49,147.29,32,137.49,26.68z"/>
	<path class="st4" d="M30.96,168.55c3.13-7.69,9.55-13.87,15.81-19.12c3.07-2.58,21.68-23.61,48.18-28.11c17.68-3,29-2.6,50.33,5.83
		c9.82,3.88,39.05,27.64,44.92,40.15c3.39,7.22,3.62,13.83,1.24,21.43c-1.62,5.18-3.72,10.22-6.18,15.07
		c2.81,14.55,4.92,27.19,5.52,31.7c3.2,23.78,5.99,47.6,8.3,71.48c1.13,11.73,2.15,23.47,3.06,35.22
		c0.85,10.94,0.33,22.95-10.32,29.18c-9.55,5.6-21.02,2.2-31.33,1.52c-11.22-0.74-22.49-0.49-33.66,0.73
		c-11.93,1.31-23.7,4.13-35.12,7.77c-12.22,3.9-24.6,8.11-37.62,7.07c-7.06-0.56-14.52-7.32-11.57-15.19
		c1.06-2.82,5.19-111.24,6.31-152.36c0.03-1.27,0.08-2.54,0.12-3.81c-4.83-7.61-9.78-15.18-14.29-22.97
		C30.07,186.22,27.36,177.41,30.96,168.55z"/>
	<path class="st2" d="M80.85,34.27c6.47-6.6,10.18-6.74,18.6-10.17c9.38-3.83,18.6-6.36,28.76-4.56c1.14,0.2,2.06,0.64,2.82,1.21
		c0.56,0.14,1.12,0.34,1.7,0.61c6.59,3.21,12.84,8.46,12.55,16.51c-0.32,8.91-20.44,13.9-23.57,21.04
		c-3.1,7.07,0.68,15.22-1.76,22.61c-2.49,7.55-14.88,19.38-25,4.38c-1.18-1.75-17.13-8.74-20.62-23.62
		C71.86,51.75,76.61,38.6,80.85,34.27z"/>
	<path class="st4" d="M72.33,41.15c-1.85-5.93-1.7-27.5,17.9-37.17c22.48-11.08,42.71,4.28,44.67,6.24
		c8.58-5.24,66.65-5.28,64.4,1.31c-0.62,4.94-4.1,7.6-8.93,8.63c-5.3,1.14-36.56,12.63-41.78,14.17
		c-10.95,3.24-21.39,7.85-31.64,12.84c-3.03,1.47-6.11,2.91-9.16,4.41c-1.89,1.03-3.76,2.1-5.57,3.25
		c-3.92,2.48-7.28,5.46-9.92,9.28c-2.91,4.23-30.85,29.75-34.98,32.95c-7.91,6.11-13.71,11.31-15.94,4.18
		C38.38,91.67,69.31,42.77,72.33,41.15z"/>
	<path class="st0" d="M39.7,169.57c4.97-6.67-6,9.08,9.37,25.81c3.93,4.28,12.13-5.48,1.04,32.16
		c-0.92,4.75-13.22,32.24-16.85,41.05c11.3,4.31,16.47,9.23,24.95,12.96c13.08,5.76,25.8,12.3,38.17,19.46
		c15.82,2.88,41.65,22.02,34.44,31.7c-5.98,8.04-18.91,4.81-26.59,1.72c-7.46-3.01-20.65-7.5-22.32-16.63
		c-2.03-0.54-75.97-18.94-81.63-34.49C-3.71,272.32,35.44,175.29,39.7,169.57z"/>
	<path class="st3" d="M29.95,177.46c-0.01-0.13-0.02-0.25-0.03-0.39c0.02,0,0.03,0,0.05,0.01c0.05-0.66,0.12-1.33,0.22-2
		c0.3-1.97,1.2-3.36,2.42-4.23c0.07-0.21,0.14-0.42,0.22-0.63c1.31-3.48,3.91-6.16,5.26-9.5c1.51-3.74,5-6.42,9.23-5.24
		c3.55,1,6.77,5.44,5.24,9.23c-2.39,5.91-6.61,10.06-6.62,16.77c0,0.09-0.01,0.19-0.01,0.28c2.47-0.33,5.16,0.64,7.15,3.54
		c7.45,10.83,14.25,22.05,20.4,33.67c2.98,5.63-1.65,10.85-6.44,11.29c1.47,7.84-9.57,13.78-13.71,5.76
		c-5.13-9.95-10.03-20-14.65-30.19C34.52,196.69,29.34,187.6,29.95,177.46z"/>
	<path class="st0" d="M78.05,126.66c5.19-2.37,10.88-4.3,17.01-5.34c16.17-2.75,27.02-2.64,45.08,3.85c-1,2.02-2.44,3.91-3.97,5.46
		c-9.53,9.67-25.54,10.85-38.24,8.83C89.16,138.06,82.94,133.08,78.05,126.66z"/>
	<path class="st1" d="M189.2,678.53c6.43-2.82,12.15-2.66,18.12,0.88c15.62,9.25,30.16,8.25,27.56,19.7
		c-1.48,6.53-13.37,3.04-18.05,2.83c-4.51-0.2-9.03-0.27-13.55-0.21c-3.16,0.04-6.57,0.49-9.61-0.57
		c-6.23-2.16-6.96-9.86-6.47-15.54C187.38,683.73,186.5,679.71,189.2,678.53z"/>
</g>
</svg>
