<?xml version="1.0" encoding="utf-8"?>
<!-- Generator: Adobe Illustrator 24.0.1, SVG Export Plug-In . SVG Version: 6.00 Build 0)  -->
<svg version="1.1" id="_1" xmlns="http://www.w3.org/2000/svg" xmlns:xlink="http://www.w3.org/1999/xlink" x="0px" y="0px"
	 viewBox="0 0 255.94 693.1" style="enable-background:new 0 0 255.94 693.1;" xml:space="preserve">
<style type="text/css">
	.st0{fill:#442D1D;}
	.st1{fill:#F5BC8E;}
	.st2{fill:#F7A354;}
	.st3{fill:#EFBC90;}
	.st4{fill:#422D1E;}
	.st5{fill:#586688;}
	.st6{fill:#F97C64;}
</style>
<g>
	<path class="st0" d="M205.89,159.04c-1.86-3.03-0.56-5.38-2.38-8.25c-1.69-2.68-3.4-4.62-5-6.04c0.69-1.1,1.44-2.46,2.05-3.85
		c2.14-4.09,3.89-8.77,1.51-10.5c-1.88-1.37-3.66-0.77-5.24,0.68c-1.41,0.75-2.71,1.97-3.62,2.86c-1.26,1.24-3.64,4.48-5.49,4.9
		c1.2-1.63,2.19-3.31,2.59-4.91c1.31-1.76,2.47-3.58,3.31-5.49c0.41-0.93-0.04-2.37-1.3-2.26c-5.42,0.49-9.8,5.7-13.05,10.85
		c-1.76,1.88-3.39,3.91-4.98,5.79c-3.48,2.78-5.13,6.54-5.58,7.99c-0.42,1.38-1.61,8.81-1.6,11.72c0.01,5.1-0.75,9.85-2.84,14.55
		c-4.4,9.91-12.42,17.61-20,25.11c-4.88,4.82,1.34,14.04,7.18,10.67c0.3,0.49,0.63,0.96,1.01,1.39c-0.49,0.93-0.98,1.85-1.46,2.78
		c-2.96,5.61,3.25,11.86,8.35,9.28c-0.74,2.19-0.18,3.99,1.06,5.25c-0.86,2.25-0.28,5.39,1.51,6.91
		c13.91,11.86,29.75-4.18,36.54-16.19c4.1-7.26,5.39-15.11,4.23-23.33c-1.04-7.4-3.88-14.43-5.25-21.74
		c-0.06-0.83-0.15-1.67-0.27-2.52c4.54,0.08,8.87-1.09,11.84-5.11C212.39,165.03,208.13,163.83,205.89,159.04z"/>
	<path class="st1" d="M202.22,186.93c-1.39-2.41-4.62-3.84-7.34-2.99c-7.56,2.37-9.03,10.31-5.98,16.88c0.21,0.44,3.03,4.52,3.31,5
		c-8.33,25-32.47,37.77-42.53,48.14c-3.77,3.88-1.19,11.35,4.6,11.1c0.86-0.04,1.71-0.12,2.55-0.23c-0.95,3.29,0.11,7.06,4.22,7.84
		c7.74,1.46,12.82-3.91,17.83-9.1c4.8-4.98,9.12-10.53,12.81-16.38c3.81-6.04,6.96-12.48,9.4-19.18c3.01-6.82,5.34-13.97,6.88-21.39
		C208.56,203.77,204.56,190.99,202.22,186.93z"/>
	<path class="st1" d="M158.33,49.33c-9.29-18.44-37.95-24.03-51.12-1.23c-9.16,15.84-1,40.1,3.76,50.14
		c4.16,8.78,11.19,16.45,20.43,19.54c9.29,3.11,23.25-1.76,30.6-8.62C174.67,97.33,166.61,65.75,158.33,49.33z"/>
	<path class="st1" d="M144.29,96.53c-0.49-2.52-2.79-4.12-5.25-4.43c-0.17-0.79-0.37-1.57-0.65-2.34c-0.95-2.66-4.1-3.7-6.82-3.17
		c-0.79-0.18-1.62-0.24-2.41-0.16c0.01-0.04,0.02-0.07,0.03-0.11c2.2-7.35-8.82-11.48-11.28-4.1c-0.07,0.22-0.14,0.44-0.22,0.67
		c-3.31-1.09-7.72,0.43-8.31,4.94c-2.1,16.23-4.19,32.45-6.29,48.68c-0.38,2.94,1.57,5.07,3.99,5.96c0.8,2.53,3.41,4.14,5.95,4.29
		c1.75,1.88,4.66,2.69,6.95,1.9c2.06,0.76,4.42,0.6,5.94-0.83c4.08-1.15,7.39-2.86,9.81-6.5c1.05-0.62,6.11-34.54,7.15-41.27
		C143.27,97.62,145.81,97.54,144.29,96.53z"/>
	<path class="st2" d="M160.1,47.71c-15.32-24.04-32.18-23.85-46.01-20.18c-4.88-7.34-14.12-12.86-20.32-17.81
		c-5.24-4.18-10.46-9.34-17.54-9.7c-5.91-0.3-11.78,2.49-15.74,6.8c-8.32,9.07-6.98,23.25-0.57,32.96
		c5.05,7.65,12.59,12.53,20.67,16.36c-2.03,4.21-3.31,8.73-3.32,13.6C77.25,79.8,82.35,88.92,88.25,96.7
		c5.33,7.04,11.49,16.13,21.61,12.63c9.92-3.43,10.4-14.02,13.52-22.39c3.27-8.79,9.81-16.32,19.04-18.82
		c5.3-1.44,10.64-2.44,14.52-6.68C160.31,57.74,162.85,52.03,160.1,47.71z"/>
	<path class="st3" d="M166.19,405.43c-5.14-21.35-10.15-76.92-19.19-89.27c-9.4-12.84-76.1,10.85-76,16
		c0.38,19.66-2.94,44.57-7.8,63.5c-2.24,8.73-8.52,108.33-8.52,108.33s-17.31,11.33-43.51,152.52c-0.92,4.98,19.62,4.99,19.62,4.99
		l57.24-149.51c0,0,25.59-94.28,25.8-95.12c1.02,2.7,38.87,96.46,38.87,96.46s-4.8,30,44.32,157.46c1.81,4.7,19.48-5.18,19.48-5.18
		s-15.41-84.01-29.62-158.03C178.35,463.16,170.26,422.34,166.19,405.43z"/>
	<path class="st4" d="M195.68,673.08c-0.16,3.81-1.6,15.88,2.43,17.68c5.81,2.6,58.13,4.93,57.82-4.05
		c-0.25-7.35-24.37-17.91-34.92-22.48c-2.64-1.14-26.06,3.94-26.06,3.94L195.68,673.08L195.68,673.08z"/>
	<path class="st4" d="M6.63,657.01c-1.9,3.31-8.73,13.36-5.99,16.82c1.74,2.19,11.48,8.47,22.18,14.14
		c13.64,7.22,30.26,4.23,32.43-0.31c3.17-6.64-14.8-17.91-22.06-26.83c-1.81-2.23-24.95-8.51-24.95-8.51L6.63,657.01L6.63,657.01z"
		/>
	<path class="st5" d="M165,240.57c-1.89-5.75-3.74-11.51-5.54-17.27c-1.56-13.83-3.66-27.58-6.89-41.12
		c-4.33-18.13-12.02-43.64-31.18-48.43c-1.36-0.97-14.82-3.09-20.7,2.91c-9.64,9.83-11.57,25.88-15.34,38.9
		c-4.06,14.04-7.56,28.24-10.74,42.5c-3.03,13.61-6.24,27.34-8.27,41.15c-1.77,12.07-1.93,25.27,5.82,35.46
		c2.23,2.94,5.06,4.88,8.97,4.3c3.3-0.5,6.8-2.94,7.48-6.45c0.01-0.04,0.02-0.08,0.03-0.13c0.31,0.07,0.63,0.13,0.96,0.17
		c1.4,0.17,2.94-0.03,4.37-0.54c2.21,2.89,6.57,4.01,10.27,3.05c0.47,3.69,1.18,7.38,2.22,11.07c2.03,7.16,13.76,8.96,16.75,2.17
		c1.71-0.64,3.2-1.81,4.17-3.54c2.6,0.99,5.69,0.73,8.17-0.68c4.05,4.02,11.65,2.83,14.5-2.6c1.5-0.17,3.01-0.67,4.26-1.49
		c2.5-0.46,1.96-8.97,3.04-11.32c4.07-8.88,10.81-10.61,11.87-20.41C170.26,258.83,167.92,249.47,165,240.57z"/>
	<path class="st6" d="M175.09,412.91c-3.84-33.13-8.59-61.5-13.59-103.25c-0.22-1.81,0-23.89-1.14-25
		c2.35-0.1-77.78-5.63-83.95,5.41c-0.3,0.54-16.7,62.31-20.84,89.97c-1.09,7.31-2.02,14.65-2.74,22.01
		c-0.59,6.08-0.03,25.36-0.03,25.36c0.48,0.03,44.78,1,44.78,1s2.04,6.38,3,5.75C108.32,433.97,175.42,415.74,175.09,412.91z"/>
	<path class="st1" d="M129.74,155.66c-0.59-9.71-9.16-12.55-17.3-11.66c-15.62,2.91-23.2,14.09-28.43,22.85
		c-6,10.06-37.66,60.44-41.31,69.81c-11.05,24.88-30.21,92.17-29.18,93.77c-5.21,7.48-9.1,15.6-7.45,24.4
		c-0.12,0.94-1.01,11.35-1.58,13.31c-1.05,3.64,1.3,6.72,4.54,8c6.49,2.57,13.06-1.2,16.69-6.61c2.64-3.95,5.47-16.76,6.04-19.18
		c0.93-3.91-0.87-11.4-0.89-11.5c-0.1-0.55-0.27-1.04-0.5-1.49c1.19-0.21,42.33-87.19,42.33-87.19s35.47-50.7,44.65-66.2
		C122.27,175.66,130.36,165.87,129.74,155.66z"/>
	<path class="st0" d="M203.79,196.01c-4.32,0.79-8.06,3.96-12.03,5.75c-4.47,2.01-9.21,3.31-14.01,4.25
		c-8.2,1.61-4.73,14.14,3.46,12.54c5.1-1,9.97-2.5,14.74-4.53c2.11-0.9,4.2-1.86,6.22-2.95c0.43-0.24,0.86-0.48,1.29-0.72
		c0.05,0.45,0.08,0.86,0.03,1.1c-1.45,8.18,11.08,11.69,12.54,3.46C217.44,206.95,214.69,194.01,203.79,196.01z"/>
</g>
</svg>
