<?xml version="1.0" encoding="utf-8"?>
<!-- Generator: Adobe Illustrator 24.0.1, SVG Export Plug-In . SVG Version: 6.00 Build 0)  -->
<svg version="1.1" id="_1" xmlns="http://www.w3.org/2000/svg" xmlns:xlink="http://www.w3.org/1999/xlink" x="0px" y="0px"
	 viewBox="0 0 199.91 623.94" style="enable-background:new 0 0 199.91 623.94;" xml:space="preserve">
<style type="text/css">
	.st0{fill:#F9B364;}
	.st1{fill:#442D1D;}
	.st2{fill:#F5BC8E;}
	.st3{fill:#422D1E;}
	.st4{fill:#566688;}
	.st5{fill:#B85D3F;}
</style>
<g>
	<path class="st0" d="M67.03,218.81c-0.35-7.76-5.85-15.27-13.55-16.75c-1.93-1.78-4.24-3.11-6.76-3.69
		c-9.42-2.15-17.85,2.85-20.91,11.87c-9.46,27.91-17.51,56.42-23.36,85.32c-3.21,15.86-4.43,32.29,3.79,46.94
		c6.84,12.2,18.79,20.32,30.39,27.53c10.91,6.78,24.08-1.53,25.47-13.27c2.77-2.98,4.47-7.02,4.89-11.65
		C70.76,303.09,68.94,260.89,67.03,218.81z"/>
	<path class="st1" d="M149.13,1.68c-21.39-4.43-45.96,0.1-64.83,10.97C63.33,24.73,48.76,46.83,48.68,71.33
		c-0.04,11.2,9.16,19.29,19.89,19.89c4.88,0.27,9.3-1.12,13.02-3.67c4.8,1.99,10.32,2.5,15.45,1.45c6.89-1.41,12.22-7.62,14.01-14.5
		c2.66-1.56,5.34-3.09,8.03-4.59c0.16,1.04,0.31,2.08,0.51,3.1c2.22,11.47,10.14,22.52,21.74,25.79
		c27.46,7.74,43.74-25.88,46.06-47.92C189.9,27.02,171.92,6.4,149.13,1.68z"/>
	<path class="st2" d="M105.04,488.4c-1.38-4.32-23.22,8.89-23.38,11.1c-0.41,5.93,17.42,86.29,19.03,91.95
		c1.28,4.5,2.97,11.48,9.04,11.01c5.85-0.46,5.18-6.35,5.65-11.07C116,585.32,109.25,501.58,105.04,488.4z"/>
	<path class="st2" d="M144.37,509.5c-0.65,5.5-0.89,61.83-1.11,67.37c-0.26,2.59-0.41,5.2-0.47,7.8c-0.03,1.38,0.37,2.49,1.02,3.33
		c0.44,1.08,11.74,3.02,11.9,1.75c6.66-53,12.02-81.97,12.91-88C169.25,497.48,144.69,506.79,144.37,509.5z"/>
	<path class="st3" d="M120.13,598.29c0.09-3.47,0.27-11.22-2.6-13.54c-1.28-1.03-17.31,1.85-18.15,4.11
		c-2.37,6.32-8.41,20.6-6.2,27.36c2.68,8.21,9.95,10.08,14.81,4.56C113.16,614.93,119.92,606.25,120.13,598.29z"/>
	<path class="st3" d="M161.09,583.32c-0.79-2.44-3.09-4.58-5.79-4.41c-5.19,0.33-11.44-4.21-13.06-0.7
		c-1.57,3.39-2.64,10.45-2.25,13.34c-0.12,2.31,10.72,24.85,14.75,25.55c7.28,1.27,11.3-2.46,11.47-6.09
		C166.66,601.43,164.02,592.35,161.09,583.32z"/>
	<path class="st2" d="M147.85,226.87c-0.52-0.1-1.05-0.15-1.58-0.14c-3.32-3.98-10.31-4-12.78,2.56c-0.26,0.69-0.5,1.39-0.76,2.08
		c-3.59-2.28-9.53-1.21-11.61,3.33c-2.71-1.09-6.02-0.92-8.1,0.99c-1.88-1.37-4.5-1.68-6.84-1.03c-2.24-2.26-6.12-2.73-9.12-1.27
		c-3.99-2.8-10.74-2.02-11.8,3.8c-0.17,0.93-0.34,1.86-0.51,2.79c-2.85-1.42-6.71-0.77-9.14,1.77c-4.42-1.39-10.04,0.87-9.83,6.83
		c0.51,14.37,1.07,28.74,1.67,43.11c0.08,2,0.7,3.57,1.63,4.73c0.35,3.98,3.64,6.4,7.46,6.79c11.49,1.18,23.01,1.01,34.53,0.26
		c5.76-0.38,11.52-0.83,17.27-1.39c4.67-0.45,14.91,1,16.27-3.6c3.5-11.89,6-55.03,6.75-67
		C151.67,226.75,151.93,226.75,147.85,226.87z"/>
	<path class="st4" d="M159.72,118.1c-1.31-7.62-7.03-12.72-5.46-20.86c1.51-7.83,5.06-15.1,4.96-23.24
		c-0.03-2.71-0.47-5.23-1.26-7.6c1.03-7.5,1.11-15.16-2.34-22.12c-4.07-8.2-12.48-12.77-20.57-16.16
		c-6.29-2.64-16.34-4.5-27.75-1.95c-11.7,2.61-23.66,12.56-27.95,22.6c-2.81,6.59-2.91,13.72-3.16,20.76
		c-0.08,2.17-0.23,4.12-0.55,5.93c-3.67,5.15-10.94,7.87-16.21,12.55c-8.48,7.54-13.46,19.17-9.19,30.25
		c3.74,9.72,12.39,15.7,22.09,18.18c1.77,0.83,3.67,1.37,5.68,1.52c1.46,0.11,2.86,0.02,4.22-0.21c3.14,0.04,6.4-0.28,9.44-1.07
		c4.74,2.67,11.58-1.06,16.81-2.68c3.44-1.07,6.45-1.5,9.93-0.27c3.8,1.34,7.3,3.4,11.18,4.58c7.2,2.19,15.36,2.2,21.8-2.1
		C157.42,132.21,160.98,125.4,159.72,118.1z M136.73,83.3c-0.89,3.44-1.87,6.86-2.89,10.27c-0.95,0.1-1.9,0.35-2.83,0.77
		c-2.98,1.37-4.61,4.02-5.5,7.14c-0.91,0.86-1.58,1.95-1.77,3.25c-0.74,4.94-1.2,9.84-1.25,14.82c-2.72-0.97-5.52-1.67-8.63-1.63
		c-2.75,0.03-5.31,0.57-7.8,1.32c0.15-1.92-0.07-3.85-0.55-5.85c-0.21-0.86-0.54-1.61-0.96-2.26c0.97-2.95,1.78-5.93,2.42-8.88
		c1.83-8.43,3.07-17.04-2.89-24.07c-0.45-0.54-1.03-0.95-1.66-1.29c0.31-1.79,0.62-3.58,0.93-5.36c1.26-7.29-6.35-11.29-11.22-8.34
		c-0.17-0.43-0.37-0.83-0.59-1.22c0.42-4.39,1.48-8.46,4.62-11.99c1.89-2.12,5.46-5.45,9.1-7.48c1.65,0.91,3.65,1.28,5.67,0.85
		c6.18-1.31,11.5,4.22,15.28,8.31c4.49,4.87,9.14,9.36,13.84,14.01C139.95,71.62,138.2,77.65,136.73,83.3z"/>
	<path class="st2" d="M131.56,39.02c-7.38-6.44-21.35-7.32-29.76-2.41c-1.57,0.57-3.08,1.58-4.42,3.12
		c-11.79,13.57-9.97,36.97-4.66,52.87c2.5,7.49,6.28,24.9,25.11,24.29c13.53-0.46,19.18-16.41,20.64-19.73
		c3.95-8.99,5.17-18.94,4.79-28.68C142.84,57.73,139.96,46.35,131.56,39.02z"/>
	<path class="st2" d="M126.57,97.01c-0.77-5.87-8.4-7.18-12.44-3.78c-1.53-2.16-4.34-3.54-6.87-3.35c-4.37,0.32-6.84,3.96-6.93,8.03
		c-0.13,5.31-0.19,10.62-0.22,15.93c-1.09,10.61,0.08,21.72,0.35,32.14c0.17,5.9,5.81,7.77,10.11,6.14c0.68,0.14,1.38,0.2,2.06,0.18
		c0.22,0.97,0.44,1.93,0.66,2.9c0.82,3.62,5.34,5.44,8.6,4.76c3.83-0.81,5.9-4.03,5.95-7.82c0.2-16.86,0.41-33.72,0.61-50.58
		C128.47,99.65,127.72,98.13,126.57,97.01z"/>
	<path class="st4" d="M151.78,64.3c-1.02-7.99-5.16-15.03-7.3-22.71c-0.85-3.04-4.46-3.71-6.69-1.77c-0.29,0.26-0.55,0.54-0.78,0.83
		c-0.61-3.07-2.95-5.62-7.04-5.34c-1.03,0.07-2.03,0.21-3.03,0.38c-0.96-2.78-4.01-5.58-7.12-5.17c-4.51,0.59-8.81,1.81-12.79,3.61
		c-0.76-0.05-1.53,0.06-2.3,0.31c-1.23-0.01-2.45,0.08-3.62,0.27c-5.69,0.94-9.73,5.61-10.04,11.32c-0.01,0.24-0.01,0.48,0.01,0.71
		c-5.13,5.64-10.35,12.96-11.73,20.56c-1.3,7.18,6.81,12.72,12.54,7.3c2.98-2.83,5.49-5.75,9.56-3.84
		c4.89,2.29,10.2,1.55,14.05-2.34c5.04-5.08,4.16-14.27,10.67-17.19c3.81-0.47,6.5,4.73,7.14,7.9c0.8,3.96,0.14,8.1,1.12,12.05
		c1.31,5.27,5.93,10.44,11.89,8.31C152.24,77.35,152.45,69.5,151.78,64.3z"/>
	<path class="st5" d="M159.97,306.5c-1.57-7.51-10.35-23.42-11.48-28.44c-0.21-0.93-17.37,6.94-39.84,6.94
		c-25.54,0-40.05-4.13-41.43-3.63c-5.35,1.96-21.6,41.96-18.54,58.3c0.36,1.93,34.22,214.18,34.82,215.68
		c2.12,5.3,14.83,1.18,20.27,0.25c5.37-0.92,12.3-2.53,11.61-8.5c-0.19-1.62-12.98-170.34-4.44-176.1
		c6.73,12.47,31.5,79.97,32.32,87.31c0.97,16.2-4.05,84.23-2.95,87.09c2.62,6.86,23.94,8.27,30.81,2.94
		c1.68-1.31,8.7-60.46,6.51-102.34C174.72,390.67,164.15,323.45,159.97,306.5z"/>
	<path class="st2" d="M64.66,310.6c-0.52-4.27-6.62-9.32-8.63-13.09c-0.37-2.93,0.03-0.91-3.14-1.79c-3.61-0.99-8.53,1.22-9.23,5.24
		c-0.8,4.67-0.88,9.23,0.35,13.85c1.3,4.86,5.19,13.43,10.07,10.19C63.63,318.65,65.33,316.11,64.66,310.6z"/>
	<path class="st2" d="M165.35,291.22c-2.34-2.54-3.84-3.32-7.23-2.39c-3.4,0.93-12.65,14.38-12.16,17
		c0.73,3.95,6.05,11.33,10.33,11.33c6.12,0,8.59-4.54,10.59-9.66C168.84,302.45,169.28,295.48,165.35,291.22z"/>
	<path class="st1" d="M169.62,150.75c-6.22-7.61-15.25-15.88-31.76-19.72c-15.23-3.55-35.81-3.61-48.09-0.37
		c-9.65,2.54-22.9,7.84-35.4,21.34c-15.1,16.3-30.02,64.22-34.42,81.33c-4.18,16.28,16,57.74,19.31,68.34
		c2.18,6.95,18.4,1.5,18.83-2c0.27-2.24-13.77-45.78-13.69-60.98c0-0.04,0-0.08,0-0.12c0.49-1.6,13.43-21.51,13.43-21.51
		c-0.26,12.29-3.84,55.01,0.96,60.93c6.49,7.99,17.49-2.27,23.99-6.2c5.95-3.59,13.19-6.55,20.24-4.99
		c7.34,1.62,13.32,6.13,20.97,7.35c12.39,1.97,28.03,4.32,31.64-1.48c13.17-21.17,8.13-65.02,8.41-64.3
		c1.7,4.97,12.62,26.12,12.11,29.01c-0.59,3.35-18.44,37.11-19.53,50.29c-0.33,4.04,11.86,13.23,14,11c8-8.33,32.2-42.07,29-71
		C196.94,203.45,175.43,157.85,169.62,150.75z"/>
	<path class="st2" d="M137.86,131.03c-7.27-2.3-15.57-4.83-23.82-4.91c-8.54-0.08-17.04,2.38-24.27,4.53
		c5.56,6.18,16.7,8.65,23.88,9.21C123.07,140.61,132.36,138.11,137.86,131.03z"/>
	<path class="st0" d="M65.78,142.71c5.86,34.74-10.02,69.32-14.03,103.51c-0.9,7.65,4.12,22.53,5.62,15.04
		c7.35-36.93,27.46-87.69,19.2-125.79C76.5,135.13,65.5,141.02,65.78,142.71z"/>
	<path class="st1" d="M142.5,70.41c-0.95-1.47-2.72-1.76-4.35-1.39c-0.52-0.32-1.07-0.59-1.65-0.8c-0.88-0.32-1.75-0.48-2.6-0.52
		c-0.51-0.08-1.03-0.13-1.55-0.13c-3.84,0-7.24,1.91-9.26,5.06c-3.39-1.65-7.12-1.93-10.73-0.97c-2.35-3.42-6.25-5.24-10.41-4.75
		c-0.52,0.06-1.03,0.17-1.53,0.31c-0.81,0.14-1.61,0.38-2.41,0.77c-0.11-0.04-0.22-0.09-0.33-0.12c-1.79-0.48-3.92,0.12-4.86,1.82
		c-0.77,1.41-0.7,3.1,0.23,4.34c-0.35,1.29-0.43,2.66-0.17,4.02c0.64,3.33,2.89,5.7,5.73,6.97c0.57,0.33,3.33,1.11,6.17,1.04
		c2.53-0.2,4.99-1.17,6.84-2.96c2.07-2.02,2.77-4.99,2.27-7.75c2.62-0.6,5.32-0.2,7.73,1.03c-0.51,3.1,0.5,6.45,3.06,8.41
		c2.04,1.57,4.6,2.23,7.14,2.13c2.83-0.27,5.47-1.36,6-1.76c2.66-1.6,4.62-4.21,4.86-7.6c0.08-1.11-0.07-2.21-0.39-3.24
		C143.1,73.17,143.42,71.83,142.5,70.41z"/>
</g>
</svg>
