<?xml version="1.0" encoding="utf-8"?>
<!-- Generator: Adobe Illustrator 24.0.1, SVG Export Plug-In . SVG Version: 6.00 Build 0)  -->
<svg version="1.1" id="Слой_1" xmlns="http://www.w3.org/2000/svg" xmlns:xlink="http://www.w3.org/1999/xlink" x="0px" y="0px"
	 viewBox="0 0 983.97 513.2" style="enable-background:new 0 0 983.97 513.2;" xml:space="preserve">
<style type="text/css">
	.st0{fill:#EFEEE7;}
	.st1{fill:none;stroke:#030303;stroke-width:0.5;stroke-miterlimit:10;}
	.st2{fill:#FFFFFF;stroke:#030303;stroke-width:0.5;stroke-miterlimit:10;}
	.st3{fill:none;stroke:#030303;stroke-width:0.25;stroke-miterlimit:10;}
</style>
<g>
	<polygon class="st0" points="906.02,512.94 906.02,435.49 961.47,435.49 961.47,422.37 955.48,422.37 955.48,368.58 961.47,368.44 
		961.47,347.5 955.48,347.5 955.48,293.2 961.47,293.22 961.47,272.63 955.48,272.79 955.48,218.47 961.47,218.47 961.47,197.87 
		955.48,197.87 955.48,143.71 961.47,143.71 961.47,130.3 976.95,130.3 976.95,120.44 983.72,120.44 983.72,117.6 860.27,117.6 
		860.27,90.43 770.43,0.35 680.53,90.43 680.53,117.6 592.68,117.6 592.68,107.79 569.93,107.79 530.97,68.81 491.98,107.79 
		453.02,68.81 414.04,107.79 388.29,107.79 388.29,117.6 303.45,117.61 303.45,90.44 213.56,0.39 123.7,90.44 123.7,117.61 
		0.25,117.61 0.25,120.46 7.05,120.42 7.02,130.31 22.5,130.31 22.5,143.72 28.59,143.72 28.5,197.88 22.5,197.88 22.5,218.48 
		28.76,218.48 28.76,272.64 22.5,272.64 22.5,293.24 28.58,293.24 28.58,347.52 22.5,347.52 22.5,368.45 28.59,368.45 28.59,422.38 
		22.5,422.38 22.5,435.5 77.95,435.5 77.95,512.95 	"/>
	<polyline class="st1" points="961.47,130.3 961.47,143.71 895.66,143.71 895.66,197.87 961.47,197.87 961.47,218.47 895.66,218.47 
		895.66,272.63 961.47,272.63 961.47,293.22 895.66,293.22 895.66,347.5 961.47,347.5 961.47,368.44 895.66,368.44 895.66,422.37 
		961.47,422.37 961.47,435.49 906.02,435.49 906.02,512.94 895.66,512.94 895.66,435.54 	"/>
	<rect x="895.66" y="368.58" class="st2" width="59.81" height="53.79"/>
	<rect x="895.66" y="293.2" class="st2" width="59.81" height="54.31"/>
	<rect x="895.66" y="218.47" class="st2" width="59.81" height="54.16"/>
	<rect x="895.66" y="143.71" class="st2" width="59.81" height="54.16"/>
	<rect x="849.92" y="120.44" class="st1" width="127.03" height="9.86"/>
	<rect x="849.92" y="117.6" class="st1" width="133.8" height="2.85"/>
	<polygon class="st1" points="770.43,0.35 770.41,0.37 770.39,0.35 680.53,90.43 680.53,117.6 690.88,117.6 690.88,94.51 
		770.41,14.97 849.92,94.48 849.92,117.6 860.27,117.6 860.27,90.43 	"/>
	<polygon class="st2" points="780.91,66.35 780.91,117.6 820.45,117.6 820.45,104.98 	"/>
	<line class="st3" x1="798.74" y1="83.78" x2="798.74" y2="117.6"/>
	<line class="st1" x1="780.91" y1="109.57" x2="820.45" y2="109.57"/>
	<line class="st1" x1="780.91" y1="113.86" x2="820.45" y2="113.86"/>
	<rect x="844.21" y="155.51" class="st2" width="34.81" height="54.66"/>
	<line class="st3" x1="861.62" y1="155.51" x2="861.62" y2="210.17"/>
	<line class="st1" x1="844.21" y1="189.67" x2="879.02" y2="189.67"/>
	<line class="st1" x1="844.21" y1="193.35" x2="879.02" y2="193.35"/>
	<line class="st1" x1="844.21" y1="197.13" x2="879.02" y2="197.13"/>
	<line class="st1" x1="844.21" y1="200.92" x2="879.02" y2="200.92"/>
	<line class="st1" x1="844.21" y1="204.38" x2="879.02" y2="204.38"/>
	<line class="st1" x1="844.21" y1="207.54" x2="879.02" y2="207.54"/>
	<rect x="844.21" y="227.38" class="st2" width="34.81" height="54.66"/>
	<line class="st3" x1="861.62" y1="227.38" x2="861.62" y2="282.03"/>
	<line class="st1" x1="844.21" y1="261.54" x2="879.02" y2="261.54"/>
	<line class="st1" x1="844.21" y1="265.22" x2="879.02" y2="265.22"/>
	<line class="st1" x1="844.21" y1="269" x2="879.02" y2="269"/>
	<line class="st1" x1="844.21" y1="272.79" x2="879.02" y2="272.79"/>
	<line class="st1" x1="844.21" y1="276.24" x2="879.02" y2="276.24"/>
	<line class="st1" x1="844.21" y1="279.41" x2="879.02" y2="279.41"/>
	<rect x="844.21" y="299.28" class="st2" width="34.81" height="54.66"/>
	<line class="st3" x1="861.62" y1="299.28" x2="861.62" y2="353.93"/>
	<line class="st1" x1="844.21" y1="333.44" x2="879.02" y2="333.44"/>
	<line class="st1" x1="844.21" y1="337.12" x2="879.02" y2="337.12"/>
	<line class="st1" x1="844.21" y1="340.9" x2="879.02" y2="340.9"/>
	<line class="st1" x1="844.21" y1="344.69" x2="879.02" y2="344.69"/>
	<line class="st1" x1="844.21" y1="348.15" x2="879.02" y2="348.15"/>
	<line class="st1" x1="844.21" y1="351.31" x2="879.02" y2="351.31"/>
	<polyline class="st1" points="895.66,130.3 895.66,435.54 906.02,435.54 	"/>
	<rect x="844.21" y="374.81" class="st2" width="35.44" height="35.44"/>
	<line class="st1" x1="861.93" y1="374.81" x2="861.93" y2="410.25"/>
	<polygon class="st2" points="760.41,66.35 760.41,117.6 720.86,117.6 720.86,104.98 	"/>
	<line class="st3" x1="742.57" y1="83.78" x2="742.57" y2="117.6"/>
	<line class="st1" x1="760.41" y1="109.57" x2="720.86" y2="109.57"/>
	<line class="st1" x1="760.41" y1="113.86" x2="720.86" y2="113.86"/>
	<rect x="781.34" y="155.51" class="st2" width="34.81" height="54.66"/>
	<line class="st3" x1="798.74" y1="155.51" x2="798.74" y2="210.17"/>
	<line class="st1" x1="781.34" y1="189.67" x2="816.15" y2="189.67"/>
	<line class="st1" x1="781.34" y1="193.35" x2="816.15" y2="193.35"/>
	<line class="st1" x1="781.34" y1="197.13" x2="816.15" y2="197.13"/>
	<line class="st1" x1="781.34" y1="200.92" x2="816.15" y2="200.92"/>
	<line class="st1" x1="781.34" y1="204.38" x2="816.15" y2="204.38"/>
	<line class="st1" x1="781.34" y1="207.54" x2="816.15" y2="207.54"/>
	<rect x="725.6" y="155.51" class="st2" width="34.81" height="54.66"/>
	<line class="st3" x1="743" y1="155.51" x2="743" y2="210.17"/>
	<line class="st1" x1="725.6" y1="189.67" x2="760.41" y2="189.67"/>
	<line class="st1" x1="725.6" y1="193.35" x2="760.41" y2="193.35"/>
	<line class="st1" x1="725.6" y1="197.13" x2="760.41" y2="197.13"/>
	<line class="st1" x1="725.6" y1="200.92" x2="760.41" y2="200.92"/>
	<line class="st1" x1="725.6" y1="204.38" x2="760.41" y2="204.38"/>
	<line class="st1" x1="725.6" y1="207.54" x2="760.41" y2="207.54"/>
	<rect x="781.34" y="227.38" class="st2" width="34.81" height="54.66"/>
	<line class="st3" x1="798.74" y1="227.38" x2="798.74" y2="282.03"/>
	<line class="st1" x1="781.34" y1="261.54" x2="816.15" y2="261.54"/>
	<line class="st1" x1="781.34" y1="265.22" x2="816.15" y2="265.22"/>
	<line class="st1" x1="781.34" y1="269" x2="816.15" y2="269"/>
	<line class="st1" x1="781.34" y1="272.79" x2="816.15" y2="272.79"/>
	<line class="st1" x1="781.34" y1="276.24" x2="816.15" y2="276.24"/>
	<line class="st1" x1="781.34" y1="279.41" x2="816.15" y2="279.41"/>
	<rect x="725.6" y="227.38" class="st2" width="34.81" height="54.66"/>
	<line class="st3" x1="743" y1="227.38" x2="743" y2="282.03"/>
	<line class="st1" x1="725.6" y1="261.54" x2="760.41" y2="261.54"/>
	<line class="st1" x1="725.6" y1="265.22" x2="760.41" y2="265.22"/>
	<line class="st1" x1="725.6" y1="269" x2="760.41" y2="269"/>
	<line class="st1" x1="725.6" y1="272.79" x2="760.41" y2="272.79"/>
	<line class="st1" x1="725.6" y1="276.24" x2="760.41" y2="276.24"/>
	<line class="st1" x1="725.6" y1="279.41" x2="760.41" y2="279.41"/>
	<rect x="781.34" y="299.28" class="st2" width="34.81" height="54.66"/>
	<line class="st3" x1="798.74" y1="299.28" x2="798.74" y2="353.93"/>
	<line class="st1" x1="781.34" y1="333.44" x2="816.15" y2="333.44"/>
	<line class="st1" x1="781.34" y1="337.12" x2="816.15" y2="337.12"/>
	<line class="st1" x1="781.34" y1="340.9" x2="816.15" y2="340.9"/>
	<line class="st1" x1="781.34" y1="344.69" x2="816.15" y2="344.69"/>
	<line class="st1" x1="781.34" y1="348.15" x2="816.15" y2="348.15"/>
	<line class="st1" x1="781.34" y1="351.31" x2="816.15" y2="351.31"/>
	<rect x="725.6" y="299.28" class="st2" width="34.81" height="54.66"/>
	<line class="st3" x1="743" y1="299.28" x2="743" y2="353.93"/>
	<line class="st1" x1="725.6" y1="333.44" x2="760.41" y2="333.44"/>
	<line class="st1" x1="725.6" y1="337.12" x2="760.41" y2="337.12"/>
	<line class="st1" x1="725.6" y1="340.9" x2="760.41" y2="340.9"/>
	<line class="st1" x1="725.6" y1="344.69" x2="760.41" y2="344.69"/>
	<line class="st1" x1="725.6" y1="348.15" x2="760.41" y2="348.15"/>
	<line class="st1" x1="725.6" y1="351.31" x2="760.41" y2="351.31"/>
	<rect x="781.21" y="374.81" class="st2" width="35.44" height="35.44"/>
	<line class="st1" x1="798.93" y1="374.81" x2="798.93" y2="410.25"/>
	<rect x="725.28" y="374.81" class="st2" width="35.44" height="35.44"/>
	<line class="st1" x1="743" y1="374.81" x2="743" y2="410.25"/>
	<rect x="718.34" y="440.17" class="st2" width="94.38" height="51"/>
	<rect x="602.91" y="125.93" class="st1" width="93.24" height="78.44"/>
	<rect x="604.84" y="143.71" class="st2" width="81.49" height="32.59"/>
	<line class="st1" x1="632.77" y1="143.71" x2="632.77" y2="176.3"/>
	<line class="st1" x1="658.23" y1="143.71" x2="658.23" y2="176.3"/>
	<rect x="602.91" y="204.38" class="st1" width="89.17" height="9.11"/>
	<line class="st1" x1="602.91" y1="207.25" x2="692.08" y2="207.25"/>
	<line class="st1" x1="602.91" y1="210.61" x2="692.08" y2="210.61"/>
	<line class="st1" x1="630.62" y1="204.38" x2="630.62" y2="213.48"/>
	<line class="st1" x1="660.29" y1="204.38" x2="660.29" y2="213.48"/>
	<rect x="602.91" y="250.88" class="st1" width="93.24" height="28.53"/>
	<rect x="602.91" y="213.48" class="st2" width="85.39" height="37.4"/>
	<rect x="629.11" y="213.48" class="st1" width="32.62" height="37.4"/>
	<rect x="602.91" y="279.41" class="st1" width="89.17" height="9.11"/>
	<line class="st1" x1="602.91" y1="282.28" x2="692.08" y2="282.28"/>
	<line class="st1" x1="602.91" y1="285.65" x2="692.08" y2="285.65"/>
	<line class="st1" x1="630.62" y1="279.41" x2="630.62" y2="288.52"/>
	<line class="st1" x1="660.29" y1="279.41" x2="660.29" y2="288.52"/>
	<rect x="602.91" y="325.92" class="st1" width="93.24" height="28.53"/>
	<rect x="602.91" y="288.52" class="st2" width="85.39" height="37.4"/>
	<rect x="629.11" y="288.52" class="st1" width="32.62" height="37.4"/>
	<rect x="602.91" y="354.45" class="st1" width="89.17" height="9.11"/>
	<line class="st1" x1="602.91" y1="357.32" x2="692.08" y2="357.32"/>
	<line class="st1" x1="602.91" y1="360.69" x2="692.08" y2="360.69"/>
	<line class="st1" x1="630.62" y1="354.45" x2="630.62" y2="363.56"/>
	<line class="st1" x1="660.29" y1="354.45" x2="660.29" y2="363.56"/>
	<rect x="602.91" y="400.96" class="st1" width="93.24" height="28.53"/>
	<rect x="602.91" y="363.56" class="st2" width="85.39" height="37.4"/>
	<rect x="629.11" y="363.56" class="st1" width="32.62" height="37.4"/>
	<polygon class="st1" points="602.91,437.64 602.91,125.93 600.75,125.93 600.75,437.78 597.25,447.72 597.25,512.94 599.41,512.94 
		599.41,448.07 	"/>
	<polyline class="st1" points="688.3,429.49 688.3,507.29 599.41,507.29 	"/>
	<polyline class="st1" points="675.53,429.49 675.53,498.11 599.41,498.11 	"/>
	<line class="st1" x1="675.53" y1="498.11" x2="688.3" y2="507.29"/>
	<rect x="610.78" y="437.11" class="st2" width="53.37" height="53.37"/>
	<rect x="388.29" y="107.79" class="st1" width="204.39" height="9.8"/>
	<polygon class="st1" points="491.98,107.79 502.56,107.79 530.95,79.4 559.34,107.79 569.93,107.79 536.25,74.11 536.26,74.1 
		530.97,68.81 530.95,68.82 530.94,68.81 525.65,74.1 525.66,74.11 	"/>
	<polygon class="st2" points="514.5,107.79 530.95,92.29 547.05,107.79 	"/>
	<line class="st1" x1="530.95" y1="92.29" x2="530.95" y2="107.79"/>
	<polygon class="st1" points="414.04,107.79 424.62,107.79 453.01,79.4 481.4,107.79 491.98,107.79 458.3,74.11 458.31,74.1 
		453.02,68.81 453.01,68.82 453,68.81 447.71,74.1 447.72,74.11 	"/>
	<polygon class="st2" points="436.56,107.79 453.01,92.29 469.11,107.79 	"/>
	<line class="st1" x1="453.01" y1="92.29" x2="453.01" y2="107.79"/>
	<line class="st1" x1="895.66" y1="512.94" x2="149.58" y2="512.94"/>
	<rect x="535.75" y="125.93" class="st1" width="6.01" height="303.55"/>
	<rect x="545.33" y="138.16" class="st2" width="51.92" height="35.37"/>
	<line class="st2" x1="571.29" y1="138.16" x2="571.29" y2="173.52"/>
	<rect x="545.33" y="213.39" class="st2" width="51.92" height="35.37"/>
	<line class="st2" x1="571.29" y1="213.39" x2="571.29" y2="248.76"/>
	<rect x="545.27" y="203.7" class="st1" width="51.98" height="9.7"/>
	<line class="st1" x1="545.27" y1="206.51" x2="597.25" y2="206.51"/>
	<line class="st1" x1="545.27" y1="210.03" x2="597.25" y2="210.03"/>
	<line class="st1" x1="571.22" y1="203.7" x2="571.22" y2="213.39"/>
	<rect x="545.37" y="289.11" class="st2" width="51.92" height="35.37"/>
	<line class="st2" x1="571.33" y1="289.11" x2="571.33" y2="324.48"/>
	<rect x="545.3" y="279.41" class="st1" width="51.98" height="9.7"/>
	<line class="st1" x1="545.3" y1="282.22" x2="597.28" y2="282.22"/>
	<line class="st1" x1="545.3" y1="285.74" x2="597.28" y2="285.74"/>
	<line class="st1" x1="571.26" y1="279.41" x2="571.26" y2="289.11"/>
	<rect x="545.4" y="365.05" class="st2" width="51.92" height="35.37"/>
	<line class="st2" x1="571.36" y1="365.05" x2="571.36" y2="400.41"/>
	<rect x="545.33" y="355.35" class="st1" width="51.98" height="9.7"/>
	<line class="st1" x1="545.33" y1="358.16" x2="597.32" y2="358.16"/>
	<line class="st1" x1="545.33" y1="361.68" x2="597.32" y2="361.68"/>
	<line class="st1" x1="571.29" y1="355.35" x2="571.29" y2="365.05"/>
	<line class="st1" x1="600.75" y1="429.49" x2="448.22" y2="429.49"/>
	<line class="st1" x1="541.76" y1="173.52" x2="600.75" y2="173.52"/>
	<line class="st1" x1="541.76" y1="248.76" x2="600.75" y2="248.76"/>
	<line class="st1" x1="541.76" y1="324.48" x2="600.75" y2="324.48"/>
	<line class="st1" x1="541.76" y1="400.41" x2="600.75" y2="400.41"/>
	<rect x="452" y="141.36" class="st2" width="79.97" height="37.67"/>
	<line class="st1" x1="491.98" y1="141.36" x2="491.98" y2="179.03"/>
	<line class="st1" x1="470.81" y1="141.36" x2="470.81" y2="179.03"/>
	<line class="st1" x1="513.13" y1="141.36" x2="513.13" y2="179.03"/>
	<rect x="452" y="214.81" class="st2" width="79.97" height="37.67"/>
	<line class="st1" x1="491.98" y1="214.81" x2="491.98" y2="252.48"/>
	<line class="st1" x1="470.81" y1="214.81" x2="470.81" y2="252.48"/>
	<line class="st1" x1="513.13" y1="214.81" x2="513.13" y2="252.48"/>
	<polyline class="st1" points="22.5,130.31 22.5,143.72 88.31,143.72 88.31,197.88 22.5,197.88 22.5,218.48 88.31,218.48 
		88.31,272.64 22.5,272.64 22.5,293.24 88.31,293.24 88.31,347.52 22.5,347.52 22.5,368.45 88.31,368.45 88.31,422.38 22.5,422.38 
		22.5,435.5 77.95,435.5 77.95,512.95 88.31,512.95 88.31,435.55 	"/>
	
		<rect x="28.5" y="368.59" transform="matrix(-1 -4.497703e-11 4.497703e-11 -1 116.8123 790.9772)" class="st2" width="59.81" height="53.79"/>
	
		<rect x="28.5" y="293.21" transform="matrix(-1 -4.497703e-11 4.497703e-11 -1 116.8123 640.7277)" class="st2" width="59.81" height="54.31"/>
	
		<rect x="28.5" y="218.48" transform="matrix(-1 -4.479451e-11 4.479451e-11 -1 116.8123 491.1205)" class="st2" width="59.81" height="54.16"/>
	
		<rect x="28.5" y="143.72" transform="matrix(-1 -4.497703e-11 4.497703e-11 -1 116.8123 341.6082)" class="st2" width="59.81" height="54.16"/>
	
		<rect x="7.02" y="120.46" transform="matrix(-1 -4.486335e-11 4.486335e-11 -1 141.0754 250.7724)" class="st1" width="127.03" height="9.86"/>
	
		<rect x="0.25" y="117.61" transform="matrix(-1 -4.491664e-11 4.491664e-11 -1 134.302 238.0699)" class="st1" width="133.8" height="2.85"/>
	<polygon class="st1" points="213.55,0.37 213.56,0.39 213.58,0.37 303.45,90.44 303.45,117.61 293.1,117.61 293.1,94.52 
		213.56,14.99 134.05,94.5 134.05,117.61 123.7,117.61 123.7,90.44 	"/>
	<polygon class="st1" points="691.21,117.6 441.63,117.6 441.63,117.61 292.77,117.61 292.77,125.95 542.34,125.95 542.34,125.93 
		691.21,125.93 	"/>
	<polygon class="st2" points="203.07,66.37 203.07,117.61 163.52,117.61 163.52,104.99 	"/>
	<line class="st3" x1="185.23" y1="83.79" x2="185.23" y2="117.61"/>
	<line class="st1" x1="203.07" y1="109.59" x2="163.52" y2="109.59"/>
	<line class="st1" x1="203.07" y1="113.87" x2="163.52" y2="113.87"/>
	
		<rect x="104.95" y="155.52" transform="matrix(-1 -4.483359e-11 4.483359e-11 -1 244.7161 365.7007)" class="st2" width="34.81" height="54.66"/>
	<line class="st3" x1="122.36" y1="155.52" x2="122.36" y2="210.18"/>
	<line class="st1" x1="139.76" y1="189.69" x2="104.95" y2="189.69"/>
	<line class="st1" x1="139.76" y1="193.36" x2="104.95" y2="193.36"/>
	<line class="st1" x1="139.76" y1="197.15" x2="104.95" y2="197.15"/>
	<line class="st1" x1="139.76" y1="200.93" x2="104.95" y2="200.93"/>
	<line class="st1" x1="139.76" y1="204.39" x2="104.95" y2="204.39"/>
	<line class="st1" x1="139.76" y1="207.56" x2="104.95" y2="207.56"/>
	
		<rect x="104.95" y="227.39" transform="matrix(-1 -4.483359e-11 4.483359e-11 -1 244.7161 509.4377)" class="st2" width="34.81" height="54.66"/>
	<line class="st3" x1="122.36" y1="227.39" x2="122.36" y2="282.05"/>
	<line class="st1" x1="139.76" y1="261.56" x2="104.95" y2="261.56"/>
	<line class="st1" x1="139.76" y1="265.23" x2="104.95" y2="265.23"/>
	<line class="st1" x1="139.76" y1="269.02" x2="104.95" y2="269.02"/>
	<line class="st1" x1="139.76" y1="272.8" x2="104.95" y2="272.8"/>
	<line class="st1" x1="139.76" y1="276.26" x2="104.95" y2="276.26"/>
	<line class="st1" x1="139.76" y1="279.43" x2="104.95" y2="279.43"/>
	
		<rect x="104.95" y="299.29" transform="matrix(-1 -4.478163e-11 4.478163e-11 -1 244.7161 653.2388)" class="st2" width="34.81" height="54.66"/>
	<line class="st3" x1="122.36" y1="299.29" x2="122.36" y2="353.95"/>
	<line class="st1" x1="139.76" y1="333.46" x2="104.95" y2="333.46"/>
	<line class="st1" x1="139.76" y1="337.13" x2="104.95" y2="337.13"/>
	<line class="st1" x1="139.76" y1="340.92" x2="104.95" y2="340.92"/>
	<line class="st1" x1="139.76" y1="344.7" x2="104.95" y2="344.7"/>
	<line class="st1" x1="139.76" y1="348.16" x2="104.95" y2="348.16"/>
	<line class="st1" x1="139.76" y1="351.33" x2="104.95" y2="351.33"/>
	<polyline class="st1" points="88.31,130.31 88.31,435.55 77.95,435.55 	"/>
	
		<rect x="104.32" y="374.83" transform="matrix(-1 -4.485935e-11 4.485935e-11 -1 244.0872 785.0956)" class="st2" width="35.44" height="35.44"/>
	<line class="st1" x1="122.04" y1="374.83" x2="122.04" y2="410.27"/>
	<polygon class="st2" points="223.57,66.37 223.57,117.61 263.11,117.61 263.11,104.99 	"/>
	<line class="st3" x1="241.4" y1="83.79" x2="241.4" y2="117.61"/>
	<line class="st1" x1="223.57" y1="109.59" x2="263.11" y2="109.59"/>
	<line class="st1" x1="223.57" y1="113.87" x2="263.11" y2="113.87"/>
	
		<rect x="167.83" y="155.52" transform="matrix(-1 -4.483359e-11 4.483359e-11 -1 370.4628 365.7007)" class="st2" width="34.81" height="54.66"/>
	<line class="st3" x1="185.23" y1="155.52" x2="185.23" y2="210.18"/>
	<line class="st1" x1="202.64" y1="189.69" x2="167.83" y2="189.69"/>
	<line class="st1" x1="202.64" y1="193.36" x2="167.83" y2="193.36"/>
	<line class="st1" x1="202.64" y1="197.15" x2="167.83" y2="197.15"/>
	<line class="st1" x1="202.64" y1="200.93" x2="167.83" y2="200.93"/>
	<line class="st1" x1="202.64" y1="204.39" x2="167.83" y2="204.39"/>
	<line class="st1" x1="202.64" y1="207.56" x2="167.83" y2="207.56"/>
	
		<rect x="223.57" y="155.52" transform="matrix(-1 -4.478163e-11 4.478163e-11 -1 481.9427 365.7007)" class="st2" width="34.81" height="54.66"/>
	<line class="st3" x1="240.97" y1="155.52" x2="240.97" y2="210.18"/>
	<line class="st1" x1="258.38" y1="189.69" x2="223.57" y2="189.69"/>
	<line class="st1" x1="258.38" y1="193.36" x2="223.57" y2="193.36"/>
	<line class="st1" x1="258.38" y1="197.15" x2="223.57" y2="197.15"/>
	<line class="st1" x1="258.38" y1="200.93" x2="223.57" y2="200.93"/>
	<line class="st1" x1="258.38" y1="204.39" x2="223.57" y2="204.39"/>
	<line class="st1" x1="258.38" y1="207.56" x2="223.57" y2="207.56"/>
	
		<rect x="167.83" y="227.39" transform="matrix(-1 -4.509516e-11 4.509516e-11 -1 370.4628 509.4377)" class="st2" width="34.81" height="54.66"/>
	<line class="st3" x1="185.23" y1="227.39" x2="185.23" y2="282.05"/>
	<line class="st1" x1="202.64" y1="261.56" x2="167.83" y2="261.56"/>
	<line class="st1" x1="202.64" y1="265.23" x2="167.83" y2="265.23"/>
	<line class="st1" x1="202.64" y1="269.02" x2="167.83" y2="269.02"/>
	<line class="st1" x1="202.64" y1="272.8" x2="167.83" y2="272.8"/>
	<line class="st1" x1="202.64" y1="276.26" x2="167.83" y2="276.26"/>
	<line class="st1" x1="202.64" y1="279.43" x2="167.83" y2="279.43"/>
	
		<rect x="223.57" y="227.39" transform="matrix(-1 -4.483359e-11 4.483359e-11 -1 481.9427 509.4377)" class="st2" width="34.81" height="54.66"/>
	<line class="st3" x1="240.97" y1="227.39" x2="240.97" y2="282.05"/>
	<line class="st1" x1="258.38" y1="261.56" x2="223.57" y2="261.56"/>
	<line class="st1" x1="258.38" y1="265.23" x2="223.57" y2="265.23"/>
	<line class="st1" x1="258.38" y1="269.02" x2="223.57" y2="269.02"/>
	<line class="st1" x1="258.38" y1="272.8" x2="223.57" y2="272.8"/>
	<line class="st1" x1="258.38" y1="276.26" x2="223.57" y2="276.26"/>
	<line class="st1" x1="258.38" y1="279.43" x2="223.57" y2="279.43"/>
	
		<rect x="167.83" y="299.29" transform="matrix(-1 -4.509516e-11 4.509516e-11 -1 370.4628 653.2388)" class="st2" width="34.81" height="54.66"/>
	<line class="st3" x1="185.23" y1="299.29" x2="185.23" y2="353.95"/>
	<line class="st1" x1="202.64" y1="333.46" x2="167.83" y2="333.46"/>
	<line class="st1" x1="202.64" y1="337.13" x2="167.83" y2="337.13"/>
	<line class="st1" x1="202.64" y1="340.92" x2="167.83" y2="340.92"/>
	<line class="st1" x1="202.64" y1="344.7" x2="167.83" y2="344.7"/>
	<line class="st1" x1="202.64" y1="348.16" x2="167.83" y2="348.16"/>
	<line class="st1" x1="202.64" y1="351.33" x2="167.83" y2="351.33"/>
	
		<rect x="223.57" y="299.29" transform="matrix(-1 -4.504276e-11 4.504276e-11 -1 481.9427 653.2388)" class="st2" width="34.81" height="54.66"/>
	<line class="st3" x1="240.97" y1="299.29" x2="240.97" y2="353.95"/>
	<line class="st1" x1="258.38" y1="333.46" x2="223.57" y2="333.46"/>
	<line class="st1" x1="258.38" y1="337.13" x2="223.57" y2="337.13"/>
	<line class="st1" x1="258.38" y1="340.92" x2="223.57" y2="340.92"/>
	<line class="st1" x1="258.38" y1="344.7" x2="223.57" y2="344.7"/>
	<line class="st1" x1="258.38" y1="348.16" x2="223.57" y2="348.16"/>
	<line class="st1" x1="258.38" y1="351.33" x2="223.57" y2="351.33"/>
	
		<rect x="167.32" y="374.83" transform="matrix(-1 -4.485935e-11 4.485935e-11 -1 370.0856 785.0956)" class="st2" width="35.44" height="35.44"/>
	<line class="st1" x1="185.04" y1="374.83" x2="185.04" y2="410.27"/>
	
		<rect x="223.25" y="374.83" transform="matrix(-1 -4.491086e-11 4.491086e-11 -1 481.9427 785.0956)" class="st2" width="35.44" height="35.44"/>
	<line class="st1" x1="240.97" y1="374.83" x2="240.97" y2="410.27"/>
	
		<rect x="171.25" y="440.19" transform="matrix(-1 -4.480872e-11 4.480872e-11 -1 436.8891 931.3747)" class="st2" width="94.38" height="51"/>
	
		<rect x="287.83" y="125.95" transform="matrix(-1 -4.483270e-11 4.483270e-11 -1 668.8979 330.3353)" class="st1" width="93.24" height="78.44"/>
	
		<rect x="297.64" y="143.72" transform="matrix(-1 -4.491353e-11 4.491353e-11 -1 676.7745 320.0352)" class="st2" width="81.49" height="32.59"/>
	<line class="st1" x1="351.21" y1="143.72" x2="351.21" y2="176.31"/>
	<line class="st1" x1="325.74" y1="143.72" x2="325.74" y2="176.31"/>
	
		<rect x="291.9" y="204.39" transform="matrix(-1 -4.485757e-11 4.485757e-11 -1 672.9638 417.886)" class="st1" width="89.17" height="9.11"/>
	<line class="st1" x1="381.07" y1="207.26" x2="291.9" y2="207.26"/>
	<line class="st1" x1="381.07" y1="210.63" x2="291.9" y2="210.63"/>
	<line class="st1" x1="353.36" y1="204.39" x2="353.36" y2="213.5"/>
	<line class="st1" x1="323.69" y1="204.39" x2="323.69" y2="213.5"/>
	
		<rect x="287.83" y="250.9" transform="matrix(-1 -4.483270e-11 4.483270e-11 -1 668.8979 530.3228)" class="st1" width="93.24" height="28.53"/>
	
		<rect x="295.67" y="213.5" transform="matrix(-1 -4.496771e-11 4.496771e-11 -1 676.7419 464.3923)" class="st2" width="85.39" height="37.4"/>
	
		<rect x="322.25" y="213.5" transform="matrix(-1 -4.472435e-11 4.472435e-11 -1 677.1102 464.3923)" class="st1" width="32.62" height="37.4"/>
	
		<rect x="291.9" y="279.43" transform="matrix(-1 -4.485757e-11 4.485757e-11 -1 672.9638 567.9594)" class="st1" width="89.17" height="9.11"/>
	<line class="st1" x1="381.07" y1="282.3" x2="291.9" y2="282.3"/>
	<line class="st1" x1="381.07" y1="285.66" x2="291.9" y2="285.66"/>
	<line class="st1" x1="353.36" y1="279.43" x2="353.36" y2="288.53"/>
	<line class="st1" x1="323.69" y1="279.43" x2="323.69" y2="288.53"/>
	
		<rect x="287.83" y="325.93" transform="matrix(-1 -4.494994e-11 4.494994e-11 -1 668.8979 680.3962)" class="st1" width="93.24" height="28.53"/>
	
		<rect x="295.67" y="288.53" transform="matrix(-1 -4.496771e-11 4.496771e-11 -1 676.7419 614.4656)" class="st2" width="85.39" height="37.4"/>
	
		<rect x="322.25" y="288.53" transform="matrix(-1 -4.472435e-11 4.472435e-11 -1 677.1102 614.4656)" class="st1" width="32.62" height="37.4"/>
	
		<rect x="291.9" y="354.46" transform="matrix(-1 -4.485757e-11 4.485757e-11 -1 672.9638 718.0327)" class="st1" width="89.17" height="9.11"/>
	<line class="st1" x1="381.07" y1="357.33" x2="291.9" y2="357.33"/>
	<line class="st1" x1="381.07" y1="360.7" x2="291.9" y2="360.7"/>
	<line class="st1" x1="353.36" y1="354.46" x2="353.36" y2="363.57"/>
	<line class="st1" x1="323.69" y1="354.46" x2="323.69" y2="363.57"/>
	
		<rect x="287.83" y="400.97" transform="matrix(-1 -4.494994e-11 4.494994e-11 -1 668.8979 830.4695)" class="st1" width="93.24" height="28.53"/>
	
		<rect x="295.67" y="363.57" transform="matrix(-1 -4.486113e-11 4.486113e-11 -1 676.7419 764.5389)" class="st2" width="85.39" height="37.4"/>
	
		<rect x="322.25" y="363.57" transform="matrix(-1 -4.477986e-11 4.477986e-11 -1 677.1102 764.5389)" class="st1" width="32.62" height="37.4"/>
	<polygon class="st1" points="381.07,437.66 381.07,125.95 383.22,125.95 383.22,437.79 386.72,447.73 386.72,512.95 384.57,512.95 
		384.57,448.08 	"/>
	<polyline class="st1" points="295.67,429.5 295.67,507.31 384.57,507.31 	"/>
	<polyline class="st1" points="308.45,429.5 308.45,498.12 384.57,498.12 	"/>
	<line class="st1" x1="308.45" y1="498.12" x2="295.67" y2="507.31"/>
	
		<rect x="319.82" y="437.13" transform="matrix(-1 -4.478430e-11 4.478430e-11 -1 693.0179 927.6237)" class="st2" width="53.37" height="53.37"/>
	<polygon class="st2" points="469.48,107.81 453.02,92.31 436.92,107.81 	"/>
	<line class="st1" x1="453.02" y1="92.31" x2="453.02" y2="107.81"/>
	<line class="st1" x1="88.31" y1="512.95" x2="384.57" y2="512.95"/>
	
		<rect x="442.21" y="125.95" transform="matrix(-1 -4.298574e-11 4.298574e-11 -1 890.4348 555.4453)" class="st1" width="6.01" height="303.55"/>
	
		<rect x="386.72" y="138.17" transform="matrix(-1 -4.467194e-11 4.467194e-11 -1 825.3658 311.7092)" class="st2" width="51.92" height="35.37"/>
	<line class="st2" x1="412.68" y1="138.17" x2="412.68" y2="173.54"/>
	
		<rect x="386.72" y="213.41" transform="matrix(-1 -4.509250e-11 4.509250e-11 -1 825.3658 462.183)" class="st2" width="51.92" height="35.37"/>
	<line class="st2" x1="412.68" y1="213.41" x2="412.68" y2="248.77"/>
	
		<rect x="386.72" y="203.71" transform="matrix(-1 -4.482382e-11 4.482382e-11 -1 825.4336 417.1204)" class="st1" width="51.98" height="9.7"/>
	<line class="st1" x1="438.71" y1="206.52" x2="386.72" y2="206.52"/>
	<line class="st1" x1="438.71" y1="210.04" x2="386.72" y2="210.04"/>
	<line class="st1" x1="412.75" y1="203.71" x2="412.75" y2="213.41"/>
	
		<rect x="386.69" y="289.12" transform="matrix(-1 -4.491708e-11 4.491708e-11 -1 825.298 613.6115)" class="st2" width="51.92" height="35.37"/>
	<line class="st2" x1="412.65" y1="289.12" x2="412.65" y2="324.49"/>
	
		<rect x="386.69" y="279.43" transform="matrix(-1 -4.482382e-11 4.482382e-11 -1 825.3658 568.549)" class="st1" width="51.98" height="9.7"/>
	<line class="st1" x1="438.68" y1="282.23" x2="386.69" y2="282.23"/>
	<line class="st1" x1="438.68" y1="285.76" x2="386.69" y2="285.76"/>
	<line class="st1" x1="412.72" y1="279.43" x2="412.72" y2="289.12"/>
	
		<rect x="386.66" y="365.06" transform="matrix(-1 -4.488200e-11 4.488200e-11 -1 825.2302 765.4899)" class="st2" width="51.92" height="35.37"/>
	<line class="st2" x1="412.62" y1="365.06" x2="412.62" y2="400.43"/>
	
		<rect x="386.66" y="355.37" transform="matrix(-1 -4.503343e-11 4.503343e-11 -1 825.298 720.4273)" class="st1" width="51.98" height="9.7"/>
	<line class="st1" x1="438.64" y1="358.17" x2="386.66" y2="358.17"/>
	<line class="st1" x1="438.64" y1="361.69" x2="386.66" y2="361.69"/>
	<line class="st1" x1="412.68" y1="355.37" x2="412.68" y2="365.06"/>
	<line class="st1" x1="383.22" y1="429.5" x2="442.21" y2="429.5"/>
	<line class="st1" x1="442.21" y1="173.54" x2="383.22" y2="173.54"/>
	<line class="st1" x1="442.21" y1="248.77" x2="383.22" y2="248.77"/>
	<line class="st1" x1="442.21" y1="324.49" x2="383.22" y2="324.49"/>
	<line class="st1" x1="442.21" y1="400.43" x2="383.22" y2="400.43"/>
	
		<rect x="452.01" y="141.37" transform="matrix(-1 -4.476387e-11 4.476387e-11 -1 983.986 320.418)" class="st2" width="79.97" height="37.67"/>
	<line class="st1" x1="491.99" y1="141.37" x2="491.99" y2="179.05"/>
	<line class="st1" x1="513.17" y1="141.37" x2="513.17" y2="179.05"/>
	<line class="st1" x1="470.85" y1="141.37" x2="470.85" y2="179.05"/>
	
		<rect x="452.01" y="214.82" transform="matrix(-1 -4.490021e-11 4.490021e-11 -1 983.986 467.3171)" class="st2" width="79.97" height="37.67"/>
	<line class="st1" x1="491.99" y1="214.82" x2="491.99" y2="252.49"/>
	<line class="st1" x1="513.17" y1="214.82" x2="513.17" y2="252.49"/>
	<line class="st1" x1="470.85" y1="214.82" x2="470.85" y2="252.49"/>
	<rect x="451.94" y="205.11" class="st1" width="80.02" height="9.7"/>
	<line class="st1" x1="451.94" y1="207.92" x2="531.92" y2="207.92"/>
	<line class="st1" x1="451.94" y1="211.44" x2="531.92" y2="211.44"/>
	<line class="st1" x1="491.99" y1="205.11" x2="491.99" y2="214.81"/>
	<rect x="452.03" y="289.11" class="st2" width="79.97" height="37.67"/>
	<line class="st1" x1="492.01" y1="289.11" x2="492.01" y2="326.78"/>
	<line class="st1" x1="470.84" y1="289.11" x2="470.84" y2="326.78"/>
	<line class="st1" x1="513.16" y1="289.11" x2="513.16" y2="326.78"/>
	
		<rect x="452.04" y="289.12" transform="matrix(-1 -4.487756e-11 4.487756e-11 -1 984.0491 615.9169)" class="st2" width="79.97" height="37.67"/>
	<line class="st1" x1="492.02" y1="289.12" x2="492.02" y2="326.79"/>
	<line class="st1" x1="513.2" y1="289.12" x2="513.2" y2="326.79"/>
	<line class="st1" x1="470.88" y1="289.12" x2="470.88" y2="326.79"/>
	<rect x="451.98" y="279.41" class="st1" width="80.02" height="9.7"/>
	<line class="st1" x1="451.98" y1="282.22" x2="531.95" y2="282.22"/>
	<line class="st1" x1="451.98" y1="285.74" x2="531.95" y2="285.74"/>
	<line class="st1" x1="492.02" y1="279.41" x2="492.02" y2="289.11"/>
	<rect x="452.03" y="363.97" class="st2" width="79.97" height="37.67"/>
	<line class="st1" x1="492.01" y1="363.97" x2="492.01" y2="401.65"/>
	<line class="st1" x1="470.84" y1="363.97" x2="470.84" y2="401.65"/>
	<line class="st1" x1="513.16" y1="363.97" x2="513.16" y2="401.65"/>
	
		<rect x="452.04" y="363.99" transform="matrix(-1 -4.490021e-11 4.490021e-11 -1 984.0491 765.6502)" class="st2" width="79.97" height="37.67"/>
	<line class="st1" x1="492.02" y1="363.99" x2="492.02" y2="401.66"/>
	<line class="st1" x1="513.2" y1="363.99" x2="513.2" y2="401.66"/>
	<line class="st1" x1="470.88" y1="363.99" x2="470.88" y2="401.66"/>
	<rect x="451.98" y="354.28" class="st1" width="80.02" height="9.7"/>
	<line class="st1" x1="451.98" y1="357.09" x2="531.95" y2="357.09"/>
	<line class="st1" x1="451.98" y1="360.61" x2="531.95" y2="360.61"/>
	<line class="st1" x1="492.02" y1="354.28" x2="492.02" y2="363.97"/>
	<rect x="419.1" y="442.26" class="st1" width="145.75" height="55.85"/>
	<polygon class="st1" points="597.25,512.94 386.72,512.94 401.23,498.11 583.1,498.11 	"/>
	<line class="st1" x1="401.23" y1="429.5" x2="401.23" y2="498.11"/>
	<line class="st1" x1="583.1" y1="498.11" x2="583.1" y2="429.5"/>
	<line class="st1" x1="388.88" y1="510.73" x2="595.24" y2="510.73"/>
	<line class="st1" x1="592.82" y1="508.29" x2="391.07" y2="508.29"/>
	<line class="st1" x1="393.98" y1="505.52" x2="590.17" y2="505.52"/>
	<line class="st1" x1="587.55" y1="502.78" x2="396.51" y2="502.78"/>
	<line class="st1" x1="399.24" y1="500.15" x2="585.11" y2="500.15"/>
	<rect x="422.11" y="444.55" class="st2" width="23.11" height="38.52"/>
	<rect x="452.03" y="442.26" class="st2" width="79.97" height="55.85"/>
	<rect x="538.76" y="444.55" class="st2" width="23.11" height="38.52"/>
	<line class="st1" x1="452.03" y1="452.09" x2="532" y2="452.09"/>
	<rect x="475.36" y="442.26" class="st1" width="33.42" height="55.85"/>
	<line class="st1" x1="489.17" y1="472.83" x2="489.17" y2="477.73"/>
	<line class="st1" x1="494.75" y1="472.85" x2="494.75" y2="477.75"/>
	<line class="st2" x1="422.11" y1="452.09" x2="445.22" y2="452.09"/>
	<line class="st2" x1="538.76" y1="452.09" x2="561.87" y2="452.09"/>
	<g>
		<rect x="834.39" y="440.17" class="st1" width="48.99" height="47.02"/>
		<rect x="834.39" y="487.2" class="st1" width="48.99" height="25.74"/>
		<line class="st1" x1="834.39" y1="491.17" x2="883.38" y2="491.17"/>
		<line class="st1" x1="834.39" y1="495.43" x2="883.38" y2="495.43"/>
		<line class="st1" x1="834.39" y1="500.07" x2="883.38" y2="500.07"/>
		<line class="st1" x1="834.39" y1="504.63" x2="883.38" y2="504.63"/>
		<line class="st1" x1="834.39" y1="508.93" x2="883.38" y2="508.93"/>
		<rect x="837.33" y="443.7" class="st2" width="43.49" height="43.49"/>
		<line class="st1" x1="858.89" y1="443.7" x2="858.89" y2="487.2"/>
		<line class="st1" x1="855.33" y1="465.45" x2="855.33" y2="469.48"/>
		<line class="st1" x1="862.37" y1="465.45" x2="862.37" y2="469.48"/>
	</g>
	<line class="st2" x1="491.94" y1="442.26" x2="491.94" y2="498.12"/>
	<g>
		<rect x="97.09" y="440.19" class="st1" width="48.99" height="47.02"/>
		<rect x="97.09" y="487.21" class="st1" width="48.99" height="25.74"/>
		<line class="st1" x1="97.09" y1="491.19" x2="146.07" y2="491.19"/>
		<line class="st1" x1="97.09" y1="495.44" x2="146.07" y2="495.44"/>
		<line class="st1" x1="97.09" y1="500.08" x2="146.07" y2="500.08"/>
		<line class="st1" x1="97.09" y1="504.64" x2="146.07" y2="504.64"/>
		<line class="st1" x1="97.09" y1="508.94" x2="146.07" y2="508.94"/>
		<rect x="100.02" y="443.72" class="st2" width="43.49" height="43.49"/>
		<line class="st1" x1="121.58" y1="443.72" x2="121.58" y2="487.21"/>
		<line class="st1" x1="118.02" y1="465.46" x2="118.02" y2="469.49"/>
		<line class="st1" x1="125.06" y1="465.46" x2="125.06" y2="469.49"/>
	</g>
</g>
</svg>
