<svg xmlns="http://www.w3.org/2000/svg" width="232" height="89.4" viewBox="0 0 232 89.4">
  <metadata><?xpacket begin="﻿" id="W5M0MpCehiHzreSzNTczkc9d"?>
<x:xmpmeta xmlns:x="adobe:ns:meta/" x:xmptk="Adobe XMP Core 5.6-c140 79.160451, 2017/05/06-01:08:21        ">
   <rdf:RDF xmlns:rdf="http://www.w3.org/1999/02/22-rdf-syntax-ns#">
      <rdf:Description rdf:about=""/>
   </rdf:RDF>
</x:xmpmeta>
                                                                                                    
                                                                                                    
                                                                                                    
                                                                                                    
                                                                                                    
                                                                                                    
                                                                                                    
                                                                                                    
                                                                                                    
                                                                                                    
                                                                                                    
                                                                                                    
                                                                                                    
                                                                                                    
                                                                                                    
                                                                                                    
                                                                                                    
                                                                                                    
                                                                                                    
                                                                                                    
                           
<?xpacket end="w"?></metadata>
<defs>
    <style>
      .cls-1 {
        fill: #ffbc6b;
        fill-rule: evenodd;
      }
    </style>
  </defs>
  <path class="cls-1" d="M1067.91,10775.9c7.18-13.3,14.06-27.2,14.36-27.8l0.21-.4-4.43-2.3-0.23.4c-7.44,13.8-13.52,19.2-15.94,20.6,0.2-1.3.97-4,3.76-8.9,1.75-2.5,3.42-5.1,4.95-7.8l0.23-.4-4.2-2.7-0.27.4c-1.97,2.9-3.67,5.6-5.03,8-6.3,8.9-11.94,13.3-14.68,15.1,7.04-17.7,12.22-24.2,29.21-37l0.36-.2,0.28-6.5c-0.38.2-12.11,6.7-32.38,29.7,3.99-6.4,8.28-12.9,11.77-17.6l0.25-.3-3.31-3.5-0.35.3c-2.77,1.8-5.51,3.7-8.15,5.6a90.925,90.925,0,0,0,4.3-10.6c1.12-3.4.43-6.4-1.89-8.1a8.152,8.152,0,0,0-4.84-1.3c-6.26,0-15.88,4.6-28.6,13.8-20.51,14.8-35.407,39.2-36.031,40.2l-0.259.5,4.282,2.6,0.259-.5c0.148-.2,15.017-24.6,34.679-38.7,16.11-11.7,23.34-12.9,25.7-12.9a3.044,3.044,0,0,1,1.85.4c0.54,0.4.4,1.5,0.09,2.5a116.559,116.559,0,0,1-8.55,18.8c-20.03,15.3-31.57,28-35.366,34.3-3,4.9-3.266,9.3-.679,11.2a4.522,4.522,0,0,0,2.565.8c3.83,0,9.5-4.4,17.35-13.4,4.5-5.1,11.64-15,18.2-26.4l-9.07,5.6c0.13-.2,10.84-8.8,10.84-8.8,1.56-1.1,3.16-2.3,4.8-3.5-6.75,10.3-14.12,23-15.64,28.3l-0.11.4,4.22,2.2,0.26-.4c3.72-4.6,7.37-9.1,10.86-13.2-0.98,2.3-2,4.9-3.14,7.9a3.084,3.084,0,0,0,2.86,4.4c3.11,0,8.28-3.3,13.65-8.7a5.477,5.477,0,0,0,.47,1.7,3.9,3.9,0,0,0,3.54,2.1,8.477,8.477,0,0,0,4.44-1.7q-2.145,4.05-4.05,7.5c-6.6,2.1-15.51,6.5-20.88,15.6-3.07,5.2-1.54,8.7.71,10.2a6.624,6.624,0,0,0,3.14.8c3.82,0,8.64-3.4,12.27-8.8,1.71-2.5,4.77-7.7,7.29-12.1l-6.48,1.3a64.715,64.715,0,0,1,7.31-2.7,40.669,40.669,0,0,1,9.26-1.6l0.28-.1,2.98-5.2-0.89.1A71.168,71.168,0,0,0,1067.91,10775.9Zm-65.4,12.5a11.544,11.544,0,0,1,1.71-4.2c2.85-4.7,10.55-13.5,23.78-24.7a161.215,161.215,0,0,1-12.6,17.5C1007.76,10785.7,1003.94,10787.9,1002.51,10788.4Zm42.23,7.4a28.669,28.669,0,0,1,12.62-11.2c-1.93,3.3-3.59,6-4.95,8-3.54,5.2-6.76,6.6-8.1,6.6a0.556,0.556,0,0,1-.49-0.1C1043.65,10799,1043.53,10797.8,1044.74,10795.8Zm122.64-41.4a37.242,37.242,0,0,1-6.05-8.7l-3.46,2.1c1.84-2.1,2.94-3.3,2.94-3.3,7.56-8.7,15.42-15.3,23.36-19.6l0.2-.1,1.43-6.2-0.92.4c-11.64,5.4-21.26,14.6-27.79,22.1,0.65-1.6,1.29-3.2,1.93-4.7l0.19-.5-4.62-1.9-0.19.5c-1.9,4.5-3.82,9.3-5.7,14.1a6.789,6.789,0,0,1-4.86-3l-4.39,1.6,0.32,1.1c1.33,3.4-1.11,7.5-3.34,8.5a2.073,2.073,0,0,1-1.05.3,2.345,2.345,0,0,1-1.58-.6,3.748,3.748,0,0,1-.76-4c0.14-.4.29-0.8,0.46-1.3a77.306,77.306,0,0,0,26.26-26.3c2.56-4.3,1.65-7.5-.05-9a5.258,5.258,0,0,0-3.39-1.2c-2.05,0-4.36,1-6.84,3-3.94,3-15.06,17.8-20.02,30.1-0.07,0-.14.1-0.22,0.1a2.022,2.022,0,0,1-.66.2c-0.96,0-1.07-1.8-1.07-1.9l-0.03-.6-4.65,1.4-0.09.2a30.617,30.617,0,0,1-3.72,6.4c-4.28,5-10.01,7.6-11.88,7.6a0.814,0.814,0,0,1-.4-0.1,1.833,1.833,0,0,1-.84-1.8c0.01-2.6,2.6-6.9,9.79-11.1a55.554,55.554,0,0,1,12.16-5.5l0.42-5.2c-6.01,1.2-11.61,4.3-15.14,6.4-5.36,3.1-9.16,6.8-11,10.5-1.23,2.4-4.98,6.5-7.04,8.2-0.02-.8.04-1.7,0.08-2.3,0.14-2.3.29-4.8-.93-6.5l-3.69,1.8c1.36-1.4,2.71-2.8,2.71-2.8a200.025,200.025,0,0,1,25.2-20.7l0.97-.7,0.39-6.3-0.84.5a215.092,215.092,0,0,0-27.75,22.2c1.07-2.5,1.96-4.7,2.65-6.8l0.16-.5-4.74-1.6-0.16.5c-2.89,8.5-8.72,19-11.92,24.4a28.421,28.421,0,0,0-2.44,4.1l-0.2.4,4.33,2.4,0.25-.4c0.16-.2.99-1.6,2.21-3.6a69.957,69.957,0,0,1,6.22-7.9c0.41-.5.83-1,1.28-1.5a5.479,5.479,0,0,1,1.33-.3,19.887,19.887,0,0,1-.03,3c-0.17,2.7-.48,7.7,3.99,8.2a0.672,0.672,0,0,0,.45.1c0.95,0,2.69-.5,6.71-4.7l0.51-.6a6.619,6.619,0,0,0,2.3,2.4,5.524,5.524,0,0,0,2.94.7c4.87,0,11.83-4.7,15.75-9.2a33.582,33.582,0,0,0,2.42-3.5h0.07a3.232,3.232,0,0,0,1.88.6c0.2,0,.4-0.1.6-0.1a8.222,8.222,0,0,0,2.68,6.3,7.483,7.483,0,0,0,4.9,1.9,8.536,8.536,0,0,0,3.14-.7c3.05-1.4,5.61-4.9,6.39-8.7a14.2,14.2,0,0,0,1.95.7c-0.86,2.3-1.36,3.6-1.37,3.6l-0.16.5,4.43,2.1,0.24-.4a92.536,92.536,0,0,1,7.29-10.4,45.871,45.871,0,0,0,6.35,8.9,86.945,86.945,0,0,0,11.71,10.9l0.54,0.4,1.8-4.9-0.28-.2A86.109,86.109,0,0,1,1167.38,10754.4Zm-14.83-32.8c2.21-1.7,3.45-1.9,3.79-1.9a5.305,5.305,0,0,1-.89,2.7,74.759,74.759,0,0,1-17.85,20C1142.66,10733.1,1149.82,10723.7,1152.55,10721.6Zm52.91,17.6-0.36.4c-3.96,4.5-7.74,7.3-10.12,7.3a2.074,2.074,0,0,1-1.69-.8c-0.68-.9-1.52-3.4.4-10.3l0.28-1-6.03,2.5-0.08.2c-2.04,5-8.35,10.7-12.42,12.4a2.507,2.507,0,0,1-.88.1,1.88,1.88,0,0,1-1.51-.6,1.7,1.7,0,0,1-.23-1.5l0.02-.1c0.71-3.3,4.29-11.6,22.04-17l0.23-.1,2.26-5.7-0.97.3c-19.56,5.3-27.79,16-28.54,21.9-0.41,3.2.73,6,3.07,7.4a4.894,4.894,0,0,0,2.69.8,9.737,9.737,0,0,0,3.46-.8c3.25-1.2,7.42-4.2,10.85-7.7,0.36,2.5,1.36,4.2,2.99,5.2a6.32,6.32,0,0,0,2.74.7c3.54,0,8.3-3.1,14.98-9.7l0.36-.3Z" transform="translate(-977 -10714.8)"/>
</svg>
