<svg xmlns="http://www.w3.org/2000/svg" width="200" height="77" viewBox="0 0 200 77">
  <metadata><?xpacket begin="﻿" id="W5M0MpCehiHzreSzNTczkc9d"?>
<x:xmpmeta xmlns:x="adobe:ns:meta/" x:xmptk="Adobe XMP Core 5.6-c140 79.160451, 2017/05/06-01:08:21        ">
   <rdf:RDF xmlns:rdf="http://www.w3.org/1999/02/22-rdf-syntax-ns#">
      <rdf:Description rdf:about=""/>
   </rdf:RDF>
</x:xmpmeta>
                                                                                                    
                                                                                                    
                                                                                                    
                                                                                                    
                                                                                                    
                                                                                                    
                                                                                                    
                                                                                                    
                                                                                                    
                                                                                                    
                                                                                                    
                                                                                                    
                                                                                                    
                                                                                                    
                                                                                                    
                                                                                                    
                                                                                                    
                                                                                                    
                                                                                                    
                                                                                                    
                           
<?xpacket end="w"?></metadata>
<defs>
    <style>
      .cls-1 {
        fill: #fff;
        fill-rule: evenodd;
      }
    </style>
  </defs>
  <path class="cls-1" d="M301.371,61.651c6.192-11.442,12.12-23.417,12.375-23.932l0.187-.379-3.817-1.972-0.2.371c-6.415,11.843-11.659,16.506-13.739,17.691,0.173-1.069.831-3.4,3.24-7.651,1.511-2.143,2.945-4.407,4.265-6.731l0.2-.358-3.621-2.268-0.234.339c-1.7,2.463-3.163,4.765-4.341,6.844C290.256,51.266,285.4,55.048,283.031,56.6c6.072-15.245,10.541-20.792,25.188-31.781l0.31-.232,0.237-5.559c-0.323.148-10.442,5.777-27.909,25.567,3.435-5.547,7.134-11.077,10.144-15.137l0.216-.291-2.855-2.98-0.3.2c-2.388,1.609-4.746,3.242-7.027,4.868a81.486,81.486,0,0,0,3.707-9.125c0.97-2.948.376-5.48-1.629-6.945a6.935,6.935,0,0,0-4.176-1.2c-5.388,0-13.681,4.006-24.649,11.9C236.6,38.632,223.761,59.64,223.223,60.527L223,60.9l3.691,2.231,0.224-.368c0.127-.211,12.946-21.162,29.894-33.367,13.892-10,20.124-11.083,22.158-11.083a2.856,2.856,0,0,1,1.6.359c0.46,0.336.341,1.317,0.076,2.123a98.6,98.6,0,0,1-7.374,16.2C256,50.181,246.055,61.121,242.779,66.486c-2.586,4.235-2.816,8.028-.585,9.66a3.663,3.663,0,0,0,2.212.7c3.3,0,8.193-3.76,14.952-11.5,4.131-4.727,11.365-14.986,17.222-25.474,1.34-1.016,2.723-2.044,4.131-3.073-5.813,8.925-12.167,19.785-13.474,24.359l-0.1.339,3.637,1.872L271,63.1c3.209-4.015,6.351-7.823,9.367-11.352-0.844,1.982-1.729,4.2-2.711,6.781a2.663,2.663,0,0,0,1.256,3.515,2.842,2.842,0,0,0,1.208.243c2.687,0,7.144-2.842,11.769-7.473a4.034,4.034,0,0,0,.407,1.431,3.346,3.346,0,0,0,3.052,1.82,7.153,7.153,0,0,0,3.823-1.443c-1.226,2.3-2.395,4.457-3.486,6.434-5.692,1.815-13.371,5.615-18,13.446-2.649,4.483-1.328,7.5.608,8.728A4.986,4.986,0,0,0,281,86c3.29,0,7.442-2.981,10.578-7.6,1.47-2.163,3.308-5.172,5.479-8.972l1.521-2.7a38.361,38.361,0,0,1,7.977-1.375l0.241-.007,2.575-4.491-0.77.022A71.6,71.6,0,0,0,301.371,61.651Zm-56.38,10.73a9.781,9.781,0,0,1,1.472-3.651c2.455-4.023,9.095-11.6,20.5-21.189a141.893,141.893,0,0,1-10.855,14.978C249.514,70.063,246.225,71.924,244.991,72.382ZM281.4,78.69a24.756,24.756,0,0,1,10.875-9.607c-1.666,2.865-3.1,5.181-4.266,6.9-3.054,4.494-5.826,5.693-6.982,5.693a0.824,0.824,0,0,1-.42-0.083C280.456,81.45,280.355,80.46,281.4,78.69ZM387.119,43.115a30.7,30.7,0,0,1-5.663-8.5c6.515-7.524,13.29-13.191,20.139-16.845l0.173-.093L403,12.283l-0.8.368c-10.027,4.63-18.323,12.529-23.952,19.008,0.558-1.366,1.113-2.711,1.661-4.023l0.167-.4L376.1,25.58l-0.167.4c-1.64,3.928-3.293,8.016-4.914,12.156a5.833,5.833,0,0,1-4.188-2.591l-0.221-.481L363.2,37.555l0.121,0.308c1.143,2.919-.959,6.467-2.881,7.345a2.175,2.175,0,0,1-.907.205,2.033,2.033,0,0,1-1.364-.534,3.083,3.083,0,0,1-.651-3.357q0.183-.564.393-1.144a66.7,66.7,0,0,0,22.637-22.622c2.212-3.738,1.43-6.449-.039-7.741A4.355,4.355,0,0,0,377.586,9c-1.77,0-3.755.846-5.9,2.511-3.393,2.637-12.977,15.354-17.254,25.9a1.732,1.732,0,0,1-.187.1,1.439,1.439,0,0,1-.569.144c-0.831,0-.923-1.5-0.926-1.564l-0.03-.551-4,1.239-0.079.179a28.446,28.446,0,0,1-3.211,5.46c-3.685,4.288-8.626,6.532-10.242,6.532a0.7,0.7,0,0,1-.341-0.057,1.688,1.688,0,0,1-.727-1.575c0.014-2.212,2.239-5.887,8.443-9.572a46.006,46.006,0,0,1,10.481-4.669l0.365-4.52a44.42,44.42,0,0,0-13.052,5.485c-4.619,2.745-7.9,5.9-9.486,9.106a32.287,32.287,0,0,1-6.07,7.013c-0.016-.65.036-1.476,0.068-1.993,0.146-2.35.312-5.006-1.64-6.44a171.617,171.617,0,0,1,21.717-17.814l0.838-.585,0.337-5.458-0.728.495a184.99,184.99,0,0,0-23.915,19.027c0.918-2.093,1.683-4.039,2.281-5.807l0.138-.408-4.087-1.38-0.138.409c-2.488,7.344-7.517,16.34-10.278,21.024a28.55,28.55,0,0,0-2.1,3.486l-0.174.367,3.732,2.048,0.217-.344c0.133-.211.852-1.356,1.9-3.128a68.925,68.925,0,0,1,5.368-6.8q0.519-.586,1.1-1.219a5.573,5.573,0,0,1,1.148-.336,17.489,17.489,0,0,1-.028,2.594c-0.144,2.316-.413,6.628,3.439,7.12a2.943,2.943,0,0,0,.385.029c0.826,0,2.325-.422,5.787-4.065q0.217-.229.443-0.474a5.656,5.656,0,0,0,1.978,2.058,4.792,4.792,0,0,0,2.538.649c4.2,0,10.2-4.065,13.572-7.995a24.1,24.1,0,0,0,2.091-2.983c0.02,0.013.041,0.027,0.062,0.039a3.1,3.1,0,0,0,1.621.446,3.783,3.783,0,0,0,.516-0.037A7.02,7.02,0,0,0,355.3,48.1a6.367,6.367,0,0,0,4.229,1.627,6.448,6.448,0,0,0,2.7-.6,10.768,10.768,0,0,0,5.5-7.46,8.933,8.933,0,0,0,1.686.582c-0.745,1.948-1.17,3.094-1.181,3.125l-0.137.37,3.821,1.806,0.2-.339a90.32,90.32,0,0,1,6.287-8.919,39.509,39.509,0,0,0,5.473,7.677,76.426,76.426,0,0,0,10.1,9.387l0.465,0.349L396,51.466l-0.242-.194A73.979,73.979,0,0,1,387.119,43.115Zm-12.783-28.2c1.908-1.483,2.975-1.613,3.271-1.617a4.4,4.4,0,0,1-.774,2.267,63.941,63.941,0,0,1-15.387,17.188C365.809,24.767,371.981,16.744,374.336,14.913Zm45.609,15.106-0.305.352c-3.412,3.917-6.673,6.256-8.725,6.256a1.715,1.715,0,0,1-1.462-.685c-0.58-.763-1.306-2.926.346-8.835l0.241-.859-5.2,2.184-0.067.165c-1.753,4.244-7.193,9.2-10.7,10.625a2.038,2.038,0,0,1-.761.143,1.657,1.657,0,0,1-1.3-.541,1.515,1.515,0,0,1-.2-1.336l0.02-.091c0.617-2.843,3.7-9.956,19-14.6l0.2-.06,1.953-4.873-0.834.224c-16.868,4.532-23.957,13.735-24.607,18.814-0.357,2.79.634,5.191,2.65,6.425a4.384,4.384,0,0,0,2.315.61,8.381,8.381,0,0,0,2.981-.635,29.761,29.761,0,0,0,9.358-6.677,5.746,5.746,0,0,0,2.58,4.486,4.667,4.667,0,0,0,2.362.618c3.05,0,7.154-2.641,12.912-8.311l0.307-.3Z" transform="translate(-223 -9)"/>
</svg>
